# theta [rad]	alphax*1e6	alphay*1e6	alphaxy*1e6
0.000000000000000000e+00	2.000000000000000042e-02	2.250000000000000000e+01	-0.000000000000000000e+00
1.586662956358481438e-02	2.565886361299909990e-02	2.249434113638699984e+01	-7.132439450365608558e-01
3.173325912716962877e-02	4.262975645601941449e-02	2.247737024354398017e+01	-1.425769713879569967e+00
4.759988869075444662e-02	7.089559027852904149e-02	2.244910440972147114e+01	-2.136859853478026317e+00
6.346651825433925753e-02	1.104279037818608200e-01	2.240957209621814528e+01	-2.845798356337883472e+00
7.933314781792406845e-02	1.611868912773276596e-01	2.235881310872267491e+01	-3.551871381480906642e+00
9.519977738150889324e-02	2.231214427671767420e-01	2.229687855723282652e+01	-4.254367973222021426e+00
1.110664069450937042e-01	2.961691954080248323e-01	2.222383080459197657e+01	-4.952580777041433180e+00
1.269330365086785151e-01	3.802565963049555076e-01	2.213974340369504290e+01	-5.645806751830660275e+00
1.427996660722633260e-01	4.752989765730493699e-01	2.204470102342695270e+01	-6.333347877795340253e+00
1.586662956358481369e-01	5.812006365917739004e-01	2.193879936340822567e+01	-7.014511859301989283e+00
1.745329251994329478e-01	6.978549423663896745e-01	2.182214505763361245e+01	-7.688612821961033461e+00
1.903995547630177865e-01	8.251444328993439159e-01	2.169485556710066021e+01	-8.354972003244164114e+00
2.062661843266025974e-01	9.629409384635376767e-01	2.155705906153646367e+01	-9.012918435940676432e+00
2.221328138901874083e-01	1.111105709658377849e+00	2.140889429034162106e+01	-9.661789623764578394e+00
2.379994434537722192e-01	1.269489557118660406e+00	2.125051044288133895e+01	-1.030093220843218482e+01
2.538660730173570301e-01	1.437933001735617333e+00	2.108206699826438069e+01	-1.092970262753853739e+01
2.697327025809418410e-01	1.616266435238858046e+00	2.090373356476113997e+01	-1.154746776257017515e+01
2.855993321445266520e-01	1.804310290977523268e+00	2.071568970902247742e+01	-1.215360557640183359e+01
3.014659617081114629e-01	2.001875224728679736e+00	2.051812477527132117e+01	-1.274750573963508593e+01
3.173325912716962738e-01	2.208762305350902011e+00	2.031123769464910112e+01	-1.332857024514832034e+01
3.331992208352810847e-01	2.424763215091068957e+00	2.009523678490893062e+01	-1.389621401023920377e+01
3.490658503988658956e-01	2.649660459342686902e+00	1.987033954065731223e+01	-1.444986546575340469e+01
3.649324799624507065e-01	2.883227585644517532e+00	1.963677241435548382e+01	-1.498896713160623761e+01
3.807991095260355729e-01	3.125229411699012694e+00	1.939477058830098954e+01	-1.551297617811787966e+01
3.966657390896203839e-01	3.375422262180949762e+00	1.914457773781904848e+01	-1.602136497259683878e+01
4.125323686532051948e-01	3.633554214097835189e+00	1.888644578590216838e+01	-1.651362161062134959e+01
4.283989982167900057e-01	3.899365350454996548e+00	1.862063464954500702e+01	-1.698925043148372538e+01
4.442656277803748166e-01	4.172588021969968253e+00	1.834741197803003132e+01	-1.744777251727869327e+01
4.601322573439596275e-01	4.452947116572627095e+00	1.806705288342737248e+01	-1.788872617513310459e+01
4.759988869075444384e-01	4.740160336419732445e+00	1.777983966358026890e+01	-1.831166740209154753e+01
4.918655164711292493e-01	5.033938482144921345e+00	1.748606151785508089e+01	-1.871617033218966242e+01
5.077321460347140603e-01	5.333985744057954115e+00	1.718601425594204457e+01	-1.910182766526508402e+01
5.235987755982989267e-01	5.640000000000000568e+00	1.688000000000000256e+01	-1.946825107707418212e+01
5.394654051618836821e-01	5.951673119555045410e+00	1.656832688044495683e+01	-1.981507161030164355e+01
5.553320347254685485e-01	6.268691274311101402e+00	1.625130872568890439e+01	-2.014194004606923372e+01
5.711986642890533039e-01	6.590735253858797549e+00	1.592926474614120380e+01	-2.044852725556957296e+01
5.870652938526381703e-01	6.917480787209234094e+00	1.560251921279076370e+01	-2.073452453147098851e+01
6.029319234162229257e-01	7.248598869307361525e+00	1.527140113069263982e+01	-2.099964389875960080e+01
6.187985529798077922e-01	7.583756092312180286e+00	1.493624390768781929e+01	-2.124361840470574947e+01
6.346651825433925476e-01	7.922614981310189819e+00	1.459738501868981153e+01	-2.146620238766278277e+01
6.505318121069774140e-01	8.264834334124008919e+00	1.425516566587599243e+01	-2.166717172442750083e+01
6.663984416705621694e-01	8.610069564874034853e+00	1.390993043512596650e+01	-2.184632405591321813e+01
6.822650712341470358e-01	8.957973050947257931e+00	1.356202694905274519e+01	-2.200347899090822779e+01
6.981317007977317912e-01	9.308194483023701338e+00	1.321180551697629824e+01	-2.213847828771443815e+01
7.139983303613166576e-01	9.660381217808275522e+00	1.285961878219172583e+01	-2.225118601348336966e+01
7.298649599249014130e-01	1.001417863311263723e+01	1.250582136688736590e+01	-2.234148868108899677e+01
7.457315894884862795e-01	1.036923048492969812e+01	1.215076951507030145e+01	-2.240929536339966432e+01
7.615982190520711459e-01	1.072517926614114003e+01	1.179482073385886132e+01	-2.245453778483401663e+01
7.774648486156559013e-01	1.108166656649675907e+01	1.143833343350324228e+01	-2.247717039010871076e+01
7.933314781792407677e-01	1.143833343350324228e+01	1.108166656649675907e+01	-2.247717039010871432e+01
8.091981077428255231e-01	1.179482073385886665e+01	1.072517926614114003e+01	-2.245453778483402019e+01
8.250647373064103896e-01	1.215076951507030323e+01	1.036923048492969812e+01	-2.240929536339966788e+01
8.409313668699951450e-01	1.250582136688736057e+01	1.001417863311263723e+01	-2.234148868108899322e+01
8.567979964335800114e-01	1.285961878219172583e+01	9.660381217808273746e+00	-2.225118601348336611e+01
8.726646259971647668e-01	1.321180551697629824e+01	9.308194483023703114e+00	-2.213847828771443815e+01
8.885312555607496332e-01	1.356202694905274519e+01	8.957973050947257931e+00	-2.200347899090822423e+01
9.043978851243343886e-01	1.390993043512596650e+01	8.610069564874038406e+00	-2.184632405591322168e+01
9.202645146879192550e-01	1.425516566587599243e+01	8.264834334124005366e+00	-2.166717172442749373e+01
9.361311442515040104e-01	1.459738501868981153e+01	7.922614981310191595e+00	-2.146620238766278632e+01
9.519977738150888769e-01	1.493624390768781929e+01	7.583756092312180286e+00	-2.124361840470574592e+01
9.678644033786736323e-01	1.527140113069263627e+01	7.248598869307361525e+00	-2.099964389875960080e+01
9.837310329422584987e-01	1.560251921279077081e+01	6.917480787209234094e+00	-2.073452453147099206e+01
9.995976625058432541e-01	1.592926474614120202e+01	6.590735253858800213e+00	-2.044852725556957651e+01
1.015464292069428121e+00	1.625130872568890439e+01	6.268691274311099626e+00	-2.014194004606923016e+01
1.031330921633012876e+00	1.656832688044494972e+01	5.951673119555048075e+00	-1.981507161030164355e+01
1.047197551196597853e+00	1.688000000000000611e+01	5.639999999999997904e+00	-1.946825107707418212e+01
1.063064180760182609e+00	1.718601425594204457e+01	5.333985744057952338e+00	-1.910182766526508047e+01
1.078930810323767364e+00	1.748606151785508089e+01	5.033938482144921345e+00	-1.871617033218966242e+01
1.094797439887352120e+00	1.777983966358026890e+01	4.740160336419734222e+00	-1.831166740209155108e+01
1.110664069450937097e+00	1.806705288342737248e+01	4.452947116572625319e+00	-1.788872617513310459e+01
1.126530699014521852e+00	1.834741197803003843e+01	4.172588021969967365e+00	-1.744777251727869682e+01
1.142397328578106608e+00	1.862063464954500702e+01	3.899365350454996548e+00	-1.698925043148372538e+01
1.158263958141691363e+00	1.888644578590216838e+01	3.633554214097836077e+00	-1.651362161062135314e+01
1.174130587705276341e+00	1.914457773781905203e+01	3.375422262180948429e+00	-1.602136497259683878e+01
1.189997217268861096e+00	1.939477058830098954e+01	3.125229411699012250e+00	-1.551297617811787966e+01
1.205863846832445851e+00	1.963677241435548027e+01	2.883227585644518420e+00	-1.498896713160623584e+01
1.221730476396030607e+00	1.987033954065730867e+01	2.649660459342688235e+00	-1.444986546575340824e+01
1.237597105959615584e+00	2.009523678490893062e+01	2.424763215091067625e+00	-1.389621401023920200e+01
1.253463735523200340e+00	2.031123769464910112e+01	2.208762305350902011e+00	-1.332857024514832034e+01
1.269330365086785095e+00	2.051812477527132117e+01	2.001875224728681069e+00	-1.274750573963508771e+01
1.285196994650370073e+00	2.071568970902247742e+01	1.804310290977522602e+00	-1.215360557640183004e+01
1.301063624213954828e+00	2.090373356476113997e+01	1.616266435238858046e+00	-1.154746776257017515e+01
1.316930253777539583e+00	2.108206699826438069e+01	1.437933001735617333e+00	-1.092970262753853739e+01
1.332796883341124339e+00	2.125051044288133895e+01	1.269489557118660850e+00	-1.030093220843218838e+01
1.348663512904709316e+00	2.140889429034162106e+01	1.111105709658376739e+00	-9.661789623764574841e+00
1.364530142468294072e+00	2.155705906153646367e+01	9.629409384635374547e-01	-9.012918435940676432e+00
1.380396772031878827e+00	2.169485556710066021e+01	8.251444328993439159e-01	-8.354972003244164114e+00
1.396263401595463582e+00	2.182214505763361245e+01	6.978549423663903406e-01	-7.688612821961035237e+00
1.412130031159048560e+00	2.193879936340822923e+01	5.812006365917733453e-01	-7.014511859301986618e+00
1.427996660722633315e+00	2.204470102342695270e+01	4.752989765730492033e-01	-6.333347877795338476e+00
1.443863290286218071e+00	2.213974340369504290e+01	3.802565963049556741e-01	-5.645806751830662051e+00
1.459729919849802826e+00	2.222383080459197657e+01	2.961691954080252764e-01	-4.952580777041437621e+00
1.475596549413387804e+00	2.229687855723282652e+01	2.231214427671764089e-01	-4.254367973222018762e+00
1.491463178976972559e+00	2.235881310872267491e+01	1.611868912773276041e-01	-3.551871381480906198e+00
1.507329808540557314e+00	2.240957209621814528e+01	1.104279037818609865e-01	-2.845798356337886137e+00
1.523196438104142292e+00	2.244910440972147114e+01	7.089559027852879169e-02	-2.136859853478020987e+00
1.539063067667727047e+00	2.247737024354398017e+01	4.262975645601933816e-02	-1.425769713879567524e+00
1.554929697231311803e+00	2.249434113638699984e+01	2.565886361299909990e-02	-7.132439450365609668e-01
1.570796326794896558e+00	2.250000000000000000e+01	2.000000000000000042e-02	-2.753006004483250422e-15
