-3.250000000000000000e+00	-7.119639438060235079e+02	3.532913554381317822e-01	3.229706152780247308e-01
-3.125000000000000000e+00	-6.845807151980994831e+02	3.397032263828190235e-01	3.105486685365622668e-01
-3.000000000000000000e+00	-6.571974865901754583e+02	3.261150973275062648e-01	2.981267217950997472e-01
-2.875000000000000000e+00	-6.298142579822515472e+02	3.125269682721935061e-01	2.857047750536372832e-01
-2.750000000000000000e+00	-6.024310293743275224e+02	2.989388392168807473e-01	2.732828283121747637e-01
-2.625000000000000000e+00	-5.750478007664036113e+02	2.853507101615679886e-01	2.608608815707122996e-01
-2.500000000000000000e+00	-5.476645721584795865e+02	2.717625811062552299e-01	2.484389348292498079e-01
-2.375000000000000000e+00	-5.202813435505555617e+02	2.581744520509424712e-01	2.360169880877873161e-01
-2.250000000000000000e+00	-4.928981149426316506e+02	2.445863229956297125e-01	2.235950413463248243e-01
-2.125000000000000000e+00	-4.655148863347076258e+02	2.309981939403169537e-01	2.111730946048623325e-01
-2.000000000000000000e+00	-4.381316577267836578e+02	2.174100648850041950e-01	1.987511478633998407e-01
-1.875000000000000000e+00	-4.107484291188596899e+02	2.038219358296914085e-01	1.863292011219373490e-01
-1.750000000000000000e+00	-3.833652005109357219e+02	1.902338067743786498e-01	1.739072543804748572e-01
-1.625000000000000000e+00	-3.559819719030117540e+02	1.766456777190658911e-01	1.614853076390123654e-01
-1.500000000000000000e+00	-3.285987432950877292e+02	1.630575486637531324e-01	1.490633608975498736e-01
-1.375000000000000000e+00	-3.012155146871637612e+02	1.494694196084403737e-01	1.366414141560873818e-01
-1.250000000000000000e+00	-2.738322860792397933e+02	1.358812905531276150e-01	1.242194674146249039e-01
-1.125000000000000000e+00	-2.464490574713158253e+02	1.222931614978148562e-01	1.117975206731624122e-01
-1.000000000000000000e+00	-2.190658288633918289e+02	1.087050324425020975e-01	9.937557393169992037e-02
-8.750000000000000000e-01	-1.916826002554678610e+02	9.511690338718932491e-02	8.695362719023742859e-02
-7.500000000000000000e-01	-1.642993716475438646e+02	8.152877433187656619e-02	7.453168044877493681e-02
-6.250000000000000000e-01	-1.369161430396198966e+02	6.794064527656380748e-02	6.210973370731245197e-02
-5.000000000000000000e-01	-1.095329144316959145e+02	5.435251622125104876e-02	4.968778696584996019e-02
-5.000000000000000000e-01	-1.209136273452878996e+01	-2.553620342734011395e+00	-4.585500941473195979e+00
-3.750000000000000000e-01	-9.068522050896593356e+00	-1.915215257050508546e+00	-3.439125706104896985e+00
-2.500000000000000000e-01	-6.045681367264394979e+00	-1.276810171367005697e+00	-2.292750470736597990e+00
-2.500000000000000000e-01	-6.167847099877863393e+00	-1.563068573769775593e+00	2.506137138904430461e+00
-1.250000000000000000e-01	-3.083923549938931696e+00	-7.815342868848877966e-01	1.253068569452215231e+00
0.000000000000000000e+00	0.000000000000000000e+00	0.000000000000000000e+00	-0.000000000000000000e+00
0.000000000000000000e+00	0.000000000000000000e+00	0.000000000000000000e+00	-0.000000000000000000e+00
1.250000000000000000e-01	3.083923549938931696e+00	7.815342868848877966e-01	-1.253068569452215231e+00
2.500000000000000000e-01	6.167847099877863393e+00	1.563068573769775593e+00	-2.506137138904430461e+00
2.500000000000000000e-01	6.045681367264394979e+00	1.276810171367005697e+00	2.292750470736597990e+00
3.750000000000000000e-01	9.068522050896593356e+00	1.915215257050508546e+00	3.439125706104896985e+00
5.000000000000000000e-01	1.209136273452878996e+01	2.553620342734011395e+00	4.585500941473195979e+00
5.000000000000000000e-01	1.095329144316959145e+02	-5.435251622125104876e-02	-4.968778696584996019e-02
6.250000000000000000e-01	1.369161430396198966e+02	-6.794064527656380748e-02	-6.210973370731245197e-02
7.500000000000000000e-01	1.642993716475438646e+02	-8.152877433187656619e-02	-7.453168044877493681e-02
8.750000000000000000e-01	1.916826002554678610e+02	-9.511690338718932491e-02	-8.695362719023742859e-02
1.000000000000000000e+00	2.190658288633918289e+02	-1.087050324425020975e-01	-9.937557393169992037e-02
1.125000000000000000e+00	2.464490574713158253e+02	-1.222931614978148562e-01	-1.117975206731624122e-01
1.250000000000000000e+00	2.738322860792397933e+02	-1.358812905531276150e-01	-1.242194674146249039e-01
1.375000000000000000e+00	3.012155146871637612e+02	-1.494694196084403737e-01	-1.366414141560873818e-01
1.500000000000000000e+00	3.285987432950877292e+02	-1.630575486637531324e-01	-1.490633608975498736e-01
1.625000000000000000e+00	3.559819719030117540e+02	-1.766456777190658911e-01	-1.614853076390123654e-01
1.750000000000000000e+00	3.833652005109357219e+02	-1.902338067743786498e-01	-1.739072543804748572e-01
1.875000000000000000e+00	4.107484291188596899e+02	-2.038219358296914085e-01	-1.863292011219373490e-01
2.000000000000000000e+00	4.381316577267836578e+02	-2.174100648850041950e-01	-1.987511478633998407e-01
2.125000000000000000e+00	4.655148863347076258e+02	-2.309981939403169537e-01	-2.111730946048623325e-01
2.250000000000000000e+00	4.928981149426316506e+02	-2.445863229956297125e-01	-2.235950413463248243e-01
2.375000000000000000e+00	5.202813435505555617e+02	-2.581744520509424712e-01	-2.360169880877873161e-01
2.500000000000000000e+00	5.476645721584795865e+02	-2.717625811062552299e-01	-2.484389348292498079e-01
2.625000000000000000e+00	5.750478007664036113e+02	-2.853507101615679886e-01	-2.608608815707122996e-01
2.750000000000000000e+00	6.024310293743275224e+02	-2.989388392168807473e-01	-2.732828283121747637e-01
2.875000000000000000e+00	6.298142579822515472e+02	-3.125269682721935061e-01	-2.857047750536372832e-01
3.000000000000000000e+00	6.571974865901754583e+02	-3.261150973275062648e-01	-2.981267217950997472e-01
3.125000000000000000e+00	6.845807151980994831e+02	-3.397032263828190235e-01	-3.105486685365622668e-01
3.250000000000000000e+00	7.119639438060235079e+02	-3.532913554381317822e-01	-3.229706152780247308e-01
