-3.250000000000000000e+00	0.000000000000000000e+00	0.000000000000000000e+00	0.000000000000000000e+00
-3.125000000000000000e+00	-1.741010468821119428e+00	-4.319868030996931729e-18	0.000000000000000000e+00
-3.000000000000000000e+00	-3.413746017296312552e+00	-8.470329472543003391e-18	0.000000000000000000e+00
-2.875000000000000000e+00	-5.018206645425578927e+00	-1.245138432463821498e-17	0.000000000000000000e+00
-2.750000000000000000e+00	-6.554392353208919886e+00	-1.626303258728256651e-17	0.000000000000000000e+00
-2.625000000000000000e+00	-8.022303140646334541e+00	-1.990527426047605797e-17	0.000000000000000000e+00
-2.500000000000000000e+00	-9.421939007737822891e+00	-2.337810934421868936e-17	0.000000000000000000e+00
-2.375000000000000000e+00	-1.075329995448338494e+01	-2.668153783851046068e-17	0.000000000000000000e+00
-2.250000000000000000e+00	-1.201638598088301890e+01	-2.981555974335137194e-17	0.000000000000000000e+00
-2.125000000000000000e+00	-1.321119708693672834e+01	-3.278017505874142312e-17	0.000000000000000000e+00
-2.000000000000000000e+00	-1.433773327264451147e+01	-3.557538378468061424e-17	0.000000000000000000e+00
-1.875000000000000000e+00	-1.539599453800636830e+01	-3.820118592116894529e-17	0.000000000000000000e+00
-1.750000000000000000e+00	-1.638598088302229883e+01	-4.065758146820641628e-17	0.000000000000000000e+00
-1.625000000000000000e+00	-1.730769230769230305e+01	-4.294457042579302719e-17	0.000000000000000000e+00
-1.500000000000000000e+00	-1.816112881201638274e+01	-4.506215279392877804e-17	0.000000000000000000e+00
-1.375000000000000000e+00	-1.894629039599453435e+01	-4.701032857261366882e-17	0.000000000000000000e+00
-1.250000000000000000e+00	-1.966317705962676143e+01	-4.878909776184769953e-17	0.000000000000000000e+00
-1.125000000000000000e+00	-2.031178880291306044e+01	-5.039846036163087017e-17	0.000000000000000000e+00
-1.000000000000000000e+00	-2.089212562585343136e+01	-5.183841637196318075e-17	0.000000000000000000e+00
-8.750000000000000000e-01	-2.140418752844787775e+01	-5.310896579284463126e-17	0.000000000000000000e+00
-7.500000000000000000e-01	-2.184797451069639962e+01	-5.421010862427522170e-17	0.000000000000000000e+00
-6.250000000000000000e-01	-2.222348657259899340e+01	-5.514184486625495207e-17	0.000000000000000000e+00
-5.000000000000000000e-01	-2.253072371415566266e+01	-5.590417451878382238e-17	0.000000000000000000e+00
-3.750000000000000000e-01	-2.276968593536640384e+01	-5.649709758186183262e-17	0.000000000000000000e+00
-2.500000000000000000e-01	-2.294037323623122049e+01	-5.692061405548898279e-17	0.000000000000000000e+00
-1.250000000000000000e-01	-2.304278561675010906e+01	-5.717472393966527289e-17	0.000000000000000000e+00
0.000000000000000000e+00	-2.307692307692307310e+01	-5.725942723439070292e-17	0.000000000000000000e+00
1.250000000000000000e-01	-2.304278561675010906e+01	-5.717472393966527289e-17	0.000000000000000000e+00
2.500000000000000000e-01	-2.294037323623122049e+01	-5.692061405548898279e-17	0.000000000000000000e+00
3.750000000000000000e-01	-2.276968593536640384e+01	-5.649709758186183262e-17	0.000000000000000000e+00
5.000000000000000000e-01	-2.253072371415566266e+01	-5.590417451878382238e-17	0.000000000000000000e+00
6.250000000000000000e-01	-2.222348657259899340e+01	-5.514184486625495207e-17	0.000000000000000000e+00
7.500000000000000000e-01	-2.184797451069639962e+01	-5.421010862427522170e-17	0.000000000000000000e+00
8.750000000000000000e-01	-2.140418752844787775e+01	-5.310896579284463126e-17	0.000000000000000000e+00
1.000000000000000000e+00	-2.089212562585343136e+01	-5.183841637196318075e-17	0.000000000000000000e+00
1.125000000000000000e+00	-2.031178880291306044e+01	-5.039846036163087017e-17	0.000000000000000000e+00
1.250000000000000000e+00	-1.966317705962676143e+01	-4.878909776184769953e-17	0.000000000000000000e+00
1.375000000000000000e+00	-1.894629039599453435e+01	-4.701032857261366882e-17	0.000000000000000000e+00
1.500000000000000000e+00	-1.816112881201638274e+01	-4.506215279392877804e-17	0.000000000000000000e+00
1.625000000000000000e+00	-1.730769230769230305e+01	-4.294457042579302719e-17	0.000000000000000000e+00
1.750000000000000000e+00	-1.638598088302229883e+01	-4.065758146820641628e-17	0.000000000000000000e+00
1.875000000000000000e+00	-1.539599453800636830e+01	-3.820118592116894529e-17	0.000000000000000000e+00
2.000000000000000000e+00	-1.433773327264451147e+01	-3.557538378468061424e-17	0.000000000000000000e+00
2.125000000000000000e+00	-1.321119708693672834e+01	-3.278017505874142312e-17	0.000000000000000000e+00
2.250000000000000000e+00	-1.201638598088301890e+01	-2.981555974335137194e-17	0.000000000000000000e+00
2.375000000000000000e+00	-1.075329995448338494e+01	-2.668153783851046068e-17	0.000000000000000000e+00
2.500000000000000000e+00	-9.421939007737822891e+00	-2.337810934421868936e-17	0.000000000000000000e+00
2.625000000000000000e+00	-8.022303140646334541e+00	-1.990527426047605797e-17	0.000000000000000000e+00
2.750000000000000000e+00	-6.554392353208919886e+00	-1.626303258728256651e-17	0.000000000000000000e+00
2.875000000000000000e+00	-5.018206645425578927e+00	-1.245138432463821498e-17	0.000000000000000000e+00
3.000000000000000000e+00	-3.413746017296312552e+00	-8.470329472543003391e-18	0.000000000000000000e+00
3.125000000000000000e+00	-1.741010468821119428e+00	-4.319868030996931729e-18	0.000000000000000000e+00
3.250000000000000000e+00	0.000000000000000000e+00	0.000000000000000000e+00	0.000000000000000000e+00
