material	obj	n	hfoam	total height	mass
carbon	0.0841602013285	36.0	4.48614412015	34.6430720601	258.20307206
aramid	0.180122481741	50.0	6.03906479551	48.0195323978	284.269532398
glass	0.0139148491259	47.0	4.0	44.3	403.85
