%!PS-Adobe-3.0 EPSF-3.0
%%Creator: cairo 1.12.2 (http://cairographics.org)
%%CreationDate: Mon Mar 11 12:01:39 2013
%%Pages: 1
%%DocumentData: Clean7Bit
%%LanguageLevel: 2
%%BoundingBox: 56 33 412 302
%%EndComments
%%BeginProlog
save
50 dict begin
/q { gsave } bind def
/Q { grestore } bind def
/cm { 6 array astore concat } bind def
/w { setlinewidth } bind def
/J { setlinecap } bind def
/j { setlinejoin } bind def
/M { setmiterlimit } bind def
/d { setdash } bind def
/m { moveto } bind def
/l { lineto } bind def
/c { curveto } bind def
/h { closepath } bind def
/re { exch dup neg 3 1 roll 5 3 roll moveto 0 rlineto
      0 exch rlineto 0 rlineto closepath } bind def
/S { stroke } bind def
/f { fill } bind def
/f* { eofill } bind def
/n { newpath } bind def
/W { clip } bind def
/W* { eoclip } bind def
/BT { } bind def
/ET { } bind def
/pdfmark where { pop globaldict /?pdfmark /exec load put }
    { globaldict begin /?pdfmark /pop load def /pdfmark
    /cleartomark load def end } ifelse
/BDC { mark 3 1 roll /BDC pdfmark } bind def
/EMC { mark /EMC pdfmark } bind def
/cairo_store_point { /cairo_point_y exch def /cairo_point_x exch def } def
/Tj { show currentpoint cairo_store_point } bind def
/TJ {
  {
    dup
    type /stringtype eq
    { show } { -0.001 mul 0 cairo_font_matrix dtransform rmoveto } ifelse
  } forall
  currentpoint cairo_store_point
} bind def
/cairo_selectfont { cairo_font_matrix aload pop pop pop 0 0 6 array astore
    cairo_font exch selectfont cairo_point_x cairo_point_y moveto } bind def
/Tf { pop /cairo_font exch def /cairo_font_matrix where
      { pop cairo_selectfont } if } bind def
/Td { matrix translate cairo_font_matrix matrix concatmatrix dup
      /cairo_font_matrix exch def dup 4 get exch 5 get cairo_store_point
      /cairo_font where { pop cairo_selectfont } if } bind def
/Tm { 2 copy 8 2 roll 6 array astore /cairo_font_matrix exch def
      cairo_store_point /cairo_font where { pop cairo_selectfont } if } bind def
/g { setgray } bind def
/rg { setrgbcolor } bind def
/d1 { setcachedevice } bind def
%%EndProlog
%%Page: 1 1
%%BeginPageSetup
%%PageBoundingBox: 56 33 412 302
%%EndPageSetup
q 56 33 356 269 rectclip q
0 g
372.043 36.808 m 369.852 39.156 369.633 39.211 362.039 39.211 c 354.711
 39.211 354.188 39.097 352.703 37.211 c 351.574 35.777 350.355 35.211 348.406
 35.211 c 346.383 35.211 345.344 35.722 344.371 37.211 c 343.305 38.832 
342.41 39.211 339.594 39.211 c 337.004 39.211 335.582 38.703 333.969 37.211
 c 331.207 34.648 329.297 34.683 326.645 37.336 c 324.516 39.465 l 193.082
 38.992 l 61.645 38.519 l 61.555 78.265 l 61.504 100.125 61.414 135.226 
61.352 156.273 c 61.242 194.539 l 59.109 196.093 l 57.051 197.593 56.973
 197.929 56.91 205.715 c 56.848 213.402 56.941 213.855 58.844 215.351 c 
61.66 217.566 61.66 222.668 58.844 225.281 c 56.285 227.652 56.301 230.418
 58.887 232.851 c 60.934 234.773 l 60.621 263.992 l 60.449 280.062 60.52
 295.008 60.777 297.211 c 61.242 301.179 61.266 301.211 64.324 301.461 c
 66.355 301.629 67.223 301.425 66.875 300.863 c 66.586 300.394 65.496 300.008
 64.453 300.008 c 62.559 300.008 l 62.543 274.808 l 62.523 249.609 l 64.484
 249.609 l 65.562 249.609 66.445 249.25 66.445 248.808 c 66.445 248.371 
65.363 248.008 64.043 248.008 c 61.273 248.008 61.25 247.894 62.578 239.867
 c 63.238 235.863 64.055 233.672 65.379 232.347 c 67.777 229.949 67.742 
227.851 65.258 225.492 c 62.227 222.617 62.422 217.058 65.676 213.574 c 
68.109 210.968 l 94.676 210.984 l 109.289 210.992 127.824 211.047 135.863
 211.105 c 150.484 211.211 l 149.305 213.492 l 148.266 215.504 148.266 215.972
 149.328 217.484 c 151.363 220.39 153.324 221.015 156.023 219.621 c 158.961
 218.101 159.961 214.929 158.141 212.914 c 157.426 212.129 156.844 211.242
 156.844 210.945 c 156.844 210.277 160.402 210.234 161.062 210.894 c 161.332
 211.164 166.34 211.324 172.191 211.254 c 182.836 211.125 l 181.039 212.8
 l 178.855 214.836 178.691 218.461 180.707 220.285 c 182.875 222.246 186.086
 221.925 188.312 219.523 c 189.559 218.179 190.438 217.754 190.793 218.324
 c 191.684 219.765 195.117 219.336 196.895 217.558 c 198.086 216.367 198.414
 215.304 198.074 213.758 c 197.605 211.609 l 220.223 211.871 l 232.664 212.011
 248.234 212.082 254.828 212.023 c 266.809 211.918 l 265.027 213.816 l 262.816
 216.168 262.75 218.715 264.844 220.808 c 267.602 223.566 271.402 222.773
 273.332 219.039 c 274.531 216.722 274.496 216.597 272.031 214.398 c 269.504
 212.14 l 275.773 211.875 l 279.223 211.73 282.133 211.789 282.242 212.008
 c 282.355 212.23 298.516 212.328 318.16 212.226 c 349.277 212.07 354.055
 211.886 355.262 210.793 c 356.539 209.636 356.648 206.109 356.684 163.777
 c 356.785 45.422 356.852 40.808 358.527 40.808 c 359.68 40.808 360.043 
41.386 360.043 43.211 c 360.043 44.531 360.402 45.609 360.844 45.609 c 361.285
 45.609 361.645 44.531 361.645 43.211 c 361.645 40.843 361.707 40.808 365.895
 40.808 c 369.688 40.808 370.332 41.066 371.918 43.211 c 374.164 46.25 376.086
 46.242 379.141 43.191 c 381.559 40.769 l 395.402 40.992 l 409.242 41.211
 l 409.496 43.41 l 409.855 46.531 411.242 46.144 411.242 42.922 c 411.242
 40.273 411.176 40.222 407.043 39.726 c 404.734 39.449 397.984 39.211 392.043
 39.195 c 381.242 39.164 l 378.91 36.789 l 375.98 33.8 374.848 33.804 372.043
 36.808 c h
350.266 37.254 m 352.27 38.656 352.504 40.539 350.93 42.609 c 349.531 44.453
 347.918 44.379 346.223 42.402 c 344.5 40.39 344.488 39.328 346.168 37.472
 c 347.777 35.695 348.02 35.679 350.266 37.254 c h
333.465 38.418 m 334.293 39.746 334.242 40.375 333.164 42.019 c 331.066
 45.218 327.242 44.179 327.242 40.41 c 327.242 36.851 331.613 35.453 333.465
 38.418 c h
378.301 39.457 m 378.445 40.695 378.129 42.222 377.605 42.859 c 375.211
 45.738 371.402 42.679 372.402 38.687 c 372.82 37.023 373.305 36.75 375.473
 36.961 c 377.625 37.168 378.086 37.578 378.301 39.457 c h
111.172 42.691 m 111.898 45.211 l 111.973 42.484 l 112.043 39.754 l 128.246
 40.281 l 137.152 40.57 148.082 40.804 152.527 40.808 c 160.613 40.808 l
 161.445 43.41 l 162.281 46.011 l 162.445 40.808 l 210.445 40.808 l 210.445
 43.211 l 210.445 46.218 211.848 46.379 212.191 43.41 c 212.445 41.211 l
 236.242 40.996 l 260.043 40.785 l 260.043 43.199 l 260.043 46.215 261.449
 46.386 261.789 43.41 c 262.043 41.211 l 309.242 41.211 l 309.906 46.008
 l 310.383 43.609 l 310.855 41.211 l 317.582 40.976 l 324.18 40.746 324.348
 40.785 326.531 43.175 c 327.754 44.515 329.496 45.609 330.398 45.609 c 
332.102 45.609 335.242 43.015 335.242 41.609 c 335.242 41.168 336.957 40.808
 339.047 40.808 c 342.234 40.808 343.215 41.195 345.113 43.211 c 347.762
 46.015 348.551 46.117 351.242 44.008 c 352.344 43.148 353.5 42.437 353.809
 42.425 c 354.121 42.418 354.301 79.758 354.211 125.41 c 354.043 208.41 
l 338.043 208.668 l 329.242 208.808 264.684 208.675 194.578 208.367 c 74.164
 207.843 67.129 207.734 67.473 206.425 c 67.672 205.66 67.555 204.535 67.211
 203.922 c 66.867 203.308 66.867 201.277 67.207 199.406 c 67.793 196.203
 67.723 196.008 65.965 196.008 c 64.938 196.008 63.734 195.328 63.293 194.5
 c 62.84 193.656 62.52 187.851 62.566 181.39 c 62.613 175.008 62.402 169.39
 62.098 168.898 c 61.797 168.406 61.801 162.804 62.109 156.449 c 62.672 
144.894 l 65.156 144.652 l 67.719 144.402 68.297 142.808 65.828 142.808 
c 62.527 142.808 62.496 142.535 62.672 116.781 c 62.844 92.011 l 64.996 
92.011 l 68.145 92.008 68.527 90.558 65.457 90.261 c 62.844 90.008 l 62.867
 83.808 l 62.879 80.398 62.969 69.175 63.066 58.871 c 63.242 40.129 l 86.844
 40.152 l 110.441 40.172 l 111.168 42.691 l h
325.266 146.371 m 323.695 149.406 323.723 149.761 325.676 151.859 c 328.902
 155.324 334.445 153.441 334.445 148.875 c 334.445 146.023 332.191 144.008
 329 144.008 c 327.023 144.008 326.223 144.515 325.266 146.371 c h
332.707 147.855 m 333.062 150.383 331.398 152.14 328.914 151.851 c 327.449
 151.679 326.766 151.066 326.582 149.75 c 326.129 146.554 327 145.484 329.84
 145.758 c 331.859 145.953 332.504 146.425 332.707 147.855 c h
125.445 166.476 m 124.676 167.32 124.043 168.55 124.043 169.211 c 124.043
 169.871 123.344 170.41 122.488 170.41 c 120.781 170.41 118.445 173.218 
118.445 175.269 c 118.445 177.004 122.027 180.808 123.66 180.808 c 125.527
 180.808 128.043 179.308 128.043 178.199 c 128.043 177.675 129.523 175.89
 131.332 174.238 c 134.156 171.656 134.543 170.918 134.07 169.023 c 133.766
 167.812 133.141 166.367 132.684 165.812 c 131.441 164.32 127.047 164.722
 125.445 166.476 c h
131.926 168.121 m 133.492 170.625 131.703 173.777 128.902 173.449 c 126.027
 173.109 124.625 169.133 126.816 167.531 c 128.988 165.941 130.691 166.136
 131.926 168.121 c h
125.875 174.027 m 127.707 176.543 126.535 179.211 123.598 179.211 c 121.145
 179.211 119.582 175.968 120.871 173.558 c 122 171.449 124.148 171.652 125.875
 174.027 c h
72.566 185.472 m 70.789 187.441 70.898 190.062 72.844 192.008 c 74.941 
194.105 77.98 194.043 80.012 191.859 c 81.969 189.761 82.066 188.172 80.398
 185.789 c 78.828 183.547 74.469 183.371 72.566 185.472 c h
79.266 186.832 m 81.758 189.84 76.586 193.832 73.805 191.05 c 72.77 190.015
 72.508 187.011 73.379 186.144 c 74.371 185.148 78.242 185.601 79.266 186.832
 c h
128.184 197.859 m 125.941 200.25 125.977 202.492 128.297 204.672 c 131.215
 207.414 134.566 206.84 136.402 203.289 c 137.203 201.738 137.277 200.73
 136.676 199.586 c 134.609 195.66 130.949 194.918 128.184 197.859 c h
133.988 198.867 m 134.68 199.558 135.242 200.664 135.242 201.324 c 135.242
 202.933 133.277 204.808 131.59 204.808 c 130.141 204.808 128.113 202.652
 128.07 201.066 c 128.035 199.797 130.297 197.609 131.645 197.609 c 132.242
 197.609 133.297 198.175 133.988 198.867 c h
332.691 199.808 m 330.473 202.39 330.344 203.195 331.77 205.609 c 333.586
 208.683 337.773 208.984 340.09 206.211 c 341.938 203.996 342.016 202.492
 340.398 200.187 c 338.852 197.976 334.449 197.761 332.691 199.808 c h
339.266 201.234 m 340.039 202.168 340.066 202.922 339.379 204.433 c 337.918
 207.64 332.844 206.691 332.844 203.211 c 332.844 200.215 337.281 198.847
 339.266 201.234 c h
64.684 197.769 m 66.66 199.746 65.734 200.808 62.043 200.808 c 59.625 200.808
 58.445 200.468 58.445 199.769 c 58.445 198.211 60.148 196.808 62.043 196.808
 c 62.969 196.808 64.156 197.242 64.684 197.769 c h
64.836 203.597 m 66.121 205.148 65.211 207.894 63.859 206.543 c 62.715 
205.402 60.043 205.308 60.043 206.41 c 60.043 206.847 59.684 207.211 59.242
 207.211 c 58.355 207.211 58.141 203.781 58.977 202.941 c 59.961 201.961
 63.836 202.394 64.836 203.597 c h
64.445 209.609 m 65.32 212.367 64.164 214.41 61.727 214.41 c 58.895 214.41
 56.82 211.164 58.422 209.238 c 59.938 207.41 63.824 207.652 64.445 209.609
 c h
195.203 211.562 m 195.73 212.195 196.043 213.722 195.902 214.961 c 195.586
 217.726 192.336 218.582 190.688 216.332 c 189.293 214.425 189.363 213.89
 191.242 212.008 c 193.145 210.109 193.926 210.019 195.203 211.562 c h
188.203 212.168 m 187.457 212.918 187.031 212.918 186.285 212.168 c 185.539
 211.422 185.75 211.211 187.242 211.211 c 188.738 211.211 188.949 211.422
 188.203 212.168 c h
156.816 213.558 m 157.883 215.554 157.898 215.472 156.148 217.488 c 154.242
 219.687 152.789 219.633 151.09 217.297 c 149.879 215.625 149.863 215.254
 150.938 213.722 c 152.434 211.582 155.711 211.488 156.816 213.558 c h
187.238 214.8 m 188.172 216.543 188.121 217 186.82 218.437 c 183.891 221.672
 179.656 218.847 181.469 214.871 c 182.719 212.133 185.789 212.093 187.238
 214.8 c h
271.238 215.601 m 272.168 217.34 272.121 217.8 270.852 219.203 c 269.207
 221.015 267.227 221.273 265.805 219.847 c 264.477 218.519 264.605 216.363
 266.102 214.867 c 267.938 213.031 270.023 213.328 271.238 215.601 c h
64.844 227.211 m 66.242 229.82 64.508 232.156 61.391 231.855 c 59.387 231.66
 58.785 231.195 58.566 229.656 c 58.066 226.09 63.18 224.097 64.844 227.211
 c h
221.211 218.769 m 219.723 221.527 l 221.926 223.57 l 224.625 226.07 227.453
 226.179 229.613 223.859 c 231.621 221.703 231.641 220.148 229.688 217.808
 c 228.668 216.586 227.312 216.008 225.441 216.008 c 223.133 216.008 222.461
 216.449 221.211 218.769 c h
228.812 218.769 m 230.977 221.379 227.648 224.754 224.043 223.609 c 222.469
 223.109 221.742 219.379 222.977 218.144 c 223.949 217.172 227.832 217.59
 228.812 218.769 c h
101.008 218.613 m 100.547 219.168 99.934 220.574 99.641 221.746 c 98.961
 224.445 101.5 227.215 104.645 227.195 c 107.578 227.179 108.609 226.422
 109.27 223.797 c 110.102 220.472 107.906 217.609 104.523 217.609 c 103.047
 217.609 101.465 218.062 101.008 218.613 c h
107.266 220.433 m 108.969 222.488 106.988 225.777 104.238 225.461 c 102
 225.203 100.973 222.91 101.957 220.351 c 102.535 218.836 105.984 218.89
 107.266 220.433 c h
239.645 226.695 m 238.07 229.097 238.531 231.058 241.27 233.633 c 243.879
 236.086 247.066 235.14 248.562 231.468 c 249.465 229.261 249.418 228.718
 248.223 227.312 c 247.465 226.418 245.523 225.457 243.914 225.172 c 241.363
 224.722 240.809 224.922 239.645 226.695 c h
246.836 228.777 m 247.488 230.84 245.961 233.609 244.176 233.609 c 242.125
 233.609 240.844 232.011 240.844 229.449 c 240.844 227.429 241.117 227.211
 243.59 227.211 c 245.617 227.211 246.469 227.621 246.836 228.781 c h
146.008 270.925 m 144.926 272.09 144.043 273.476 144.043 274.008 c 144.043
 275.629 147.867 279.211 149.598 279.211 c 153.824 279.211 156.145 272.996
 152.98 270.133 c 150.855 268.211 148.246 268.508 146.008 270.925 c h
151.883 271.371 m 154.137 273.621 152.16 278.062 149.168 277.476 c 145.695
 276.793 145.633 270.41 149.098 270.41 c 150.102 270.41 151.355 270.84 151.883
 271.371 c h
f
Q Q
showpage
%%Trailer
end restore
%%EOF
