<?xml version="1.0" encoding="UTF-8" standalone="no"?>
<!-- Created with Inkscape (http://www.inkscape.org/) -->

<svg
   xmlns:dc="http://purl.org/dc/elements/1.1/"
   xmlns:cc="http://creativecommons.org/ns#"
   xmlns:rdf="http://www.w3.org/1999/02/22-rdf-syntax-ns#"
   xmlns:svg="http://www.w3.org/2000/svg"
   xmlns="http://www.w3.org/2000/svg"
   xmlns:xlink="http://www.w3.org/1999/xlink"
   xmlns:sodipodi="http://sodipodi.sourceforge.net/DTD/sodipodi-0.dtd"
   xmlns:inkscape="http://www.inkscape.org/namespaces/inkscape"
   id="svg2"
   version="1.1"
   inkscape:version="0.48.3.1 r9886"
   width="548.43713"
   height="545.55609"
   sodipodi:docname="postulates_continuum_mechanics.svg"
   inkscape:export-filename="/home/fcaimmi/Documents/Politecnico/Didattica/Composite_materials_for_structural_applications/Lezioni Compositi/2013-LECTURES/images/postulates_200dpi.png"
   inkscape:export-xdpi="200"
   inkscape:export-ydpi="200">
  <metadata
     id="metadata8">
    <rdf:RDF>
      <cc:Work
         rdf:about="">
        <dc:format>image/svg+xml</dc:format>
        <dc:type
           rdf:resource="http://purl.org/dc/dcmitype/StillImage" />
        <dc:title></dc:title>
      </cc:Work>
    </rdf:RDF>
  </metadata>
  <defs
     id="defs6">
    <marker
       inkscape:stockid="Arrow2Send"
       orient="auto"
       refY="0"
       refX="0"
       id="Arrow2Send"
       style="overflow:visible">
      <path
         id="path4827"
         style="fill-rule:evenodd;stroke-width:0.625;stroke-linejoin:round"
         d="M 8.7185878,4.0337352 -2.2072895,0.01601326 8.7185884,-4.0017078 c -1.7454984,2.3720609 -1.7354408,5.6174519 -6e-7,8.035443 z"
         transform="matrix(-0.3,0,0,-0.3,0.69,0)"
         inkscape:connector-curvature="0" />
    </marker>
    <marker
       inkscape:stockid="Arrow2Lend"
       orient="auto"
       refY="0"
       refX="0"
       id="Arrow2Lend"
       style="overflow:visible">
      <path
         id="path4232"
         style="fill-rule:evenodd;stroke-width:0.625;stroke-linejoin:round"
         d="M 8.7185878,4.0337352 -2.2072895,0.01601326 8.7185884,-4.0017078 c -1.7454984,2.3720609 -1.7354408,5.6174519 -6e-7,8.035443 z"
         transform="matrix(-1.1,0,0,-1.1,-1.1,0)"
         inkscape:connector-curvature="0" />
    </marker>
    <marker
       inkscape:stockid="Arrow1Lend"
       orient="auto"
       refY="0"
       refX="0"
       id="Arrow1Lend"
       style="overflow:visible">
      <path
         id="path4214"
         d="M 0,0 5,-5 -12.5,0 5,5 0,0 z"
         style="fill-rule:evenodd;stroke:#000000;stroke-width:1pt"
         transform="matrix(-0.8,0,0,-0.8,-10,0)"
         inkscape:connector-curvature="0" />
    </marker>
    <linearGradient
       id="linearGradient4011">
      <stop
         style="stop-color:#ffaa00;stop-opacity:0.20930232;"
         offset="0"
         id="stop4013" />
      <stop
         style="stop-color:#ffce00;stop-opacity:1;"
         offset="1"
         id="stop4015" />
    </linearGradient>
    <marker
       inkscape:stockid="TriangleOutL"
       orient="auto"
       refY="0"
       refX="0"
       id="TriangleOutL"
       style="overflow:visible">
      <path
         id="path5334"
         d="m 5.77,0 -8.65,5 0,-10 8.65,5 z"
         style="fill-rule:evenodd;stroke:#000000;stroke-width:1pt;marker-start:none"
         transform="scale(0.8,0.8)"
         inkscape:connector-curvature="0" />
    </marker>
    <inkscape:perspective
       sodipodi:type="inkscape:persp3d"
       inkscape:vp_x="0 : 0.5 : 1"
       inkscape:vp_y="0 : 1000 : 0"
       inkscape:vp_z="1 : 0.5 : 1"
       inkscape:persp3d-origin="0.5 : 0.33333333 : 1"
       id="perspective10" />
    <inkscape:perspective
       sodipodi:type="inkscape:persp3d"
       inkscape:vp_x="0 : 0.5 : 1"
       inkscape:vp_y="0 : 1000 : 0"
       inkscape:vp_z="1 : 0.5 : 1"
       inkscape:persp3d-origin="0.5 : 0.33333333 : 1"
       id="perspective3964" />
    <inkscape:perspective
       sodipodi:type="inkscape:persp3d"
       inkscape:vp_x="0 : 0.5 : 1"
       inkscape:vp_y="0 : 1000 : 0"
       inkscape:vp_z="1 : 0.5 : 1"
       inkscape:persp3d-origin="0.5 : 0.33333333 : 1"
       id="perspective3936" />
    <inkscape:perspective
       sodipodi:type="inkscape:persp3d"
       inkscape:vp_x="0 : 0.5 : 1"
       inkscape:vp_y="0 : 1000 : 0"
       inkscape:vp_z="1 : 0.5 : 1"
       inkscape:persp3d-origin="0.5 : 0.33333333 : 1"
       id="perspective3875" />
    <inkscape:perspective
       sodipodi:type="inkscape:persp3d"
       inkscape:vp_x="0 : 0.5 : 1"
       inkscape:vp_y="0 : 1000 : 0"
       inkscape:vp_z="1 : 0.5 : 1"
       inkscape:persp3d-origin="0.5 : 0.33333333 : 1"
       id="perspective3850" />
    <inkscape:perspective
       sodipodi:type="inkscape:persp3d"
       inkscape:vp_x="0 : 0.5 : 1"
       inkscape:vp_y="0 : 1000 : 0"
       inkscape:vp_z="1 : 0.5 : 1"
       inkscape:persp3d-origin="0.5 : 0.33333333 : 1"
       id="perspective3817-4" />
    <inkscape:perspective
       sodipodi:type="inkscape:persp3d"
       inkscape:vp_x="0 : 0.5 : 1"
       inkscape:vp_y="0 : 1000 : 0"
       inkscape:vp_z="1 : 0.5 : 1"
       inkscape:persp3d-origin="0.5 : 0.33333333 : 1"
       id="perspective3817" />
    <inkscape:perspective
       sodipodi:type="inkscape:persp3d"
       inkscape:vp_x="0 : 0.5 : 1"
       inkscape:vp_y="0 : 1000 : 0"
       inkscape:vp_z="1 : 0.5 : 1"
       inkscape:persp3d-origin="0.5 : 0.33333333 : 1"
       id="perspective3784-4" />
    <inkscape:perspective
       sodipodi:type="inkscape:persp3d"
       inkscape:vp_x="0 : 0.5 : 1"
       inkscape:vp_y="0 : 1000 : 0"
       inkscape:vp_z="1 : 0.5 : 1"
       inkscape:persp3d-origin="0.5 : 0.33333333 : 1"
       id="perspective3784" />
    <inkscape:perspective
       sodipodi:type="inkscape:persp3d"
       inkscape:vp_x="0 : 0.5 : 1"
       inkscape:vp_y="0 : 1000 : 0"
       inkscape:vp_z="1 : 0.5 : 1"
       inkscape:persp3d-origin="0.5 : 0.33333333 : 1"
       id="perspective3759" />
    <inkscape:perspective
       sodipodi:type="inkscape:persp3d"
       inkscape:vp_x="0 : 0.5 : 1"
       inkscape:vp_y="0 : 1000 : 0"
       inkscape:vp_z="1 : 0.5 : 1"
       inkscape:persp3d-origin="0.5 : 0.33333333 : 1"
       id="perspective3733" />
    <inkscape:perspective
       sodipodi:type="inkscape:persp3d"
       inkscape:vp_x="0 : 0.5 : 1"
       inkscape:vp_y="0 : 1000 : 0"
       inkscape:vp_z="1 : 0.5 : 1"
       inkscape:persp3d-origin="0.5 : 0.33333333 : 1"
       id="perspective3711" />
    <inkscape:perspective
       sodipodi:type="inkscape:persp3d"
       inkscape:vp_x="0 : 0.5 : 1"
       inkscape:vp_y="0 : 1000 : 0"
       inkscape:vp_z="1 : 0.5 : 1"
       inkscape:persp3d-origin="0.5 : 0.33333333 : 1"
       id="perspective3657" />
    <inkscape:perspective
       sodipodi:type="inkscape:persp3d"
       inkscape:vp_x="0 : 0.5 : 1"
       inkscape:vp_y="0 : 1000 : 0"
       inkscape:vp_z="1 : 0.5 : 1"
       inkscape:persp3d-origin="0.5 : 0.33333333 : 1"
       id="perspective3632" />
    <inkscape:perspective
       sodipodi:type="inkscape:persp3d"
       inkscape:vp_x="0 : 0.5 : 1"
       inkscape:vp_y="0 : 1000 : 0"
       inkscape:vp_z="1 : 0.5 : 1"
       inkscape:persp3d-origin="0.5 : 0.33333333 : 1"
       id="perspective3610" />
    <inkscape:perspective
       sodipodi:type="inkscape:persp3d"
       inkscape:vp_x="0 : 0.5 : 1"
       inkscape:vp_y="0 : 1000 : 0"
       inkscape:vp_z="1 : 0.5 : 1"
       inkscape:persp3d-origin="0.5 : 0.33333333 : 1"
       id="perspective3588" />
    <inkscape:perspective
       sodipodi:type="inkscape:persp3d"
       inkscape:vp_x="0 : 0.5 : 1"
       inkscape:vp_y="0 : 1000 : 0"
       inkscape:vp_z="1 : 0.5 : 1"
       inkscape:persp3d-origin="0.5 : 0.33333333 : 1"
       id="perspective3549-2" />
    <inkscape:perspective
       sodipodi:type="inkscape:persp3d"
       inkscape:vp_x="0 : 0.5 : 1"
       inkscape:vp_y="0 : 1000 : 0"
       inkscape:vp_z="1 : 0.5 : 1"
       inkscape:persp3d-origin="0.5 : 0.33333333 : 1"
       id="perspective3549" />
    <inkscape:perspective
       sodipodi:type="inkscape:persp3d"
       inkscape:vp_x="0 : 0.5 : 1"
       inkscape:vp_y="0 : 1000 : 0"
       inkscape:vp_z="1 : 0.5 : 1"
       inkscape:persp3d-origin="0.5 : 0.33333333 : 1"
       id="perspective3527" />
    <inkscape:perspective
       sodipodi:type="inkscape:persp3d"
       inkscape:vp_x="0 : 0.5 : 1"
       inkscape:vp_y="0 : 1000 : 0"
       inkscape:vp_z="1 : 0.5 : 1"
       inkscape:persp3d-origin="0.5 : 0.33333333 : 1"
       id="perspective3437" />
    <inkscape:perspective
       sodipodi:type="inkscape:persp3d"
       inkscape:vp_x="0 : 0.5 : 1"
       inkscape:vp_y="0 : 1000 : 0"
       inkscape:vp_z="1 : 0.5 : 1"
       inkscape:persp3d-origin="0.5 : 0.33333333 : 1"
       id="perspective3396" />
    <inkscape:perspective
       sodipodi:type="inkscape:persp3d"
       inkscape:vp_x="0 : 0.5 : 1"
       inkscape:vp_y="0 : 1000 : 0"
       inkscape:vp_z="1 : 0.5 : 1"
       inkscape:persp3d-origin="0.5 : 0.33333333 : 1"
       id="perspective3374" />
    <inkscape:perspective
       sodipodi:type="inkscape:persp3d"
       inkscape:vp_x="0 : 0.5 : 1"
       inkscape:vp_y="0 : 1000 : 0"
       inkscape:vp_z="1 : 0.5 : 1"
       inkscape:persp3d-origin="0.5 : 0.33333333 : 1"
       id="perspective3352" />
    <inkscape:perspective
       sodipodi:type="inkscape:persp3d"
       inkscape:vp_x="0 : 0.5 : 1"
       inkscape:vp_y="0 : 1000 : 0"
       inkscape:vp_z="1 : 0.5 : 1"
       inkscape:persp3d-origin="0.5 : 0.33333333 : 1"
       id="perspective3330" />
    <inkscape:perspective
       sodipodi:type="inkscape:persp3d"
       inkscape:vp_x="0 : 0.5 : 1"
       inkscape:vp_y="0 : 1000 : 0"
       inkscape:vp_z="1 : 0.5 : 1"
       inkscape:persp3d-origin="0.5 : 0.33333333 : 1"
       id="perspective3308" />
    <inkscape:perspective
       sodipodi:type="inkscape:persp3d"
       inkscape:vp_x="0 : 0.5 : 1"
       inkscape:vp_y="0 : 1000 : 0"
       inkscape:vp_z="1 : 0.5 : 1"
       inkscape:persp3d-origin="0.5 : 0.33333333 : 1"
       id="perspective3286" />
    <inkscape:perspective
       sodipodi:type="inkscape:persp3d"
       inkscape:vp_x="0 : 0.5 : 1"
       inkscape:vp_y="0 : 1000 : 0"
       inkscape:vp_z="1 : 0.5 : 1"
       inkscape:persp3d-origin="0.5 : 0.33333333 : 1"
       id="perspective3194" />
    <inkscape:perspective
       sodipodi:type="inkscape:persp3d"
       inkscape:vp_x="0 : 0.5 : 1"
       inkscape:vp_y="0 : 1000 : 0"
       inkscape:vp_z="1 : 0.5 : 1"
       inkscape:persp3d-origin="0.5 : 0.33333333 : 1"
       id="perspective3145" />
    <inkscape:perspective
       sodipodi:type="inkscape:persp3d"
       inkscape:vp_x="0 : 0.5 : 1"
       inkscape:vp_y="0 : 1000 : 0"
       inkscape:vp_z="1 : 0.5 : 1"
       inkscape:persp3d-origin="0.5 : 0.33333333 : 1"
       id="perspective3109-4" />
    <inkscape:perspective
       sodipodi:type="inkscape:persp3d"
       inkscape:vp_x="0 : 0.5 : 1"
       inkscape:vp_y="0 : 1000 : 0"
       inkscape:vp_z="1 : 0.5 : 1"
       inkscape:persp3d-origin="0.5 : 0.33333333 : 1"
       id="perspective3109" />
    <inkscape:perspective
       sodipodi:type="inkscape:persp3d"
       inkscape:vp_x="0 : 0.5 : 1"
       inkscape:vp_y="0 : 1000 : 0"
       inkscape:vp_z="1 : 0.5 : 1"
       inkscape:persp3d-origin="0.5 : 0.33333333 : 1"
       id="perspective3084" />
    <inkscape:perspective
       sodipodi:type="inkscape:persp3d"
       inkscape:vp_x="0 : 0.5 : 1"
       inkscape:vp_y="0 : 1000 : 0"
       inkscape:vp_z="1 : 0.5 : 1"
       inkscape:persp3d-origin="0.5 : 0.33333333 : 1"
       id="perspective3066" />
    <linearGradient
       gradientUnits="userSpaceOnUse"
       xlink:href="#linearGradient3378"
       id="linearGradient3384"
       y2="128.5"
       x2="578.5"
       y1="128.5"
       x1="522.5" />
    <radialGradient
       gradientTransform="matrix(1,0,0,1.6153,0,-243.658)"
       gradientUnits="userSpaceOnUse"
       xlink:href="#linearGradient3360"
       id="radialGradient3374"
       fy="396"
       fx="390"
       r="73.135193"
       cy="396"
       cx="390" />
    <radialGradient
       gradientTransform="matrix(1,0,0,1.39821,0,-178.808)"
       gradientUnits="userSpaceOnUse"
       xlink:href="#linearGradient3360"
       id="radialGradient3366"
       fy="449.03214"
       fx="772.62878"
       r="130.44501"
       cy="449.03214"
       cx="772.62878" />
    <linearGradient
       id="linearGradient3360">
      <stop
         offset="0"
         style="stop-color: rgb(208, 245, 252); stop-opacity: 1;"
         id="stop3362" />
      <stop
         offset="1"
         style="stop-color: rgb(115, 181, 194); stop-opacity: 1;"
         id="stop3364" />
    </linearGradient>
    <linearGradient
       id="linearGradient3378">
      <stop
         offset="0"
         style="stop-color: rgb(170, 169, 169); stop-opacity: 1;"
         id="stop3380" />
      <stop
         offset="1"
         style="stop-color: rgb(255, 255, 255); stop-opacity: 1;"
         id="stop3382" />
    </linearGradient>
    <inkscape:perspective
       id="perspective132"
       inkscape:persp3d-origin="455 : 290.33333 : 1"
       inkscape:vp_z="910 : 435.5 : 1"
       inkscape:vp_y="0 : 1000 : 0"
       inkscape:vp_x="0 : 435.5 : 1"
       sodipodi:type="inkscape:persp3d" />
    <inkscape:perspective
       id="perspective3584"
       inkscape:persp3d-origin="0.5 : 0.33333333 : 1"
       inkscape:vp_z="1 : 0.5 : 1"
       inkscape:vp_y="0 : 1000 : 0"
       inkscape:vp_x="0 : 0.5 : 1"
       sodipodi:type="inkscape:persp3d" />
    <radialGradient
       inkscape:collect="always"
       xlink:href="#linearGradient3360-0"
       id="radialGradient3574-2"
       gradientUnits="userSpaceOnUse"
       gradientTransform="matrix(1,0,0,1.39821,-1348.485,-172.98678)"
       cx="772.62878"
       cy="449.03214"
       fx="772.62878"
       fy="449.03214"
       r="130.44501" />
    <linearGradient
       id="linearGradient3360-0">
      <stop
         offset="0"
         style="stop-color: rgb(208, 245, 252); stop-opacity: 1;"
         id="stop3362-7" />
      <stop
         offset="1"
         style="stop-color: rgb(115, 181, 194); stop-opacity: 1;"
         id="stop3364-3" />
    </linearGradient>
    <radialGradient
       r="130.44501"
       fy="449.03214"
       fx="772.62878"
       cy="449.03214"
       cx="772.62878"
       gradientTransform="matrix(1.0054389,0,0,0.95717736,11.953986,-179.23897)"
       gradientUnits="userSpaceOnUse"
       id="radialGradient3593"
       xlink:href="#linearGradient4011"
       inkscape:collect="always" />
    <inkscape:perspective
       id="perspective4394"
       inkscape:persp3d-origin="0.5 : 0.33333333 : 1"
       inkscape:vp_z="1 : 0.5 : 1"
       inkscape:vp_y="0 : 1000 : 0"
       inkscape:vp_x="0 : 0.5 : 1"
       sodipodi:type="inkscape:persp3d" />
    <radialGradient
       inkscape:collect="always"
       xlink:href="#linearGradient3360-4"
       id="radialGradient3571-2"
       gradientUnits="userSpaceOnUse"
       gradientTransform="matrix(1.10756,-0.610282,0.77042703,1.7823866,-1730.5371,-93.952967)"
       cx="390"
       cy="396"
       fx="390"
       fy="396"
       r="73.135193" />
    <linearGradient
       id="linearGradient3360-4">
      <stop
         offset="0"
         style="stop-color: rgb(208, 245, 252); stop-opacity: 1;"
         id="stop3362-3" />
      <stop
         offset="1"
         style="stop-color: rgb(115, 181, 194); stop-opacity: 1;"
         id="stop3364-7" />
    </linearGradient>
    <inkscape:perspective
       id="perspective4432"
       inkscape:persp3d-origin="0.5 : 0.33333333 : 1"
       inkscape:vp_z="1 : 0.5 : 1"
       inkscape:vp_y="0 : 1000 : 0"
       inkscape:vp_x="0 : 0.5 : 1"
       sodipodi:type="inkscape:persp3d" />
    <inkscape:perspective
       id="perspective4666"
       inkscape:persp3d-origin="0.5 : 0.33333333 : 1"
       inkscape:vp_z="1 : 0.5 : 1"
       inkscape:vp_y="0 : 1000 : 0"
       inkscape:vp_x="0 : 0.5 : 1"
       sodipodi:type="inkscape:persp3d" />
    <inkscape:perspective
       id="perspective4666-8"
       inkscape:persp3d-origin="0.5 : 0.33333333 : 1"
       inkscape:vp_z="1 : 0.5 : 1"
       inkscape:vp_y="0 : 1000 : 0"
       inkscape:vp_x="0 : 0.5 : 1"
       sodipodi:type="inkscape:persp3d" />
    <inkscape:perspective
       id="perspective4729"
       inkscape:persp3d-origin="0.5 : 0.33333333 : 1"
       inkscape:vp_z="1 : 0.5 : 1"
       inkscape:vp_y="0 : 1000 : 0"
       inkscape:vp_x="0 : 0.5 : 1"
       sodipodi:type="inkscape:persp3d" />
    <inkscape:perspective
       id="perspective4858"
       inkscape:persp3d-origin="0.5 : 0.33333333 : 1"
       inkscape:vp_z="1 : 0.5 : 1"
       inkscape:vp_y="0 : 1000 : 0"
       inkscape:vp_x="0 : 0.5 : 1"
       sodipodi:type="inkscape:persp3d" />
    <inkscape:perspective
       id="perspective5020"
       inkscape:persp3d-origin="0.5 : 0.33333333 : 1"
       inkscape:vp_z="1 : 0.5 : 1"
       inkscape:vp_y="0 : 1000 : 0"
       inkscape:vp_x="0 : 0.5 : 1"
       sodipodi:type="inkscape:persp3d" />
    <inkscape:perspective
       id="perspective5020-2"
       inkscape:persp3d-origin="0.5 : 0.33333333 : 1"
       inkscape:vp_z="1 : 0.5 : 1"
       inkscape:vp_y="0 : 1000 : 0"
       inkscape:vp_x="0 : 0.5 : 1"
       sodipodi:type="inkscape:persp3d" />
    <inkscape:perspective
       id="perspective5020-7"
       inkscape:persp3d-origin="0.5 : 0.33333333 : 1"
       inkscape:vp_z="1 : 0.5 : 1"
       inkscape:vp_y="0 : 1000 : 0"
       inkscape:vp_x="0 : 0.5 : 1"
       sodipodi:type="inkscape:persp3d" />
    <inkscape:perspective
       id="perspective5667"
       inkscape:persp3d-origin="0.5 : 0.33333333 : 1"
       inkscape:vp_z="1 : 0.5 : 1"
       inkscape:vp_y="0 : 1000 : 0"
       inkscape:vp_x="0 : 0.5 : 1"
       sodipodi:type="inkscape:persp3d" />
    <inkscape:perspective
       id="perspective5700"
       inkscape:persp3d-origin="0.5 : 0.33333333 : 1"
       inkscape:vp_z="1 : 0.5 : 1"
       inkscape:vp_y="0 : 1000 : 0"
       inkscape:vp_x="0 : 0.5 : 1"
       sodipodi:type="inkscape:persp3d" />
    <inkscape:perspective
       id="perspective5744"
       inkscape:persp3d-origin="0.5 : 0.33333333 : 1"
       inkscape:vp_z="1 : 0.5 : 1"
       inkscape:vp_y="0 : 1000 : 0"
       inkscape:vp_x="0 : 0.5 : 1"
       sodipodi:type="inkscape:persp3d" />
    <inkscape:perspective
       id="perspective6592"
       inkscape:persp3d-origin="0.5 : 0.33333333 : 1"
       inkscape:vp_z="1 : 0.5 : 1"
       inkscape:vp_y="0 : 1000 : 0"
       inkscape:vp_x="0 : 0.5 : 1"
       sodipodi:type="inkscape:persp3d" />
    <inkscape:perspective
       id="perspective6614"
       inkscape:persp3d-origin="0.5 : 0.33333333 : 1"
       inkscape:vp_z="1 : 0.5 : 1"
       inkscape:vp_y="0 : 1000 : 0"
       inkscape:vp_x="0 : 0.5 : 1"
       sodipodi:type="inkscape:persp3d" />
    <inkscape:perspective
       id="perspective6636"
       inkscape:persp3d-origin="0.5 : 0.33333333 : 1"
       inkscape:vp_z="1 : 0.5 : 1"
       inkscape:vp_y="0 : 1000 : 0"
       inkscape:vp_x="0 : 0.5 : 1"
       sodipodi:type="inkscape:persp3d" />
    <radialGradient
       inkscape:collect="always"
       xlink:href="#linearGradient4011"
       id="radialGradient4017"
       cx="318.57993"
       cy="344.56201"
       fx="318.57993"
       fy="344.56201"
       r="87.05735"
       gradientTransform="matrix(1,0,0,1.4025423,-13.38329,-279.27214)"
       gradientUnits="userSpaceOnUse" />
    <marker
       inkscape:stockid="Arrow2Send"
       orient="auto"
       refY="0"
       refX="0"
       id="Arrow2Send-1"
       style="overflow:visible">
      <path
         inkscape:connector-curvature="0"
         id="path4827-6"
         style="fill-rule:evenodd;stroke-width:0.625;stroke-linejoin:round"
         d="M 8.7185878,4.0337352 -2.2072895,0.01601326 8.7185884,-4.0017078 c -1.7454984,2.3720609 -1.7354408,5.6174519 -6e-7,8.035443 z"
         transform="matrix(-0.3,0,0,-0.3,0.69,0)" />
    </marker>
  </defs>
  <sodipodi:namedview
     pagecolor="#ffffff"
     bordercolor="#666666"
     borderopacity="1"
     objecttolerance="10"
     gridtolerance="10"
     guidetolerance="10"
     inkscape:pageopacity="0"
     inkscape:pageshadow="2"
     inkscape:window-width="1920"
     inkscape:window-height="1021"
     id="namedview4"
     showgrid="false"
     inkscape:zoom="0.98158257"
     inkscape:cx="106.57657"
     inkscape:cy="322.41167"
     inkscape:window-x="-4"
     inkscape:window-y="-3"
     inkscape:window-maximized="1"
     inkscape:current-layer="svg2"
     fit-margin-top="0"
     fit-margin-left="0"
     fit-margin-right="0"
     fit-margin-bottom="0" />
  <path
     style="fill:url(#radialGradient4017);fill-opacity:1;fill-rule:evenodd;stroke:#0058b0;stroke-width:3;stroke-linecap:butt;stroke-linejoin:miter;stroke-miterlimit:4;stroke-opacity:1;stroke-dasharray:none;stroke-dashoffset:0"
     id="path2455-1"
     d="m 375.06124,165.49418 a 124.96573,79.156433 70.340144 0 1 -139.7292,76.99287 124.96573,79.156433 70.340144 0 1 139.7292,-76.99287 z"
     inkscape:connector-curvature="0" />
  <g
     style="font-size:29.35334778px;font-style:normal;font-variant:normal;font-weight:bold;font-stretch:normal;fill:#000000;fill-opacity:1;stroke:none;font-family:times;-inkscape-font-specification:Andale Mono"
     id="text3072-5-9"
     transform="translate(-1361.8683,-134.75016)" />
  <g
     id="g5840"
     transform="translate(-13.38329,-140.57138)">
    <path
       d="m 306.8398,385.08595 c 0,0 -154.56525,208.29039 -154.56525,208.29039"
       id="path3249-0"
       style="fill:none;stroke:#000000;stroke-width:1.95713854;stroke-miterlimit:4;stroke-opacity:1;stroke-dasharray:none"
       sodipodi:nodetypes="cc"
       inkscape:connector-curvature="0" />
    <path
       sodipodi:nodetypes="cccc"
       d="m 295.56965,381.59234 c 0,0 17.63881,11.28503 17.63881,11.28503 0,0 10.77316,-32.19 10.77316,-32.19 0,0 -28.41197,20.90497 -28.41197,20.90497 z"
       id="path3358-6"
       style="fill:#000000;fill-opacity:1;fill-rule:evenodd;stroke:none"
       inkscape:connector-curvature="0" />
  </g>
  <path
     style="font-size:30.37298584px;font-style:normal;font-variant:normal;font-weight:bold;font-stretch:normal;fill:#000000;fill-opacity:1;stroke:none;font-family:times;-inkscape-font-specification:Andale Mono"
     d="m 212.73309,312.57076 -7.5932,0 0,0.7593 c 0.2733,0.03 0.5163,0.03 0.6074,0.061 1.2149,0.061 1.5794,0.3341 1.5794,1.063 0,0.6379 -0.3341,1.2757 -1.7616,3.2196 -0.243,0.3037 -0.9416,1.2756 -1.7009,2.3387 l -2.9462,-4.556 c -0.3948,-0.6074 -0.4556,-0.7593 -0.4556,-1.1238 0,-0.6378 0.3645,-0.8808 1.4579,-0.9415 0.1519,0 0.5164,-0.03 0.9416,-0.061 l 0,-0.7593 -10.5091,0 0,0.7593 c 1.0935,0.091 1.4883,0.3948 2.4299,1.7616 l 6.0138,8.8386 -5.3153,6.7124 c -0.9111,1.1238 -1.6401,1.5186 -3.1587,1.7009 l 0,0.7593 7.5932,0 0,-0.7593 c -1.8528,-0.1823 -2.4602,-0.486 -2.4602,-1.2453 0,-0.6682 0.6074,-1.6402 2.855,-4.6775 l 1.1542,-1.549 3.0677,4.9204 c 0.3645,0.5771 0.6378,1.3061 0.6378,1.6402 0,0.5163 -0.5163,0.7897 -1.5794,0.8504 -0.1215,0 -0.4556,0.03 -0.8504,0.061 l 0,0.7594 10.3268,0 0,-0.7594 c -1.0327,-0.03 -1.4883,-0.4252 -2.9462,-2.6121 l -5.5279,-8.5955 2.4299,-3.3714 c 2.6728,-3.6448 3.4625,-4.2219 5.7101,-4.4345 l 0,-0.7593"
     id="path3224-7-0-0-4"
     inkscape:connector-curvature="0" />
  <g
     id="g4821"
     transform="translate(-518.68973,-717.19123)">
    <path
       d="m 657.56702,1170.502 c 0,0 -116.51877,90.7453 -116.51877,90.7453"
       id="path3241-0-0"
       style="fill:none;stroke:#000000;stroke-width:3;stroke-linecap:butt;stroke-linejoin:miter;stroke-miterlimit:4;stroke-opacity:1;stroke-dasharray:none"
       sodipodi:nodetypes="cc"
       inkscape:connector-curvature="0" />
    <path
       d="m 657.54826,945.74725 c 0,0 0,224.99995 0,224.99995 0,0 234,1 234,1"
       id="path3243-8-3"
       style="fill:none;stroke:#000000;stroke-width:3;stroke-linecap:butt;stroke-linejoin:miter;stroke-miterlimit:4;stroke-opacity:1;stroke-dasharray:none"
       inkscape:connector-curvature="0" />
    <g
       transform="translate(876.06402,25.925637)"
       id="g4717-0">
      <path
         style="font-size:39.25329971px;font-style:italic;font-variant:normal;font-weight:normal;font-stretch:normal;text-align:center;line-height:100%;text-anchor:middle;fill:#000000;fill-opacity:1;stroke:none;font-family:Traditional Arabic"
         id="text3432-6-3"
         d="m 15.101528,1138.5721 -8.8281302,0 0.20801,-0.917 c 1.3854,0 2.16633,-0.3918 2.34277,-1.1755 0.12433,-0.5486 -3.4e-4,-1.4264 -0.37402,-2.6333 l -2.78418,-8.9107 -7.17481,9.2164 c -0.74741,0.9561 -1.18848,1.732 -1.32324,2.3276 -0.17644,0.7837 0.32388,1.1755 1.50098,1.1755 l 0.64062001,0 -0.208,0.917 -7.62501001,0 0.20801,-0.917 c 1.46549,-0.1724 2.77051,-0.8542 3.91504,-2.0454 0.65559,-0.6897 1.5192,-1.7242 2.59082,-3.1035 l 7.00293,-9.0048 -2.85059,-9.381 c -0.35222,-1.1598 -0.64552,-1.9827 -0.87988,-2.4686 -0.39909,-0.8621 -0.87402999,-1.4342 -1.42479999,-1.7164 -0.49871,-0.235 -1.16635001,-0.3683 -2.00294001,-0.3997 l 0.20704,-0.9169 9.54688,0 -0.20704,0.9169 c -1.72201,-0.031 -2.6491,0.3841 -2.78124,1.2461 -0.082,0.4546 -0.0238,1.0032 0.1748,1.6458 l 2.5166,8.0879 4.8711002,-6.207 c 1.33005,-1.6928 2.08201,-2.9232 2.25586,-3.6912 0.16273,-0.721 -0.18818,-1.0815 -1.05274,-1.0816 l -0.9375,0 0.20703,-0.9169 7.68751,0 -0.20703,0.9169 c -1.84378,1e-4 -4.0264,1.638 -6.54786,4.9139 l -5.7978502,7.5471 3.4668002,11.2854 c 0.34894,1.1285 0.60251,1.873 0.76074,2.2335 0.35805,0.8151 0.77244,1.3558 1.24316,1.6223 0.39842,0.2194 1.02114,0.3918 1.86816,0.5172 l -0.208,0.917 z"
         inkscape:connector-curvature="0" />
      <path
         style="font-size:24px;font-style:normal;font-variant:normal;font-weight:normal;font-stretch:normal;text-align:center;line-height:100%;text-anchor:middle;fill:#000000;fill-opacity:1;stroke:none;font-family:Times New Roman"
         id="text3436-4-3"
         d="m 31.514448,1141.5266 -1.11329,3.0585 -9.375,0 0,-0.4335 c 2.75781,-2.5157 4.69922,-4.5704 5.82422,-6.1641 1.125,-1.5938 1.6875,-3.0508 1.6875,-4.3711 0,-1.0078 -0.3086,-1.8359 -0.92578,-2.4844 -0.61719,-0.6484 -1.35547,-0.9726 -2.21484,-0.9726 -0.78126,0 -1.48243,0.2285 -2.10352,0.6855 -0.62109,0.4571 -1.08008,1.127 -1.37695,2.0098 l -0.43359,0 c 0.19531,-1.4453 0.69726,-2.5547 1.50586,-3.3281 0.80859,-0.7735 1.81835,-1.1602 3.02929,-1.1602 1.28906,0 2.36523,0.4141 3.22852,1.2422 0.86327,0.8281 1.29491,1.8047 1.29492,2.9297 -10e-6,0.8047 -0.18751,1.6094 -0.5625,2.414 -0.57813,1.2657 -1.51563,2.6055 -2.8125,4.0196 -1.94532,2.125 -3.16016,3.4062 -3.64453,3.8437 l 4.14844,0 c 0.84374,0 1.43553,-0.031 1.77539,-0.094 0.33983,-0.062 0.64647,-0.1894 0.91992,-0.3808 0.27343,-0.1914 0.51171,-0.4629 0.71484,-0.8145 l 0.4336,0 z"
         inkscape:connector-curvature="0" />
    </g>
    <g
       transform="translate(909.20123,-133.27705)"
       id="g4713-7">
      <path
         style="font-size:24px;font-style:normal;font-variant:normal;font-weight:normal;font-stretch:normal;text-align:center;line-height:100%;text-anchor:middle;fill:#000000;fill-opacity:1;stroke:none;font-family:Times New Roman"
         id="text3500-3-9"
         d="m -358.6648,1353.9605 3.8672,-1.8867 0.3867,0 0,13.418 c 0,0.8906 0.037,1.4453 0.1113,1.664 0.074,0.2188 0.2285,0.3867 0.4629,0.5039 0.2344,0.1172 0.711,0.1836 1.4297,0.1993 l 0,0.4335 -5.9766,0 0,-0.4335 c 0.75,-0.016 1.2344,-0.08 1.4532,-0.1934 0.2187,-0.1133 0.3711,-0.2656 0.457,-0.457 0.086,-0.1914 0.1289,-0.7637 0.1289,-1.7168 l 0,-8.5782 c 0,-1.1562 -0.039,-1.8984 -0.1172,-2.2265 -0.055,-0.25 -0.1543,-0.4336 -0.2988,-0.5508 -0.1445,-0.1172 -0.3184,-0.1758 -0.5215,-0.1758 -0.2891,0 -0.6914,0.1211 -1.207,0.3633 l -0.1758,-0.3633 z"
         inkscape:connector-curvature="0" />
      <path
         style="font-size:39.25329971px;font-style:italic;font-variant:normal;font-weight:normal;font-stretch:normal;text-align:center;line-height:100%;text-anchor:middle;fill:#000000;fill-opacity:1;stroke:none;font-family:Traditional Arabic"
         id="text3504-9-4"
         d="m -366.8865,1362.2625 -8.8281,0 0.208,-0.9169 c 1.3854,0 2.1663,-0.3919 2.3428,-1.1756 0.1243,-0.5486 -4e-4,-1.4263 -0.374,-2.6332 l -2.7842,-8.9108 -7.1748,9.2164 c -0.7474,0.9561 -1.1885,1.732 -1.3233,2.3276 -0.1764,0.7837 0.3239,1.1756 1.501,1.1756 l 0.6406,0 -0.208,0.9169 -7.625,0 0.208,-0.9169 c 1.4655,-0.1724 2.7705,-0.8543 3.9151,-2.0455 0.6556,-0.6897 1.5192,-1.7241 2.5908,-3.1035 l 7.0029,-9.0048 -2.8506,-9.3809 c -0.3522,-1.1599 -0.6455,-1.9828 -0.8799,-2.4687 -0.3991,-0.862 -0.874,-1.4341 -1.4248,-1.7163 -0.4987,-0.2351 -1.1663,-0.3683 -2.0029,-0.3997 l 0.207,-0.9169 9.5469,0 -0.207,0.9169 c -1.722,-0.031 -2.6491,0.3841 -2.7813,1.2461 -0.082,0.4546 -0.024,1.0032 0.1748,1.6458 l 2.5166,8.0878 4.8711,-6.2069 c 1.3301,-1.6928 2.082,-2.9232 2.2559,-3.6913 0.1627,-0.721 -0.1882,-1.0815 -1.0527,-1.0815 l -0.9375,0 0.207,-0.9169 7.6875,0 -0.207,0.9169 c -1.8438,0 -4.0264,1.638 -6.5479,4.9138 l -5.7978,7.5471 3.4668,11.2854 c 0.3489,1.1285 0.6025,1.8731 0.7607,2.2335 0.3581,0.8151 0.7724,1.3559 1.2432,1.6223 0.3984,0.2195 1.0211,0.3919 1.8681,0.5173 l -0.208,0.9169 z"
         inkscape:connector-curvature="0" />
    </g>
    <path
       d="m 629.73676,1172.006 c -3.3633,0 -6.0259,-1.0459 -7.9878,-3.1377 -1.9619,-2.0918 -2.9429,-4.9287 -2.9429,-8.5107 0,-5.373 1.8491,-10.0898 5.5474,-14.1504 3.6982,-4.0605 7.9946,-6.0908 12.8891,-6.0908 3.336,0 5.978,1.0288 7.9263,3.0864 1.9482,2.0577 2.9223,4.8501 2.9224,8.3775 -1e-4,5.6054 -1.8013,10.4111 -5.4038,14.4169 -3.6026,4.0059 -7.9195,6.0088 -12.9507,6.0088 l 0,0 z m 0.7998,-1.3945 c 3.5547,0 6.6035,-1.8799 9.1465,-5.6396 2.5429,-3.7598 3.8144,-8.2715 3.8144,-13.5352 0,-6.6718 -2.3174,-10.0078 -6.9521,-10.0078 -3.5547,0 -6.6104,1.8594 -9.167,5.5781 -2.5567,3.7188 -3.835,8.1758 -3.835,13.3711 0,6.8223 2.3311,10.2334 6.9932,10.2334 l 0,0 z"
       id="text3516-1-9"
       style="font-size:42px;font-style:normal;font-variant:normal;font-weight:normal;font-stretch:normal;text-align:center;line-height:100%;text-anchor:middle;fill:#000000;fill-opacity:1;stroke:none;font-family:Lucida Calligraphy"
       inkscape:connector-curvature="0" />
    <g
       id="g4709-9"
       transform="translate(956.02556,-72.045253)">
      <path
         style="font-size:24px;font-style:normal;font-variant:normal;font-weight:normal;font-stretch:normal;text-align:center;line-height:100%;text-anchor:middle;fill:#000000;fill-opacity:1;stroke:none;font-family:Times New Roman"
         id="text3548-8-1"
         d="m -314.7586,1033.4253 c 0.4532,-1.0703 1.0254,-1.8964 1.7168,-2.4785 0.6915,-0.582 1.5528,-0.873 2.584,-0.873 1.2735,0 2.25,0.4141 2.9297,1.2422 0.5156,0.6172 0.7734,1.2773 0.7735,1.9804 -1e-4,1.1563 -0.7266,2.3516 -2.1797,3.586 0.9765,0.3828 1.7148,0.9297 2.2148,1.6406 0.5,0.7109 0.75,1.5469 0.75,2.5078 0,1.375 -0.4375,2.5664 -1.3125,3.5742 -1.1406,1.3125 -2.793,1.9688 -4.957,1.9688 -1.0703,0 -1.7988,-0.1328 -2.1856,-0.3985 -0.3867,-0.2656 -0.5801,-0.5507 -0.58,-0.8554 -1e-4,-0.2266 0.092,-0.4258 0.2753,-0.5977 0.1836,-0.1719 0.4043,-0.2578 0.6622,-0.2578 0.1953,0 0.3945,0.031 0.5976,0.094 0.1328,0.039 0.4336,0.1816 0.9024,0.4277 0.4687,0.2461 0.7929,0.3926 0.9726,0.4395 0.2891,0.086 0.5977,0.1289 0.9258,0.1289 0.7969,0 1.4902,-0.3086 2.0801,-0.9258 0.5898,-0.6172 0.8847,-1.3476 0.8847,-2.1914 0,-0.6172 -0.1367,-1.2187 -0.4101,-1.8047 -0.2032,-0.4375 -0.4258,-0.7695 -0.668,-0.9961 -0.3359,-0.3125 -0.7969,-0.5957 -1.3828,-0.8496 -0.5859,-0.2539 -1.1836,-0.3808 -1.793,-0.3808 l -0.375,0 0,-0.3516 c 0.6172,-0.078 1.2364,-0.3008 1.8575,-0.668 0.621,-0.3672 1.0722,-0.8086 1.3535,-1.3242 0.2812,-0.5156 0.4218,-1.082 0.4218,-1.6992 0,-0.8047 -0.2519,-1.4551 -0.7558,-1.9512 -0.5039,-0.4961 -1.1309,-0.7441 -1.8809,-0.7441 -1.2109,0 -2.2226,0.6484 -3.0351,1.9453 l -0.3868,-0.1875 z"
         inkscape:connector-curvature="0" />
      <path
         style="font-size:39.25329971px;font-style:italic;font-variant:normal;font-weight:normal;font-stretch:normal;text-align:center;line-height:100%;text-anchor:middle;fill:#000000;fill-opacity:1;stroke:none;font-family:Traditional Arabic"
         id="text3552-3-9"
         d="m -321.3865,1040.2615 -8.8281,0 0.208,-0.9169 c 1.3854,0 2.1664,-0.3918 2.3428,-1.1756 0.1243,-0.5485 -4e-4,-1.4263 -0.374,-2.6332 l -2.7842,-8.9108 -7.1748,9.2164 c -0.7474,0.9562 -1.1885,1.732 -1.3233,2.3276 -0.1764,0.7838 0.3239,1.1756 1.501,1.1756 l 0.6406,0 -0.208,0.9169 -7.625,0 0.208,-0.9169 c 1.4655,-0.1724 2.7705,-0.8542 3.9151,-2.0455 0.6556,-0.6896 1.5192,-1.7241 2.5908,-3.1034 l 7.0029,-9.0048 -2.8506,-9.381 c -0.3522,-1.1598 -0.6455,-1.9827 -0.8798,-2.4687 -0.3991,-0.862 -0.8741,-1.4341 -1.4248,-1.7163 -0.4988,-0.2351 -1.1664,-0.3683 -2.003,-0.3997 l 0.2071,-0.9169 9.5468,0 -0.207,0.9169 c -1.722,-0.031 -2.6491,0.3841 -2.7812,1.2461 -0.082,0.4546 -0.024,1.0032 0.1748,1.6458 l 2.5166,8.0879 4.8711,-6.207 c 1.33,-1.6928 2.082,-2.9232 2.2558,-3.6912 0.1628,-0.721 -0.1882,-1.0815 -1.0527,-1.0816 l -0.9375,0 0.207,-0.9169 7.6875,0 -0.207,0.9169 c -1.8438,10e-5 -4.0264,1.638 -6.5479,4.9139 l -5.7978,7.5471 3.4668,11.2853 c 0.3489,1.1286 0.6025,1.8731 0.7607,2.2336 0.3581,0.815 0.7725,1.3558 1.2432,1.6222 0.3984,0.2195 1.0211,0.3919 1.8681,0.5173 l -0.208,0.9169 z"
         inkscape:connector-curvature="0" />
    </g>
    <path
       d="m 778.54826,1161.2472 c 0,0 0,21 0,21 0,0 21,-11 21,-11 0,0 -21,-10 -21,-10 z"
       id="path3654-2-4"
       style="fill:#000000;fill-opacity:1;fill-rule:evenodd;stroke:none"
       inkscape:connector-curvature="0" />
    <path
       d="m 648.04826,1063.7472 c 0,0 21,0 21,0 0,0 -11,-21 -11,-21 0,0 -10,21 -10,21 z"
       id="path3656-7-2"
       style="fill:#000000;fill-opacity:1;fill-rule:evenodd;stroke:none"
       inkscape:connector-curvature="0" />
    <path
       d="m 600.79035,1227.3188 c 0,0 -12.9289,-16.5482 -12.9289,-16.5482 0,0 -9.7759,21.597 -9.7759,21.597 0,0 22.7048,-5.0488 22.7048,-5.0488 z"
       id="path3658-0-0"
       style="fill:#000000;fill-opacity:1;fill-rule:evenodd;stroke:none"
       inkscape:connector-curvature="0" />
    <g
       id="g4694-6"
       transform="translate(956.02556,-72.045253)">
      <path
         style="font-size:24px;font-style:normal;font-variant:normal;font-weight:normal;font-stretch:normal;text-align:center;line-height:100%;text-anchor:middle;fill:#000000;fill-opacity:1;stroke:none;font-family:Times New Roman"
         id="text3452-9-5"
         d="m -178.4734,1289.234 -1.1133,3.0585 -9.375,0 0,-0.4335 c 2.7578,-2.5157 4.6992,-4.5704 5.8242,-6.1641 1.125,-1.5938 1.6875,-3.0508 1.6875,-4.3711 0,-1.0078 -0.3086,-1.8359 -0.9257,-2.4844 -0.6172,-0.6484 -1.3555,-0.9726 -2.2149,-0.9726 -0.7812,0 -1.4824,0.2285 -2.1035,0.6855 -0.6211,0.4571 -1.0801,1.127 -1.377,2.0098 l -0.4335,0 c 0.1953,-1.4453 0.6972,-2.5547 1.5058,-3.3281 0.8086,-0.7735 1.8184,-1.1602 3.0293,-1.1602 1.2891,0 2.3652,0.4141 3.2285,1.2422 0.8633,0.8281 1.2949,1.8047 1.2949,2.9297 0,0.8047 -0.1875,1.6094 -0.5625,2.414 -0.5781,1.2657 -1.5156,2.6055 -2.8125,4.0196 -1.9453,2.125 -3.1601,3.4062 -3.6445,3.8437 l 4.1485,0 c 0.8437,0 1.4355,-0.031 1.7754,-0.094 0.3398,-0.062 0.6464,-0.1894 0.9199,-0.3808 0.2734,-0.1914 0.5117,-0.4629 0.7148,-0.8145 l 0.4336,0 z"
         inkscape:connector-curvature="0" />
      <g
         style="font-size:40px;font-style:normal;font-variant:normal;font-weight:bold;font-stretch:normal;fill:#000000;fill-opacity:1;stroke:none;font-family:Times New Roman;-inkscape-font-specification:Andale Mono Bold"
         id="text4654-9">
        <path
           d="m -203.55118,1261.4686 0,10.7813 0.52735,0 c 1.67967,0 2.89712,-0.5274 3.65234,-1.5821 0.75519,-1.0546 1.23696,-2.6106 1.44531,-4.6679 l 0.74219,0 0,13.8672 -0.74219,0 c -0.15626,-1.5104 -0.4883,-2.7474 -0.99609,-3.711 -0.49481,-0.9635 -1.07423,-1.608 -1.73828,-1.9336 -0.66408,-0.3385 -1.62762,-0.5078 -2.89063,-0.5078 l 0,7.461 c -1e-5,1.4583 0.0586,2.3502 0.17578,2.6757 0.1302,0.3256 0.36458,0.5925 0.70313,0.8008 0.33853,0.2084 0.8854,0.3125 1.64062,0.3125 l 1.58203,0 c 2.47395,0 4.45311,-0.5729 5.9375,-1.7187 1.49738,-1.1459 2.5716,-2.8906 3.22266,-5.2344 l 0.72266,0 -1.19141,8.418 -22.89062,0 0,-0.7227 0.8789,0 c 0.76823,0 1.38672,-0.1367 1.85547,-0.4101 0.33854,-0.1823 0.59895,-0.4948 0.78125,-0.9375 0.14323,-0.3125 0.21484,-1.1329 0.21484,-2.461 l 0,-17.4219 c 0,-1.1979 -0.0325,-1.9335 -0.0976,-2.207 -0.13021,-0.4557 -0.3711,-0.8073 -0.72266,-1.0547 -0.49479,-0.3645 -1.17188,-0.5468 -2.03125,-0.5469 l -0.8789,0 0,-0.7226 22.16796,0 0,7.832 -0.74218,0 c -0.37763,-1.914 -0.91148,-3.2877 -1.60157,-4.1211 -0.6771,-0.8333 -1.64064,-1.4453 -2.89062,-1.8359 -0.72918,-0.2344 -2.09637,-0.3515 -4.10156,-0.3516 l -2.73438,0"
           id="path6753"
           inkscape:connector-curvature="0" />
      </g>
    </g>
    <g
       transform="translate(1007.9825,-76.120353)"
       id="g4699-1">
      <path
         style="font-size:24px;font-style:normal;font-variant:normal;font-weight:normal;font-stretch:normal;text-align:center;line-height:100%;text-anchor:middle;fill:#000000;fill-opacity:1;stroke:none;font-family:Times New Roman"
         id="text3480-6-1"
         d="m -409.1648,1265.9605 3.8672,-1.8867 0.3867,0 0,13.418 c 0,0.8906 0.037,1.4453 0.1113,1.664 0.074,0.2188 0.2285,0.3867 0.4629,0.5039 0.2344,0.1172 0.711,0.1836 1.4297,0.1993 l 0,0.4335 -5.9766,0 0,-0.4335 c 0.75,-0.016 1.2344,-0.08 1.4532,-0.1934 0.2187,-0.1133 0.3711,-0.2656 0.457,-0.457 0.086,-0.1914 0.1289,-0.7637 0.1289,-1.7168 l 0,-8.5782 c 0,-1.1562 -0.039,-1.8984 -0.1172,-2.2265 -0.055,-0.25 -0.1543,-0.4336 -0.2988,-0.5508 -0.1445,-0.1172 -0.3184,-0.1758 -0.5215,-0.1758 -0.2891,0 -0.6914,0.1211 -1.207,0.3633 l -0.1758,-0.3633 z"
         inkscape:connector-curvature="0" />
      <g
         style="font-size:40px;font-style:normal;font-variant:normal;font-weight:bold;font-stretch:normal;fill:#000000;fill-opacity:1;stroke:none;font-family:Times New Roman;-inkscape-font-specification:Andale Mono Bold"
         id="text4654-1-4">
        <path
           d="m -423.71124,1248.7322 0,10.7812 0.52734,0 c 1.67968,0 2.89712,-0.5273 3.65234,-1.582 0.7552,-1.0547 1.23697,-2.6107 1.44532,-4.668 l 0.74218,0 0,13.8672 -0.74218,0 c -0.15627,-1.5104 -0.4883,-2.7474 -0.9961,-3.7109 -0.4948,-0.9636 -1.07423,-1.6081 -1.73828,-1.9336 -0.66407,-0.3385 -1.62761,-0.5078 -2.89062,-0.5078 l 0,7.4609 c -1e-5,1.4583 0.0586,2.3503 0.17578,2.6758 0.1302,0.3255 0.36457,0.5924 0.70312,0.8008 0.33853,0.2083 0.88541,0.3125 1.64063,0.3125 l 1.58203,0 c 2.47394,0 4.45311,-0.5729 5.9375,-1.7188 1.49737,-1.1458 2.57159,-2.8906 3.22266,-5.2344 l 0.72265,0 -1.1914,8.418 -22.89063,0 0,-0.7226 0.87891,0 c 0.76822,0 1.38671,-0.1368 1.85547,-0.4102 0.33853,-0.1823 0.59895,-0.4948 0.78125,-0.9375 0.14322,-0.3125 0.21484,-1.1328 0.21484,-2.4609 l 0,-17.4219 c 0,-1.1979 -0.0326,-1.9336 -0.0977,-2.207 -0.13021,-0.4557 -0.37109,-0.8073 -0.72265,-1.0547 -0.4948,-0.3646 -1.17188,-0.5469 -2.03125,-0.5469 l -0.87891,0 0,-0.7227 22.16797,0 0,7.8321 -0.74219,0 c -0.37762,-1.9141 -0.91148,-3.2878 -1.60156,-4.1211 -0.6771,-0.8333 -1.64064,-1.4453 -2.89063,-1.836 -0.72918,-0.2343 -2.09636,-0.3515 -4.10156,-0.3515 l -2.73437,0"
           id="path6756"
           inkscape:connector-curvature="0" />
      </g>
    </g>
    <g
       transform="translate(1005.9449,-59.820093)"
       id="g4704-7">
      <path
         style="font-size:24px;font-style:normal;font-variant:normal;font-weight:normal;font-stretch:normal;text-align:center;line-height:100%;text-anchor:middle;fill:#000000;fill-opacity:1;stroke:none;font-family:Times New Roman"
         id="text3532-5-2"
         d="m -370.7586,1130.4253 c 0.4532,-1.0703 1.0254,-1.8964 1.7168,-2.4785 0.6914,-0.582 1.5528,-0.873 2.584,-0.873 1.2735,0 2.25,0.4141 2.9297,1.2422 0.5156,0.6172 0.7734,1.2773 0.7735,1.9804 -1e-4,1.1563 -0.7266,2.3516 -2.1797,3.586 0.9765,0.3828 1.7148,0.9297 2.2148,1.6406 0.5,0.7109 0.75,1.5469 0.75,2.5078 0,1.375 -0.4375,2.5664 -1.3125,3.5742 -1.1406,1.3125 -2.793,1.9688 -4.957,1.9688 -1.0703,0 -1.7988,-0.1328 -2.1856,-0.3985 -0.3867,-0.2656 -0.58,-0.5507 -0.58,-0.8554 0,-0.2266 0.092,-0.4258 0.2753,-0.5977 0.1836,-0.1719 0.4043,-0.2578 0.6622,-0.2578 0.1953,0 0.3945,0.031 0.5976,0.094 0.1328,0.039 0.4336,0.1816 0.9024,0.4277 0.4687,0.2461 0.7929,0.3926 0.9726,0.4395 0.2891,0.086 0.5977,0.1289 0.9258,0.1289 0.7969,0 1.4902,-0.3086 2.0801,-0.9258 0.5898,-0.6172 0.8847,-1.3476 0.8847,-2.1914 0,-0.6172 -0.1367,-1.2187 -0.4101,-1.8047 -0.2032,-0.4375 -0.4258,-0.7695 -0.668,-0.9961 -0.3359,-0.3125 -0.7969,-0.5957 -1.3828,-0.8496 -0.5859,-0.2539 -1.1836,-0.3808 -1.793,-0.3808 l -0.375,0 0,-0.3516 c 0.6172,-0.078 1.2364,-0.3008 1.8575,-0.668 0.621,-0.3672 1.0722,-0.8086 1.3535,-1.3242 0.2812,-0.5156 0.4218,-1.082 0.4218,-1.6992 0,-0.8047 -0.2519,-1.4551 -0.7558,-1.9512 -0.5039,-0.4961 -1.1309,-0.7441 -1.8809,-0.7441 -1.2109,0 -2.2226,0.6484 -3.0351,1.9453 l -0.3868,-0.1875 z"
         inkscape:connector-curvature="0" />
      <g
         style="font-size:40px;font-style:normal;font-variant:normal;font-weight:bold;font-stretch:normal;fill:#000000;fill-opacity:1;stroke:none;font-family:Times New Roman;-inkscape-font-specification:Andale Mono Bold"
         id="text4654-4-7">
        <path
           d="m -384.99823,1112.2555 0,10.7812 0.52734,0 c 1.67968,10e-5 2.89712,-0.5273 3.65235,-1.582 0.75519,-1.0547 1.23696,-2.6106 1.44531,-4.668 l 0.74219,0 0,13.8672 -0.74219,0 c -0.15627,-1.5104 -0.4883,-2.7474 -0.99609,-3.7109 -0.49481,-0.9635 -1.07424,-1.6081 -1.73828,-1.9336 -0.66408,-0.3385 -1.62762,-0.5078 -2.89063,-0.5078 l 0,7.4609 c -1e-5,1.4584 0.0586,2.3503 0.17578,2.6758 0.1302,0.3255 0.36457,0.5925 0.70313,0.8008 0.33853,0.2083 0.8854,0.3125 1.64062,0.3125 l 1.58203,0 c 2.47394,0 4.45311,-0.5729 5.9375,-1.7188 1.49738,-1.1458 2.57159,-2.8906 3.22266,-5.2343 l 0.72266,0 -1.19141,8.4179 -22.89063,0 0,-0.7226 0.87891,0 c 0.76823,0 1.38672,-0.1367 1.85547,-0.4102 0.33854,-0.1823 0.59895,-0.4948 0.78125,-0.9375 0.14322,-0.3125 0.21484,-1.1328 0.21484,-2.4609 l 0,-17.4219 c 0,-1.1979 -0.0326,-1.9336 -0.0977,-2.207 -0.13022,-0.4557 -0.3711,-0.8073 -0.72266,-1.0547 -0.49479,-0.3646 -1.17188,-0.5469 -2.03125,-0.5469 l -0.87891,0 0,-0.7226 22.16797,0 0,7.832 -0.74218,0 c -0.37763,-1.9141 -0.91148,-3.2878 -1.60157,-4.1211 -0.6771,-0.8333 -1.64064,-1.4453 -2.89062,-1.8359 -0.72919,-0.2344 -2.09637,-0.3516 -4.10156,-0.3516 l -2.73438,0"
           id="path6759"
           inkscape:connector-curvature="0" />
      </g>
    </g>
  </g>
  <path
     style="fill:#000000;fill-opacity:1;fill-rule:evenodd;stroke:none"
     id="path3237-8"
     d="m 313.16789,219.458 a 3.655595,3.5093825 0 0 1 -7.31119,0 3.655595,3.5093825 0 1 1 7.31119,0 z"
     inkscape:connector-curvature="0" />
  <text
     sodipodi:linespacing="125%"
     id="text4862-2"
     y="253.18011"
     x="334.20306"
     style="font-size:34.61825562px;font-style:normal;font-variant:normal;font-weight:bold;font-stretch:normal;line-height:125%;letter-spacing:0px;word-spacing:0px;fill:#000000;fill-opacity:1;stroke:none;font-family:CMU Serif;-inkscape-font-specification:CMU Serif Bold"
     xml:space="preserve"><tspan
       style="font-style:italic;-inkscape-font-specification:CMU Serif Bold Italic"
       y="253.18011"
       x="334.20306"
       id="tspan4864-0"
       sodipodi:role="line">P</tspan></text>
  <path
     style="fill:#000000;stroke:#000000;stroke-width:8;stroke-linecap:butt;stroke-linejoin:miter;stroke-miterlimit:4;stroke-opacity:1;stroke-dasharray:none;marker-end:url(#Arrow2Send)"
     d="M 436.13023,136.05232 539.86411,56.811153"
     id="path4602"
     inkscape:connector-curvature="0" />
  <text
     sodipodi:linespacing="125%"
     id="text4862-2-3"
     y="140.72266"
     x="481.27112"
     style="font-size:34.61825562px;font-style:normal;font-variant:normal;font-weight:bold;font-stretch:normal;line-height:125%;letter-spacing:0px;word-spacing:0px;fill:#ff0000;fill-opacity:1;stroke:#ff0000;font-family:CMU Serif;-inkscape-font-specification:CMU Serif Bold"
     xml:space="preserve"><tspan
       style="font-style:normal;fill:#ff0000;stroke:#ff0000;-inkscape-font-specification:CMU Serif Bold"
       y="140.72266"
       x="481.27112"
       id="tspan4864-0-1"
       sodipodi:role="line">R</tspan></text>
  <g
     id="g4137"
     transform="matrix(0.74906905,-0.66249193,0.66249193,0.74906905,-111.79274,57.314183)"
     inkscape:transform-center-x="-30.56289"
     inkscape:transform-center-y="10.18763">
    <path
       inkscape:connector-curvature="0"
       id="path4602-1"
       d="m 229.94688,232.70414 -1.11736,-96.16536"
       style="fill:#000000;stroke:#000000;stroke-width:8;stroke-linecap:butt;stroke-linejoin:miter;stroke-miterlimit:4;stroke-opacity:1;stroke-dasharray:none;marker-end:url(#Arrow2Send-1)" />
    <path
       style="fill:#000000;stroke:#000000;stroke-width:8;stroke-linecap:butt;stroke-linejoin:miter;stroke-miterlimit:4;stroke-opacity:1;stroke-dasharray:none;marker-end:url(#Arrow2Send-1)"
       d="m 229.94688,254.70414 -1.11736,-96.16536"
       id="path4114"
       inkscape:connector-curvature="0" />
  </g>
  <text
     sodipodi:linespacing="125%"
     id="text4862-2-3-3"
     y="40.277714"
     x="206.14774"
     style="font-size:34.61825562px;font-style:normal;font-variant:normal;font-weight:bold;font-stretch:normal;line-height:125%;letter-spacing:0px;word-spacing:0px;fill:#ff0000;fill-opacity:1;stroke:#ff0000;font-family:CMU Serif;-inkscape-font-specification:CMU Serif Bold"
     xml:space="preserve"><tspan
       style="font-style:normal;fill:#ff0000;stroke:#ff0000;-inkscape-font-specification:CMU Serif Bold"
       y="40.277714"
       x="206.14774"
       id="tspan4864-0-1-8"
       sodipodi:role="line">M</tspan></text>
</svg>
