<?xml version="1.0" encoding="UTF-8" standalone="no"?>
<!-- Created with Inkscape (http://www.inkscape.org/) -->

<svg
   xmlns:dc="http://purl.org/dc/elements/1.1/"
   xmlns:cc="http://creativecommons.org/ns#"
   xmlns:rdf="http://www.w3.org/1999/02/22-rdf-syntax-ns#"
   xmlns:svg="http://www.w3.org/2000/svg"
   xmlns="http://www.w3.org/2000/svg"
   xmlns:xlink="http://www.w3.org/1999/xlink"
   xmlns:sodipodi="http://sodipodi.sourceforge.net/DTD/sodipodi-0.dtd"
   xmlns:inkscape="http://www.inkscape.org/namespaces/inkscape"
   width="748.74481"
   height="515.67346"
   id="svg3024"
   version="1.1"
   inkscape:version="0.48.3.1 r9886"
   sodipodi:docname="tsai_wu.pdf">
  <sodipodi:namedview
     id="base"
     pagecolor="#ffffff"
     bordercolor="#666666"
     borderopacity="1.0"
     inkscape:pageopacity="0.0"
     inkscape:pageshadow="2"
     inkscape:zoom="2.8"
     inkscape:cx="175.05829"
     inkscape:cy="123.59082"
     inkscape:document-units="px"
     inkscape:current-layer="layer1"
     showgrid="false"
     inkscape:window-width="1920"
     inkscape:window-height="1021"
     inkscape:window-x="-4"
     inkscape:window-y="-3"
     inkscape:window-maximized="1"
     fit-margin-top="0"
     fit-margin-left="0"
     fit-margin-right="0"
     fit-margin-bottom="0" />
  <defs
     id="defs3026">
    <pattern
       inkscape:collect="always"
       xlink:href="#Strips1_1"
       id="pattern5334"
       patternTransform="matrix(9.1311765,4.0769634,-4.0769634,9.1311765,0,0)" />
    <pattern
       inkscape:stockid="Stripes 1:1"
       id="Strips1_1"
       patternTransform="translate(0,0) scale(10,10)"
       height="1"
       width="2"
       patternUnits="userSpaceOnUse"
       inkscape:collect="always">
      <rect
         id="rect4599"
         height="2"
         width="1"
         y="-0.5"
         x="0"
         style="fill:black;stroke:none" />
    </pattern>
    <pattern
       patternUnits="userSpaceOnUse"
       width="373.68668"
       height="350.71317"
       patternTransform="translate(786.31335,552.36218)"
       id="pattern6359">
      <rect
         id="rect6327"
         y="1.1368684e-13"
         x="0"
         height="240.71317"
         width="302.87149"
         style="fill:url(#pattern6362);stroke:none" />
      <rect
         style="fill:url(#pattern6365);stroke:none"
         width="302.87149"
         height="240.71317"
         x="70.815186"
         y="110"
         id="rect6355" />
    </pattern>
    <pattern
       inkscape:collect="always"
       xlink:href="#pattern6319"
       id="pattern6362"
       patternTransform="translate(-4.4921875e-6,-2.6171874e-6)" />
    <pattern
       patternUnits="userSpaceOnUse"
       width="302.87148"
       height="240.71316"
       patternTransform="translate(786.31335,552.36218)"
       id="pattern6319">
      <g
         id="g6312"
         transform="translate(-786.31335,-552.36218)">
        <rect
           style="color:#000000;fill:#0000ff;fill-opacity:1;fill-rule:evenodd;stroke:none;stroke-width:0.49000001;marker:none;visibility:visible;display:inline;overflow:visible;enable-background:accumulate"
           id="rect2993-8-65"
           width="281.3851"
           height="9.510107"
           x="334.43997"
           y="993.35968"
           transform="matrix(0.8660254,-0.5,0.5,0.8660254,0,0)" />
        <rect
           style="color:#000000;fill:#0000ff;fill-opacity:1;fill-rule:evenodd;stroke:none;stroke-width:0.48989329;marker:none;visibility:visible;display:inline;overflow:visible;enable-background:accumulate"
           id="rect2993-8-5-0"
           width="281.3851"
           height="9.510107"
           x="336.58069"
           y="1019.4779"
           transform="matrix(0.8660254,-0.5,0.5,0.8660254,0,0)" />
        <rect
           style="color:#000000;fill:#0000ff;fill-opacity:1;fill-rule:evenodd;stroke:none;stroke-width:0.48989329;marker:none;visibility:visible;display:inline;overflow:visible;enable-background:accumulate"
           id="rect2993-8-2-7"
           width="281.3851"
           height="9.510107"
           x="335.25037"
           y="1045.5404"
           transform="matrix(0.8660254,-0.5,0.5,0.8660254,0,0)" />
        <rect
           style="color:#000000;fill:#0000ff;fill-opacity:1;fill-rule:evenodd;stroke:none;stroke-width:0.48989329;marker:none;visibility:visible;display:inline;overflow:visible;enable-background:accumulate"
           id="rect2993-8-6-2"
           width="281.3851"
           height="9.510107"
           x="336.16547"
           y="1071.4723"
           transform="matrix(0.8660254,-0.5,0.5,0.8660254,0,0)" />
        <rect
           style="color:#000000;fill:#0000ff;fill-opacity:1;fill-rule:evenodd;stroke:none;stroke-width:0.48989329;marker:none;visibility:visible;display:inline;overflow:visible;enable-background:accumulate"
           id="rect2993-8-6-7-8"
           width="281.3851"
           height="9.510107"
           x="335.68524"
           y="1100.0624"
           transform="matrix(0.8660254,-0.5,0.5,0.8660254,0,0)" />
      </g>
    </pattern>
    <pattern
       inkscape:collect="always"
       xlink:href="#pattern6357"
       id="pattern6365"
       patternTransform="translate(70.815186,109.99997)" />
    <pattern
       inkscape:collect="always"
       xlink:href="#pattern6319"
       id="pattern6357"
       patternTransform="translate(857.12854,662.36215)" />
    <pattern
       patternUnits="userSpaceOnUse"
       width="302.87148"
       height="240.71316"
       patternTransform="translate(786.31335,552.36218)"
       id="pattern3130">
      <g
         id="g3132"
         transform="translate(-786.31335,-552.36218)">
        <rect
           style="color:#000000;fill:#0000ff;fill-opacity:1;fill-rule:evenodd;stroke:none;stroke-width:0.49000001;marker:none;visibility:visible;display:inline;overflow:visible;enable-background:accumulate"
           id="rect3134"
           width="281.3851"
           height="9.510107"
           x="334.43997"
           y="993.35968"
           transform="matrix(0.8660254,-0.5,0.5,0.8660254,0,0)" />
        <rect
           style="color:#000000;fill:#0000ff;fill-opacity:1;fill-rule:evenodd;stroke:none;stroke-width:0.48989329;marker:none;visibility:visible;display:inline;overflow:visible;enable-background:accumulate"
           id="rect3136"
           width="281.3851"
           height="9.510107"
           x="336.58069"
           y="1019.4779"
           transform="matrix(0.8660254,-0.5,0.5,0.8660254,0,0)" />
        <rect
           style="color:#000000;fill:#0000ff;fill-opacity:1;fill-rule:evenodd;stroke:none;stroke-width:0.48989329;marker:none;visibility:visible;display:inline;overflow:visible;enable-background:accumulate"
           id="rect3138"
           width="281.3851"
           height="9.510107"
           x="335.25037"
           y="1045.5404"
           transform="matrix(0.8660254,-0.5,0.5,0.8660254,0,0)" />
        <rect
           style="color:#000000;fill:#0000ff;fill-opacity:1;fill-rule:evenodd;stroke:none;stroke-width:0.48989329;marker:none;visibility:visible;display:inline;overflow:visible;enable-background:accumulate"
           id="rect3140"
           width="281.3851"
           height="9.510107"
           x="336.16547"
           y="1071.4723"
           transform="matrix(0.8660254,-0.5,0.5,0.8660254,0,0)" />
        <rect
           style="color:#000000;fill:#0000ff;fill-opacity:1;fill-rule:evenodd;stroke:none;stroke-width:0.48989329;marker:none;visibility:visible;display:inline;overflow:visible;enable-background:accumulate"
           id="rect3142"
           width="281.3851"
           height="9.510107"
           x="335.68524"
           y="1100.0624"
           transform="matrix(0.8660254,-0.5,0.5,0.8660254,0,0)" />
      </g>
    </pattern>
    <marker
       inkscape:stockid="Arrow1Lend"
       orient="auto"
       refY="0"
       refX="0"
       id="Arrow1Lend"
       style="overflow:visible">
      <path
         inkscape:connector-curvature="0"
         id="path5543"
         d="M 0,0 5,-5 -12.5,0 5,5 0,0 z"
         style="fill-rule:evenodd;stroke:#000000;stroke-width:1pt;marker-start:none"
         transform="matrix(-0.8,0,0,-0.8,-10,0)" />
    </marker>
  </defs>
  <metadata
     id="metadata3029">
    <rdf:RDF>
      <cc:Work
         rdf:about="">
        <dc:format>image/svg+xml</dc:format>
        <dc:type
           rdf:resource="http://purl.org/dc/dcmitype/StillImage" />
        <dc:title></dc:title>
      </cc:Work>
    </rdf:RDF>
  </metadata>
  <g
     id="layer1"
     inkscape:groupmode="layer"
     inkscape:label="Layer 1"
     transform="translate(-2.613013,-254.41644)">
    <image
       width="1012"
       height="565"
       xlink:href="data:image/png;base64,iVBORw0KGgoAAAANSUhEUgAAA/QAAAI1CAIAAAD3hCaQAAAAA3NCSVQICAjb4U/gAAAgAElEQVR4 nO3dS5biONcoUOquGg19mE7QZzz0g+ngvqeTt6Ev9avkBzb4Idt7N3JFEgYUYKTD0bH0z58/f04A AMD2/b+1GwAAAExDcA8AADshuAcAgJ0Q3AMAwE4I7gEAYCcE9wAAsBOCewAA2AnBPQAA7ITgHgAA dkJwDwAAOyG4BwCAnRDcAwDATgjuAQBgJwT3AACwE4J7AADYCcE9AADshOAeAAB2QnAPAAA7IbgH AICdENwDAMBOCO4BAGAnBPcAALATgnsAANgJwT0AAOyE4B4AAHZCcA8AADshuAcAgJ0Q3AMAwE78 u3YDZvd4POLP9/v9y3vF28MP1+v1crmkdxz+FACUI/TqH/fhXXevqur1en3zyACj/PPnz5/JH/R8 Pn92x7qup23J6XR6PB4xIh/4+Fn703sN+dPm+CsAdintooe73++Tx8pp9z6wG88an97r7d9lpABm cqyynCGhedYdZ/1v9t/7/V7/NepZACjKB914V2Q/xPl8/uBbDcBbs5TlbHrysaqq+HN/Z52ljuq6 jqmax+Ox6RcBYBnX6/VtbxkrW9J7zdmoQfprPu/3e3ZAPKaqqp+fn5ORApjHLGU5RemZNm1KszVd 077xmNaH6v8tAMUaXpnTU73ZPMZgASzpWGU5/ZTTABzW8CFAOQ1QsmOtltMjrcYJWqd95VoA5jOw x568mqU5BPTUzGQHtw4H8ZgSKoiAQ5k9uB+YC1k9Vv75+QltiA3O1rgc4u0fGw6IBT+hZGj1vx2g BMNz55MH91lNf4/z+Xy/339/f/tbGx/wg6EkPtEpGRzD86rRB96aN7gvodAl9oY9jRm7MEJ/Lf7p XYXlZ0u/AexYCePFqXEhbGaqRvY/TvrbQl4WYEPmqrl/PB4r5mCiZhuavXY45vl8th7fqjmBe7vd wg/X6zWL7KuqCq9G+FW2bibAwaXjxT0RC1rCijrRHF1oVVVvHzn0/KFhaYNbD+5JBvWMF4/HI/y2 dZ1lgCFmydx35bBjxnqZucXWSD0ro8zmPaP+/vT1enV9Dfj9/W0eHP7q5q/ePhHAvvXvMxh62svl MveQ8Xq9WrvoVKzeHLXxeeugEzSfMTxy17igJgcYYvrMfc+6k6V1TGNrY9JMTN2h616CeICm/nLH ZjC9mOxJPy6PCfMSUby965tMaQMlsDkzBveh0CUTe+rFOuuelQqyedjhK+EM7HzjXLPOGqBffz85 a+n520x8nHPObu9qc1q0MyQTVFVVvIvVdYAvzbjOff8SAXMH9/Hxu5pxPp9HTfV+MLT0Z6R6bgc4 gkIWF+4fj9KC0uxXb/vwgZ18ulZP15hl+hcYaOLgvpCe+q0hF9p2GfunNTt3S+UAFOVtFJ5dP9Zz 5DeTDF21OgDDLb1D7WJxbVzWoKcNrb/t7+KH59p7/lKbmwAMsUBo23yK2M+HnH1VVcMj+9TwTFDX Y76d/gVo2m1wH2Y50w4x7a+bJY8D17D/voc9n8/fb24CcChzzwZ3DRaPxyPrqHvW9ul6wM+kF6cJ 7oHhlg7uowXqdgovDQKgRyGh7ahnV3UJrG7i4D5NeDR/G3fuaPaVYaen5i1dj3M+nz/eRLC5jE// 8c0tqz4Q/pa3u9gCHEdzsbIo7f8/q2CMg8jbIsme3jgbrRYoE2o2W9oeGOWfP3/+TPuIXdfU9se1 zf2teq7NzfYy7PrtqW0LrbeXKzUf87OIvDmiDPnTAA6lP/ju6iTP53PrENO6bWL/47Qe0Lq/YbOp Y4enLs3vDOGRDRbAB6Yvy4nd2fm/wo1dOz0tkJmYZNPy4WmbDxZNAzianp65v8dOR5a3PXPrAemN zS8YHyx09nFeP3suoTzwjekz90FrJ9gf3WZJkefz2XW9aTgs7OldeMRsXhVgctna82E4ODV62jhY hP92raNwOp2u1+vbFQ6a41p2r+Zs7aA/5r/3HdISgB5zBfefGTUFeT6fyw/uAZjD8ILJ1hobgL1a bbWcVjpfAEYxcACkygruhwuZGGl7gGMaFdP7AgAcR1nB/cAVglt3oQKAVFiAuLn8McCOFVpzf5Jo AaCbZSIBWhWUuV9gcxAAdsbYAZD6d92nr6rq9XqFn0P2JS5wFpc2A4BUHCAGFnMCHMfKwf3r9UrX Kk4J7gFINUtxwghiZWSAqJSynNgpN38AAACGKOuCWgDo0pzpjbWd8kEAgeAeAAB2opSyHAAA4EuC ewAA2AnBPQAA7ITgHgAAdkJwDwAAOyG4BwCAnRDcAwDATgjuAQBgJwT3AACwE/+u3QAAoBTn8zn+ XNf1ii0BPiO4B4BDezwe8V9g6wT3AHBQaZ4+I20PGyW435LYC+tzAfhST2R/v9+XbAkwIcH9Jp3P Z/E9ABOKAb3IHjZNcF+Ex+MRih0HhuwiewC+dL/fw9Bzv98F9LAbgvs1xZg+vaWnh63r+nw+64IB mIpsEezMP3/+/Fm7DYeQBvE9KxJInwDwpVhMb0yBA5o+c99/0Wd2+U5XwmDIOrsDH6oQlhgDSL1d IWCqgSCdIy18pJhc/2wwsEsT71Dbc+n9qS3AbQ15swdpfczmjf1PnR4WTRJwT/JQ9/u9ruu6rvXC wBG87TMnHAjS5wo99tBWjj9+GW+bdLTvMEBqsrKcqqp+fn7SW7LOpVlf3nrY7XZ7vV79h3Ud0z// GBsQj2m9hrXZyCGP2XycTDpJOuSRAfYqGw6yzrM5mjSP7Dnm+XxeLpfWJ4oGDhY9jzyfgVmwkwge 6DBZcN9MJGT9TjbB2jXfmk3Uth6WVRMOn7od+H2j/w/pegT9LMBbbweLZr/arCAfcsypMaAM6bFb j1lyj5HhEwUGHaDVBGU5Q2Ytm/H3kIr8rsOi0IOnx/TU+TTzNN8nzqXeAYYbErnGbnzIsuvNY+Ld R03DNp89HVmaUf4HYkXox48AMEQRS2EO3JKpqqrL5TK2Z6yqKvxwvV6bv63ruid/P2SdAbkTgGXE y0O/v2Kq9UrTmAlq/qqu61AR2roe8ePxGD4W9F/kGteej//NfjvwWUaJ4+AypUfArCYL7ptVNGO9 ve/r9fqg04nV+V33jT2pMB1gbs0KmZn0P35XhN2T07lcLmFAmbXlCy9emY28n42zQFEmKMsJy7zE n79/wG9YcRKgWHGMmDV+/SzN9PZeU7VZPScwqyLKcugRvq64bBegTAOD9TJ779CqrjXogC0qKLjP ltBZTNfltoUwFwHwgax4/a0wBvUUxGePVmaw/plYcQTswMSbWK2uZ0mc/l6+2OAegFH2FHYDjLWl 4P7j+Lu5LnJQVVX5q5IZpQAm19q1hsGiddPxBa4ABphEEcF9T/zav/J96GrTY7pWP4jHnxNxg8PC A+jCmwewjCGr2vdvPfv28WMyKB1ZWsN9gDKtENyHHrM1Zd6zqW2rrP/tUf/VevuQRwBgST3bUaW6 doZqXY3+7ZPe7/d0y6r0wceOUACrWCi4r+s67WebG9ZGcauprN9MD3s+n82nSHvk/pYMazIAK0h7 +CxwTzP3Q1apjz93PU6Xuq7TZgwcX3bABAXswHKZ+9a+uHnL7+9v875Zr3q5XLJbRu364dpZgGI1 e/ig2e1nt2RZpNZj4u1DmhEPjscfJMQHNm2upTC7+tMsK9Daw2ZrYnb1wjpZgK3r6eF75njf3p49 RTr0GDuAfZs+uO/vNwf2qot1vj1LGgMwn7f9/FQDwaip3SGPpnYFKFkRq+WsSB8NwHDp9wQjCFCg owf3AACwG4J7AADYCcG9tYoB+ISyHKBARwzuN9cd+/oBUA7LMAAlO2JwDwAfq6pq7SZMbHM5L6CH 4B4ARni9Xms3AaCT4B4APqRsEiiN4B4ARlBzD5RMcH86Sb0A0GH3obwREHZGcA8AI+wp3G9G9mJ9 2Lp/124AAGzY+Xyu63rtVkxgT19a4MgE96XLVig7n8/3+10XDMD39vG1BEgpyymd5YcBABjooJn7 kKvYRGVhM0kvbQ+wrvv9nmZeqqq6XC4rtgcgOmhwvyFCeYDSZMH96/US3AOFUJYDAAA7Ibj/n6qq 1m4CAAB8RXD/P6/Xa+0mAADAVw4d3CtnBwBgTw4d3KesOAnAcFaIB8okuP8fWXwAALZOcA8AADtx 6OA+zdZbLQeAUUz5AgU6dHCfsloOAJ9x1RZQDsE9AADshOAeAL51Pp/XbgLA6SS4t5YZAAC7cfTg PiXvAsBwLqgFCiS4BwCAnRDc/4fkPQCfMYIAJRDcAwDATgjuXVMLAMBOCO4B4EPSQ0BpBPcAALAT gnsAmEZVVWs3ATg6wf3p9N951cfjsWJLANiu1+u1dhOAoxPcA8DnlN0DRRHcAwDATgjuAQBgJwT3 /3O/39duAgAAfEVwn3NBLQCjXK/XtZsA8D+CewD4yuVyWbsJAP8juAeAaZj7BVZ3xOC+df40vfF8 Pi/YHAAAmMYRg/vW+VOTqgB8T3oIWNcRg3vTpgAA7NIRg3sAmJDFlIFyCO4BYEoqc4AVCe7/T13X azcBAAA+d8TgfshuI/IuAAwnPQQU4ojBfc/COHpnAAC264jBPQAA7NJBg/shVTdWzATgM0YQYC0H De4BYFoKO4ESCO4BAGAnDhrc92w4Yi8SAL5UVdXaTQAOSnDfScUkAJ95vV5rNwE4qIMG9wAAsD// LvlkVVV1JTOu12u6/Pzj8YiJ8/CrZq49PeZ0Ot3v9+EVNefzuevKp/v9Hh+25zAA5vN4PJpDRrOf z47pGgWywWLSlv5HOoIArGLR4P71evX0ejG4z9apfL1e4Y5pnN1cyzLE+mJxgK3rWq348XhkofnP z092QHMUyDJB4UFcXgXsVXFlOUNyHnPnRXxDAChf63eA5gAx5BaA3Vg0uE8rbe4N4VdxhYH7/V7X dV3X1+s1u3s85nq9dh0zvDH9hmx3BcBMmsNEkHbO9/s9jgLZMjXxsOwRFojvDR/AKhYty4laa+iD ZlH+5XLJboz/jZU88ZjmpG2XbKL21J2wzzpoeX2A+WQ9c9qlx5/TY2KfHPrqdLzIvgCEf8ONcwwW JzX3QAHWKct5PB7n8/l8Po/qBJfsMXv6bskYgMWc/xp1lwkbIFgHtmXlmvus01w4bq7/a8hh4RZ9 PcDCJh8gZGqAXVr/gtqx+fup9FfXxCZlh9V1HWZdxfcACxu17etUvXS8AOxtJijoX9gNYG7rBPdZ /1hgrBzKMVs78XBVVmkNBti9bOHLZVg0E9iWRYP7LO3RDJ23da2qlAzAfNKU+dptAdiMlctyRmVE 4kpncxO1A6wlxvStA8Tw/rmQjLtpXmBh69fcDxcXvvySrhaA+SYETDUAK1ouuG9dzmzy/WgnSdXo lwHW8tlayQAEK2TuY3zf2nGnW9WGLj7+KpblpPvRRtmvvtczroRfFTLnC7BLYRTIVlxoJl/Cb9OF dOIxWS9dVdXwqp6pvlr4igIs7J8/f/4s9mQ9veqQtcPGHtPfjLdHdh0Wn1qCH2By/eunZfvRNoUF zeJ/Fxgseu47/LkAprJo5r4r1d1cS36SY74UWpsNDOG/XatkAvClnknR9FcDO+G1+mpTu8Balg7u swUQuqLkcFj08TFftjbG9+kFA/f7fbF1ewAOqHWpnCwlHw7LeuPmMafT6fl8vr2lh7oaYFsWLcsp xKiZ1ixzL2EPcBDflOW8vVQAYCZbWgpzFXpkgAP6MmGvLAdYyxGD+1F9bta/298K4AjSpdu+fzRj B7CYIwb3ozSTN/pogON4vV5rNwFgBME9AADshOD+jeZqDADwlrJ7YBWC+/d+f3+zW6yMBkA/wT2w CsE9AMxOVghYhuD+vUmWSgAAgLkJ7t+zVAIAAJsguAeAWdgGEVjeEYP7sYWPzYuilE4CMERcb62o Cs/H4/F4PM7n8/l8NqLBzvy7dgO2IWRfbF8FwCiXyyXUdpZT4ZmNZSG4t7YP7MYRM/cf0/cBsGmt WSrJe9gTwf0I6aSqLD4Ao6weQ4eR636/3+/3uq6fz2f6q9WbB0xCWc5QonkAxrrf7zFofjweK84A h2ak1/heLpe6ruPopj4H9kHm/nPCfQC2ImTrm7db0gd2RnAPAAspvPQlru0DbJfgfqj6r/TGwrtp AIpS+KhxuVzWbgLwLcH9aGYwAQAok+B+tDTvUngOBoDVZSmhonazOv29fqw5NQ1slNVyxln4ItrY 5y75pADM5/V6lVP9YmUI2B+Z+xFa8/Qz9YxhY/BZnwKAZZSZozG4wC4J7osTwvrsi8T5fC5tJheA DxRSz5lF9jaxgt0Q3I/QtbXHhMmPx+MRu9esAvLn52eqZwHg4FrXfxPfww4I7sdZ5pKj9FnSbxSm UAE2qsydX7NBTXAPOyC4/0Szj56wQ8y+PNzvd/E9wJ6U1pOX+cUD+Izg/hPNUH6q4L61h9XtAjAf owzsieB+tHUzLmUuuQAAQAkE95NRqghAlyw7XlplDrAbgvvRunLn8wX3YQy43+/S9gAA9BDcf0J5 IgD7Y3SDHfh37QZsUuj+mqn68/k8bXL98XjYuwpgH+q6XrEap6qq1+t1aovgb7db+OF6vS7cKmBy //z582ftNiwt9K3fR+GtfXS2cuW0j68sB2AxsSRywnx22rEv3KV3PXW83RAD+6As50OrZF9cgAWw Gysuw3BOnFzTBfuiLOcTPT3y4/GYKscTutowkRqf8Xw+P5/Py+UyyVMAsKS0Mmfhqsvn8xnKcpqU 2sOeCO4/sWS65XK5XC6X+/0ex4PX6yW4B9i6rlB7JmE0WfIZgVUoy/lEmuSo67qu6/QWxTMAdJEm B2YluP/E9XoNl1jFIsWss54jtW88ANgZux8CkxPcfyLUyWTRdno1kv4agFbp2GGwACYnuAeA1ajk BKYluP9ctpTYaal8jE1GAPbEZoXAhAT3U5o1uI8PaLkDgE3LFpVfeNkcYN8E9xP78rLXdB4guz38 YJ8RgJ1ReQ9MyDr3n6vrOvTIaUB/vV7TDadGxeIxgj+fz9frNWbo47NYMAcAoF8zPDuUf/78+bN2 G5YWYuj5UuBZ6v2z+D4jYQ+wsNAhz5dY+WawAHocvN5B5r4sxzwLAQCYhJr7bz0ej7hmTpgGyjas VUwJQJOlz2Am9V9rN2QdgvtvpbF7/FlwD0C/bOkzC94DkxDcf6UZuAvlARjisFf7AbMS3H+lp2uW vAdgFMl74HuC+291VXQJ7gEAWJjgfgJDrtiQjwEgc9gL/oD5CO4nlibps167qqrFmwMAwIEI7ifQ k5VP4/vX67VIcwDYDMl7YFqC++l1xfoq7wG2Qo8NWxF2HFq7FQUR3E+gfzkzV9YC0CPdzcowwZIe bdZu1GihzXEvUf758+fP2m1YWvh6N+1MaPZ5yB48/UJpBhagfLFXv9/vcy9I3z+CwEwGFhWXT5SV kbmfxv1+T88n00MADGQ3K5bXH6hsK4yJnyCRfSC4n0yad8l66izut2wOACkFnCwpxiH3hnjM7XZb p3HjhQSryD76d+0G7EfsjltPr7qu4/fg1+t1uVyWaxkAZbvf73EQeTwecvnMKizf1xquxPPQEn/b JXM/jVGJFlkZAHpsqyiCLerKc6dfLJ2HGyW4n8aQtQ5kYgDokgVbGyqKYHPSoCUjVtkBwf00YpnN wHUVfBsGoIeiCOYzsDZYFftGCe4nEy7m6Inss1+J7wFI9SyjDDCQC2qn1yzLiWF9eskUAGSu12ua s3dxLQuLC+n0lO5QOMH9xFp3d3s8HiEfkwX3em0AUpfLRXB/THPssPmBePpZ1m+7lOVMLF0QM111 Nc6upp9bWXwA+hkpjiAGCeXUYhX7rfJ8PpfzKpVphcx91k91nT3xsOv12vX1saqq+BVz1Fk4xzfj kLO/Xq+/v7/p7c/n8+fn55QkYKxnDDBE7CqP0082qzfte3g0t9vtcrmsdc6H06/8T9z5fF59lqNY //z582exJ2stWTm1hdrN72Stb+HAw5r3muOECI3pWi0nnW7LXgdnJ0CmNTPX7C0HdqfZow1Z1iw+ 8sA10Cb02dDG1pXwvrdWGRQlfZWKbeTqiijLyU7o1j69eWPrYWtNX45KL1k2B6BHV6/YekXT2zu+ vVdphiS82J9C3vf7/S5o3rrlgvs0v3L/K/42Tjum1Thdx5ySMz4cE6/pXnf6sufzEHP24b9ZfG/W FSDo6Q+zBQmGhPJdM8aFx/fNPFHhDWYSzQW1z+fz4/FYIEioqup8PqcBVYHST0H5hUMrWjS4jz83 g/tYOh8PCwVn6WHNY+JDxTL3wnf9SIP79JtA4c0GWEzaH2YrE6Syapw4UjSD+/Sw1tsLJLg/rGbi /PF4hCv3ZhWe4n6/F7tITvpFvX9bIZYL7uPJeuTpnq6/Xa8NkOkZvJsh+9uRPhyWdsKF17qIXY5s 4RKdQlbh7CdSGm7RmvuuBMzp714J/e9c/G3//NSQD0CY53p72HCh/efzubVtXdPHad/trAU4JTWZ sYccW5NQ4KqCMFZd18/nM/53vi974WOSPleB0hip8KaWYM1NrNJuN0wDDQxwJyliaRZifvOdNU5j /fz8tK7ncGr7ZFoTEyBzuVyywoB1Cxebg8Uy6+fY0ZzL5bJYNr3YapxT41t6yU0txGqr5ZSWUPm+ p27uVxUM751Le00ASjBfjNvzyD2DgkQM+xB2g+qpqijQhpq6onUy97fbLf6cpkAGJiqu1+uXiZyZ 8i51XYccz9sinPQu6cHy9wBRljVfZTq+ZyPFuWUDRFVVcpZMoqqqeJFuV9y11j4Prc0IBEgDrRDc NzcTSX8eEtxfLpfvg/tv7t7/yPHBB2bi0+5bcA8QFLLf34p7hZ7+O0C8Xi/BPZNIl9/pj7vKiUlW /5qxIUuX5WTx7qjOeuCbasoGYAcWiOw/2HYQWFJa3LFuSzZk0cx9tuLBwM56yDoJm9gEqicrn05Z hAK4WZsRn3S+ZwH4WAnVOOWIlaimdmmKH5br9Rr3/Hlr4IlUyPkmaTvWosH9kF0YssqcruL1bBZp gf0dZtX8q+c7lQX3QMmaq9PEHn7gvHy6rUq6LGZWwr6ViCGtRJ07+8PmxA/LqHJlAcC+rbZazunv ZdpBs+SreVlq67kY7t5/zCY0d6Sb41ksyANsV2vHGLq1IX3mzjrAnf05fEbVCk3LBfcDu6GuxEx2 Y9fOw2EzqbeWWTy4/q+3H7z0gAUKjaygDBSov2sKQ0k2UqQZouZg0RwXrtfrhvLf2V+Ursk2+YaM bM79fh8YY3Ac//z582exJ+uJ75sx/ZDJ08/WUih5m+X0L5qphfGFdeE5UKBmWU4q6xibw0prz/nZ Wg5FDRb9CbJCGgmUYNHgvhCr9NcDCyUXWPotjhAGA2Dr5usz4yMXkgcR3AMDrVlzv6Ile+qqquL8 6duDm3PNk7fn/tfkjwywsFiTMPkum7GYZ2C159xa64uidGtIyNxut67rG4vyeDw2sfhh+WTuZ/dB pU12ibBAHGB5RZXlnN4VLJ1KaipF+WaLocVscSWrYh00c7+kD0JzpzUAXdL5ivR26+fQqnlNo1Nl 344b3C85ORWy76P2YYnTr4VPogGwjNZrALJlUtTn0NRa0BULdQoJM8JpfL1eVSt8T1lOoRa4shaA HkUNFv2NMWQwRE8orwZ4Tw6auV+34xsyI9azMCgAwFihoKv1V4Xk75nEQYP7VWLlsGxOuhd6//HZ J9Al5ABH1pNYTX8l/0q/uq6fz2eWqi9kVSgmcdDgfhWv12vsXdL4/ufnZ9LmALBDgnveulwuIbiP Ycbv7++qLWJKgvs1mQUDYKCeIWPurc3Zscn3iGB1gvvlhGvA7/f7qJVw0jV2Jt+BwrcLgA3p6rRD 3aacPXOIRcXlb4NFILhfTpwFu1wuo+6V/nfCz1W4at6lugDlC7nV1k77fD6Hsk/BPXNIi4onOcd8 Q5ib4H5lQ2LrbL5sqk9FfBwfM4DyxbhKp82Spv3SGNL/EouzEtxvQxrf69YBDigN7s+JgXeP95qt gezWVEX5Tr9l/Lt2A44oi87P5/OQj831eo1TY4/Hw/QrwNHUdZ2NIOl/z+fz8/nsqvyMR95uN0uj MNaQQCXG7jFEsX3yKuxQu4LmFnEDd4bLvvK6vB1gPqsPFgOlQ0PPaNJMmpb/p7EtrYn5cJoJYJak LKcIKm0A+F7PaNIM+g09LKBZDKb0YG6C+xWEbSPCFnGj7ljXtRkuAFIDF10IQ086iIQqfCE+Uwkn 2LZi9+wKln18IpTlrCnW54z6MGRVPSX8IQD7U85g8Vaz2rOn2c2D+4+HD7SeZpnVvwnEKYV4/sdm b/oTIXO/pkm+Hbr2HODgRpXchBR+dqOhhGkNidpj1nzdZHn6cdjHgrNWy9mecOalp11VVaM2xgJg Z+q6TgP0sGdt//FZbnXg0m0wxNszMJWeitm3gplS+z0Z+vSjsa0So0hZzvotOX3amLQfL+HPAdiT cgaL4T5Yk+TLkQha9ZyKX04TTVLME9rwdnWpjX4oBPcbZmEpgPlscbBwURYlGLg862nterCeD8gW P/6RspwNez6fPz8/8b8f72xVVVXYHut6vSrvAdiurG6zf1srmFz29fJtlj2NnrvK3Ddd/r4KmfuV fb+ryPDvx13Sj2IhLwvA6ooaLMaavG5z068Gy1i4oGDIgjz99lqWY7WcNbWelM3tHr58QACOJg1Z vq98iI+w+sImlCmse5PessClqHHXoKaBj9B1Mm86sj8dM7gv59rneC1284wcvkFVXdfX6zV7zFG+ vDsApUk79tPXfXu29VUwajkUdqxZipNtl7aAbEnNrme//9fp7/fVcMfwQ4jss0/QthyxLCe8eat/ Iev5Xjh27YJR25f0NOaz+wLs0tazd6cp6jZbHyq16deH7zUT9sunULOVNGPUnh3WH3ENOXgrjpi5 L0Fcg6n1t2NPqXLmIgAo04TJ+9TwUtLzf33TGArRPKnSTaBmervjYwKiwXcAACAASURBVA45pd/W 6jR/Naqwp0yC+xXEqcyeSZ/wq+Gfh2wKbHhVTzBtdSYAJcjqNr/p3mMFaWuUH4Kt1kKdGOQ17/Jx YyhE+o6HM6SqqvCOZ5H3Z1drxDqZ/u8J6Ukefx4Vo39Qr18yZTmrNeDUm6FPd0cbnpj/5kL1CWdv AXZgB2U5wUxrmDTDrNaxo2u3oN28vIfVGjZ01RWPfbuHfPcTq3SRuS/dqG+635zleliAI5hq4YRm mrM5BvVc4NhVGM0m9K+N04wowi3DK7i+a93RHTG4X/0C/yGXYKed7/COuDUv8kHDVn+JAJhKVkvz /erg2YM/n89QktH8bc80dRxxrNK2Ldmql+lb3389Yfw61xNjVFXVE7pkqwtK23c5YnC/+l59l8sl fBL6F1iNRnV8WR866r7xlQkb1gKwD1kBw7Tx9OVy6QmzuqaFVx+L+Ux28nTNyfToiTF+fn66fqUI Z7gjBvflaG76cOpIt4/KwQ/ZzLmVjw3AXn05tTsH5aDbMmSnqiGBxJDIJLuAW55+FMH9auIiBnED hcfjEVe5CbOc6fEfh+k2FATg1Ai8xq6rNpNpy4SYTzNn3wy4h5T1phVZXW99fOSuii96WC2nCM09 pFrP+I9Xvxl7XwD2upzLkqPD+XzuefwS9j9ioCGnTf9HJlsGsHX3zL1+6BYmc1+E5gKr36cxvim+ B+AgZq3PCTFc61M0RyXjVJmGVOOkus6onqWTot2sNL8uwf023O/35/M59l4fF98DsFfN0WS++pxY gHG73R7/ZVm2TWjWEfRMsKQJ+Oz9jQ8Sj0kLbyZsMCdlOcUastHVqMcJCv+rAcqx7wqBZnp1vr+0 NZUbY8TPNm1kAa1vXP95MmQiaK+fqXII7svVX6o46nHS/5b/hwOUYN/B/Wnt+P6D5+ra/ZQ5dF3t OuTF7w/xvX1z+3ftBtBpqrO/ruv0Y/Z4PKRGALjf71n0drvdfn9/53iu7IqyD4ahdCCLP3+2FGOP t4u4H0F4Eb6p5k0Dj+fzGRa2D+HHMV/Shcncl26q+crWy9IB6LL7zP03qdnlDb/w9+P2f1CFspY5 apkGvsJjM/dlvoD75oLazfjyiths5fuvmwPAtnUFhWWOEdmacpNL13JJn6jAVyPdvmaq1TIGPo5I fROU5RxFNv16Pp+fz6fdvwGOLMRqVVX9/Pykt5/P52IrKOq6ToezqqpC1ccQ2V+a/oHNRPjz+QwH z1etNNbtdmv+seHNul6vc4zp4dV4eybEdyEe/3H9Fd9TllO6aafe0gzEkAc0swYc1u7LcjIbKkr5 WP+WqK1jYjlX8fa0pPXLWPOPHb6h2Glk1FHOq8RJ5r580+ZO0mtcXFkLAP2yRSminnKdWSc93u7/ OpUPInsKccTgfusbZ3y5dH1an/N24rW5lgIAx1Fyfc4Hmn9IVk8yiXSY/n5V+FTP7lEfR9ijtqnq apVQoShHLMvZ6Exrz5fysX/LqJXvN/pyAXxjqp0ENyStrBhV0bFpQ97o1nFwkrVlxkbko+pqhtx3 qjd6WwXPu2e1nCPKPn79X7hnXZ0AgEL0L0ez+9Ts2D9wQ7MZYf2f5u3pqjvBwOH+8Xicz+f07l1P wSqOWJazUdfrNXyKwhXx6Qfygwv567qOF927pB2AVBxxopCa3VOJThBLSrpKdsdegDtKCIiHfK+I jXy7JM6QpfCa6yNdr9fhgcTWy5t3T1nOlmQt/34pm1H1OQDHccCynNRaV4uupSswKGcRmNCSqZb0 ab6/o/7AObbQYkJHLMvZ7onYM2H62ZU0o+pzACCUZKzdiomF0TCUmsQb05qTdZqVGJLj/yyy/6D4 Nr4gJbwyNB0xuN+H5if84/j+er3GxxTfA5wOH7XEceH5fNZ1HfZISg9olmtvXXzHz3+VlpwOzQgN S4XRP3uDWt1utyxUeD6fQ546PFFajeN6vJIdsSxnB9d0d8XxH/dB6nMAMtut4fxe60B5hF2uCteV g3v7LnxThzN8ZU8KIXO/K1PlUXaWjwFglNbFT1qTtfsr0SlZ830ZskxNc0z/eC7C270JgvtNSsvd so9onLAb9YBh1jX+t+cRqqpqTs8BsFfZuofP57N13FmpdUdUJ/rD9PDepe9O+DIwdo+qcPz1epW5 3wRlOXvQ9U167N84ZDML18gDB3HkspxU18pszaHHuFCUL9+g8/ns5N8omfvN65kjG5tNaX7mmw8u PQPAqSP7o2yjEK1vxKjI/tRYPoitENxvW9zWqm4In+GxxTPN2brmjF761ADsW1wtp7UK/wgL6WxL c0mcGCSs1SQWpixn26bd1SJq1ufEp8h+tY+XEaBJWU6XZsHGVNWhfGPC5YzK2b2LD8jcb9jb/TU+ /kw2r74vai8PANYShoOBGyFJ4S/msyUyu4Q7iuw3SnBPp3R/q1PHOjyq8QAOJY4CzWiyWdgZV2ux wNp8mkvinIYtkZkKxTzpOyWy365/125Ap67L81NKROb2+/vbuhc3ADSFGs4s77OnatjSTLVm0ev1 Ov0d5S+XyyRtYy2rZe7j9s5dv+35b/RZFlmEOsoHu2MATKV/sIhLsL8dU/oPYLh0o5WuY1oHDq// 5L5cEoe9Wie4v91uXb+qqqr1ZG2mAVoPO1SgGT/AXdOdU3WjdV0/n8+u35psBebQNRxErdvtNW/J Rpzz+dwzBvU8DkGo94jhe9emh11bLH220yKpx+PRuiTO2FKc7O4nOxXsxQqr5TSvwkn/m37mw6/i 8ek5lxXtNO/1tgG7mR/s+nP6X+dvnqtpNy8mUI7+Tqwn7u/faKn10ZrisKJ/6zGkgLZ5ZCCO/My0 S+I4vXdp6cz921xyc1WW5oe/WWd/5A4ifgXqn5ueJE3StWe1mVZgWqN6la6uKTtmSNDPx/pf0tah XKHOWFNF9rH8weu/S4sG91+eQwPD0wOeqc1OM0zPpXuLTFU8c/8ru/2ALzswhyG7nKYdWjPFE+/e fBx5ymmlL3v/96tQMdLc8er0NzllRZ0eoUQtO5/DWOyUpqnc1XIYrmdy8/F4hEvgX6/XVBNwXZvU Ph6PI0+hAIsJ3dqX1CR8L66NM/CVbK2tDayo02XCOpzofr+77GHHli7L6brCZknh2bMilp2d5V3T nRPm17vmWKd6fODIujZFGu7LXj0NQ4csyHNkWb3TkCG1p8hzfyPyx7pG1Qm/AknJ7dKiwX08Hdc9 meLE3z2xYnvmEHvG5iznhPOeYfTN5ljDShS6ZuAzaaXBx0GMEHwVPftbNfUU6tj66vFXdvvz+fzs QxFTfunqI6snW5nJEctywnzuQeb+Xq9XtujQz8/PtH97ttFVeNLX62WCFdiu4SuwEX2Q1nlbqHM6 3lswR7Y+/d4loN+91TaxYlb9m4wsltOSPAPWIoJZ3jfz8z2FWMephur6S7//enO0L0gHJ7jfp2bF UbYL1bRlMz1Te6GrOuzUKrCKIaGM6H8OWbFHrAYZOAr01IrstRw/TFC0hvXZfmGfPXL6aFbXOYgt leUM7IiduEH2cl0ul7quY98RPvATjm3hobq63clrgQC+JLhfQBwURo0CMTPVrDvfU61Oz3TE939d OtzbEehoys3cD7wuJ5y++/sqP6F0hYe1ekN9CjCh5qr2zc0NWx2kuqNAn40CPZnmTS92119otIPv LayruMz98/n8+fkJPzf3a0h/iJ/n9DBBZI+wFPH1en29XnOsEdSTvG8uhgDwjXSh7nQUSHubbLoy rQwxWCzj+XyGRSzSHRV/fn7CIjmXy2XIg9R1XVVVeJz4Q5RVnkzW9KmFdjbbH4XGT/UnWMn+yP75 8+fPKk8cO9zWb6gDtxX8bPfBdXPYy+t/qWd9xiWfFNil7weLz65Q3FP5R1EmGSCGzMCU8MYNnCma pKnNXcDsC3ZYhZblZOdi16mZfcF1BrdSbAfs1ZBRoNn76Q+3bsgC7WttOjZ8v7P6r0meN3wXTeuU XD57WKtl7sPJN3xWbkJHy9wvr/UK/a6DwxylsRZoNcnV/1l9wpBHk7mfSQx5n8/nJAFA62ZPXZpR x9hTq/lcPZU2PQ2YPP6JL+wut+ZklNWC+xUdPLhfpkony1j0PJcRFCiQrmkx00alBV4zPccp1Cy5 Wb4El2IVWpbDTBbr9bLOpSet0npJ3D64mAlgYdPWuhTbkliEs8zTsS3FrZbDfBaONbN1KrryMWH1 ntO+VtSxghPAQM1RYJJyzTTMTStnJhwKsxauUmncM7xyWMpyDqfnz5/8lclKIXuWK572edc18K8G SqYsZ0lhpeb0v+GHVRZ5a1r9HGi+IIpw6KEs53C6pu3mqIrJ0gldT7GzmURJFIBRuoaAxSac617L tGGIdCWck8ieDoL7QwupqXRjl9PpdD6fs1u+kUW6Hz/yqPUQ5tZ80TJhmbbn86nnBfhYWqhT1Ciw Ostc0kNZznGlHWV4NebbfOr7Ry5qkS+nEOyespwV9SwFU8IQMDdFOHxJ5p52861d88Ejp3d5PB7L r6sTnnStLVEADuXIaemuDZVLKxCiZIL744rJjzjv+Xw+0wMmjGKzRx47tdrM06Sh9uOvqaqJslA+ 3fAPgOU1B6zYUW+9f25u+7hiY9gHZTn8RxbQTzsBmi0QOeqRh1Rbvn3MgTObQ77VHGFqGI5MWU7h 5qsjXdI+/gpKI3PP/8kWIzuVtA1TmKUNF6qu25JCmgHAKUl17yaXD1+yiRX/E/IHzaT1+XyeKktd 1/Xtdgs7iYTO94OHjY1JNyUJptoG6/l8po8sjgcoTeyomz1/tq/T4/FYZXuppuZlwXG3RwMNE1KW w/9kk4Mz1ec0q2uWfCO89cBAynI2p7kE3GnVupdmakwRDstQlkMu9Dgz9TvrJieU0wDs3tt+foF1 z8Ljr7K8GyjL4X9ao/nr9fp6vaa9eDSbFrjdbr+/v1M9+FuCe4Bd6h+q4q/iAJRdZhYS7emRsfgz K/LJHrCqqp+fn/Bzf14s3sVIxKwE97QL3d/lcpkj8k7j+9fr1byQFwC+N2pwyS4GiyH76b+X7WY3 pof1N0BMzzKU5dBigaUG9HEALG/yXFLrcGbbKVYkc0+fbM2B5m9P/121ZngBz/V6Tb9CSN4DsIzW 4aY5eIXC1OzG5io9zQ22YF1Wy6FFXHOgJ1jv2VVqeIj/zbZWAPOxWg6wUYJ7PtT6Mg7cArZ5/Kh7 AcxNcA9slJp73nv8FW/p+oLUeslRj7qu03lMS4YBAHxD5p73Wve36qmiGfsKy98DpZG5BzZK5p65 fJyGX2CtHgCAXRLc815IXA2/4HXsdbHZxrFVVY26OwAAgaUwGWTuiekQ3IecvW2tAAA+I3PP9Cap q3FxLQDAWIJ7xomBe1fxTFwgf2zqvVn2oz4HAGAUwT0fCsUzWX79fD7H4P6Dx8y+Evz8/HzZSACA QxHcM04zaj8nJn86xTkAAMO5oJbR6rpOq+onX7ny+XymOfvH4/HZPAAAwNHYxIpvtSbXv3957WwF rMgmVsBGKcthG+xsBQDwluCeyYS9qO73+/P5nOTRrtdr/K/gHgDgLcE93woF8ekutq/Xa5JH/v39 Tf/r4loAgH6Ce76VrV85bQieVbuK7wEAegjumVIIvh+Px4RReLZUzu12m+qRAQB2RnBP6bKZgbB5 1ortAQAoluCeKfWvGffNdleWugcAeEtwz8TCmjkxyo9rRWfL3Yxd/SYL7s/nc1VV37UUAGBvDrqJ lU1JlhEj+y5j3wg7WwHLsIkVsFEy9yykruvmGDm2PsfiOQAAPQT3LKoZ339ZnwMAQPTv2g1gz2Ig nu41m4nB/cCoPRwW73U+n5/P5+Vy+aqhAAC7oOaeRaVlrFlRTdjddvhDpXf3hgLTCp2VvgXYHGU5 LCotwslGzW/qcxTfAwCcBPesJYTy9/u9p2KnX3ZHi2MCABRaltOTiO1ZL2Xg/KmynBU1V5dLl8v8 4H2xOCbw1gdFgJbCBDZq25n7rJDjfD6PLe1gYWF/q3SwDFWtYeurDx7Q4phwZI/H49whDgfNccFI AexYicF9T7ebxn+tGyTpsrclvF9hJP54jcvn85n+V30OHEdPnx8r91o7hOHJIMMKsC0lluUMrLSJ h4VjhtfnKMspx4Qr3qjPgaPpn6mLnUA8LFTjDOx2Yv5o7EJeAOsqMXM/RLNPF8xt2vdvn/ocOLJY 8heF29OuIMToBgtg30rfxCrLuAy81+PxkGjZhLqu0zcr5Mmqqvr9/U0PG7jR1fP5/Pn5if8NpT7F ngldc/3FNhhKNnY7vHgvnzhgZ0oP7qM4PXoaUAH5tr9WmVOO7DqK8EP2BqUXxvW8cZfLJavRKnYb mtYrRiLRBnwgfKbK/MgDLGZLZTnTXtWkbGOjhpwGWXBc4Hvd81e4eg++NPwjP+Tjli3I813TAGZX YuY+Rmbhh6qqYq3FtBn35kJpJVdxHMH9fk+naIJsNA057/53qjnDc7vdslKfFTX/xvT2U/EFRVCa rLTv9HewaBbcf8/EL1C4ElfLaTVkbZxRy+zonbeiK1U2JPwtcwmdrti9zNbCtnT1GOkHashgYbUc YKO2VJYzIWHTVvSMwWGuvP/uzfqcQopeWmOF5h+4VHNg/1TUAAdRXHBfVVXIl6TbjoyNcsTu+5C+ 73ENu7gxTdC/ZVUz5dZ/JesyerKATl2YSlgc8+0xbx8n63MACldccP96vUL4la5pOCQak5XZn9Zx 9/f3Nxuw01Ol9UE+SPnPauAUv0oA6PH2Iteuy1rGfvwvl8tnLQRYRXHBfVNrZK+A4SDifjTpBXMf hOZvC9yBbWmtoR/7ufYVGtif4oL7tI4ipGRi4H69XtPePD0sDe4VNuxYWlRzvV7vf729Y8jfF1uC H322EQ8cU7asVuvaOGktX5Ya6P+UqcYBNqrc1XKatdHNqL15zMAVVHwB2KiBCyL1aK25L+d8yFaF AvoN+UR//Km3tBqwReUG96dhgc4HqwcK7jft+/C3deK+kFNCMAFjZZ/orhRPlrMfMjnm8whsUYmb WEVDulTd7tE8n8/X69Xc5Wr4WtThnMmSeSXsGxX+EMUAMMrAUWDsYFFazR7AQMXV3EO/y+XSGoK3 jsRx3/jmb0MVfjrer7uKTmyhpTkAgI8J7jmEGOU3F84r6irb5lW/wCrSFbrWbQnAKEXX3M9Ezf2+ DdymKivC+ezi7KmEXdu6JiWAVai5B7ao6Jp7+EBrZN+M1EOGPg7b4bfpfcPPC0TbY68ZABYQe4PH 4+GzCWyIshz2JsbraYlLc2wOt/Qver3AdLyF7QGACQnu2aFwseypN/ue7msTbwzfB9L1akKNflVV MzU1JAXN+0NpelIDACVTlsMOpVn5rri5a1GaZkb/dDr9/Pz0PNSXhA4AwFRk7qFFaxw/4UKZcfUe OXsAYEIy9xzX/X7vqaqv67qqqpCzjybZ6ypdmadref7T6XS9Xn9/f795IgDgaCyFyZ71V+YMX6am mbP/+BQanv63fg6sy1KYwBYpy+HohgTQzWNW3MsWAKCLzD17Fgtgns9ndgXt7XZ7vV6nv2m5GKyn +fKqql6vV7pRZXOjq+v12nVtbleTBh4pbQ/rkrkHtkhwz871p9jjmZAe1rwxjfgnLNEBSia4B7ZI WQ471zUwj1pdPixu0/WASnQAgELI3HMg/dvBZjtetYbscQWb5kI6oT5HLQ3shsw9sEWCe2g3pJ6n 9RhnF+yD4B7YImU58Ik46ltIBwAoh+Ae2oWoPZTmP5/P1iD+8XiEA7Lfhl9VVbVccwEAlOXAcK0p +biQTnOhzJMJfdgyZTnAFgnuYaiuepv0dFKFD7shuAe2SFkODBXKb6J4eyjCSY/J7ni73YbvXQUA 8DGZe/hc69ZXzV9F2bcCoGQy98AWydzDLFoDAvl7AGBW/67dANiwuq5vt1u6d9XbdTDDAc/n83K5 zN4+AOBgBPfwlbBh7Vhhd1vT/QDAtJTlwJRGxevplbgAAN+TuYeJpZfMvo3d4wEutAUAvme1HJjX 2yr8yGkJRbFaDrBFynKgFMO/BgAAtFKWA/Oq6zotzukv1AnxfSjRUagDAIylLAeWlm191Z+wd67C WpTlAFukLAeWlsUKzf8G4b9qdQCA4QT3sILn83m/3+u6rqoqFOpcr9c0pg/HhB9ut9sqjQQANkdZ Dqzp8XiE4L7rnMxqeBZqFqAsB9gmmXsoWhpYKNEBAPoJ7mF9w1OD5/PZvrYAQBfBPWzP4/EIUf7a DQEAyiK4h/X1hOn9Ebz4HgBICe6hCFVVNW/MFtKJ6+ekQgq/9e4AwNFYLQdWFrPvzdMyblib7Vbb k7B3bsNUrJYDbNHhgnudNQX6bJNaIT7MyngBbJGyHFhfXdfX67V5e9joquderYU6p9PpfD7b+gq+ YU0qYKP+XbsBwOl0Ov3+/n5wr8vlEqL/uBlW9Hq95B0B4Ghk7mEPenL8Fs0EgOM4XHCfXZgIexIK dVpP8lCo00zwAwB7crgLak9Wy+EY3sbxPgXQT2EbsEWHy9zDQfRfjHtSrgMAe+SCWtizeLntqWP1 jxDfX6/Xy+WiaA0Atk5ZDhzLwGy9zwgoywG2SFkOHEtd10OCFdfdAsAWydzDcVVV9Xq9Tu9C+bRc p6d0p/kg6nzYNJl7YIsE98DpNLhcJ5V9jroewceNjRLcA1vkglrgdPpvBDMw0G89rPk4j8dDCh8A lnHQ4F60AT3quo4VO9HbKvz7/Z59rO73e1xu3ycOABZw0LKck5lW+FRrwr4Z2fcfv8wHMHtqn3pG MVgAW3TQzD3wsRjrvN0Et0cz4p82hGptm+ttANg9mXvgczFG7/lAffMdIOqaFuifLrjf72F/rtPp dLvdQqFRzyQDRFVV/fz8nAwWwNbI3AMb0PX1oOdrQxaT/f7+usCX4bJrTgC24qCbWMnEwCTSEp2u Y+Kv6ob5GtYavsdn/GDdTwDYBJl7YAJVVbXeHiL7rji+9fau7wnNBXx6XK/XrmcU2QOwYwcN7l1X B1MJ4fLr9Wp+rD4Loz+omWk+UaizB4CjOWhwD0wopsO7VslcrAEAcHAHrbl3OR1M6/l8Nj9W9/u9 rutlPm6hiP/5fIb/dpUJAcC+HTRzL7iHaV0ul8vlsvonK1bjvF6v1socCX4A9u2gmXsDPOxVqPtv vSp3yKr8ALBpB83cAzt2v98fj8f5fG6dSVh9egEA5iO4B/YmhO+tO+PK2QOwb4J7YIfu9/v9frfo LQBHI7gHdqucyD7uwKUoCIBWU40UgnuAaYRCoNZvFD8/P/Fn8T3A0fQMENFUI8VBV8sBWEy4tDes xN+6jA8AR9CzWuOEI4XgHmAaPetvxhzM9Xq1FC8AqWlHCsE9wHJat9YC4AgGXgn25UghuAeYzNuO W1kOwAGN6vyV5QCsr2sKta7r+/1+u93CvlonF9QC8F/TjhRWywGYV9gx9+06CQAc1oQjhcw9wFdi ouXUnb8PayAs2CgANmaqkUJwD/Chx1/pjefzWWE9AKfTqaqq8/mcJoBut9vcTyq4B/hEM7KPSZc0 lw/AMZ3P53RfquD1eqXh/hwE9wCfiGF912VP4nuAw4rXxYZ9qcKN4cLZuZ9acA8wWgzc67q+Xq/p r9TWAxxcrL1JQ/nwcxwy5ivg3MZqOVkCzNgJrCiN7E/2pSpJOljc73erjgKreL1e6X/T1S3jkPF4 PGbqozaQuW9+sznIxWpzl2RNZSvlxVt5PTfRyGATTZ28uzhI/7NF2Ql5qHfqUH/srLZyQfwmGnlY qw+OgvvSHeqPnc9WXsbVe4ThttLU+b58xozLVs6ufWt9F7Zyln5pK/HoVjIsm3gxpdWmNdPruVal SenBfTbHGn/exGeP0ijoYlaKQFYUB4Xr9Wqw4DPhbMmuouE4NvE9ZIiig/v0VQ7XF8fgTH8NQJAO Fr+/vwYLPhPOFlfRMK3lvzMUHdz3280XLGDThI+F8wYVovy50/JbyKxmPQGWnNrdxmo5c5jvIuXl VVUVrsu+Xq9ZymGxUe18Pjdfz3DL4/FoNmxhVVWt+OxR86yL71122IKN+p9RHwfRUlPcviq8OJZq 2Y0hZ/vqXdwmlN9vhBbuKTxgoCWDhLd7pHzvnz9//sz00N/LynJ6bhyluV08sG8T5mOy8D1bFjP7 L8voHyw+/qJlfngHsg8mRfkyiuv/aKe9cdcJEB8hHDBhv9189vhcsf3zDRPHzdxv1/1+9+UE1hI/ gM303gL5GGAUYX3Jvnx3BuZqe55llWzvAs94xMw9LCxGgYK/5VVVNUe9RIzvs9vDO+v9XdhMmXsG Kj/flC1cm3bIGz03hje+/HdnMUuWz1VV9fPz03z2WKg864knuAf4nDqcEgjugTJl8wbLjBQbXi0H oBAiewCaYmYhXaJ3bhsO7mViAHjLnkTAWlYJVjcT3Id5ja4NawGW51q9AoUK4/StsUglcChF19yf usdOk+DA6hTcl8NgARRogYUvm0rP3Nd13ZxRNccKlMMsYgmez2fzRm8NcEClZ+6DVa41BmBbstJN wT2wrlUy99sI7gEAgLdKL8sBAAAGEtwDAMBOCO4BAGAnBPcAALATgnsAANgJwT0AAOyE4B4AAHZC cA8AADshuAcAgJ0Q3AMAwE4I7gEAYCcE9wAAsBOCewAA2AnBPQAA7ITgHgAAduLftRuwtMfjEX++ Xq+Xy2XFxmRi2+73+7ot2YfwenoxD+XxePS/42kP4NwAYH/++fPnz9ptWM75fM5uqet6lZY0pW1r tqrZ8tPpdL/fF4tOHo9HGhX1PHvW1BVf4diSrA2tL2bzsLllzWh9PYccM5PmO55JX67Vz89mG1rf zZJ7AEoTz5aFz+S3unq27LepFTu3nlevkMEi9nUDR97WI2c15PUs5MXsV8jrGVrS/6QDz+FiHags pzVS6TrVFtYfRXU1sv9e02o+18DXc61X+IMXrbTXc+Brvroy2CM3UgAABpRJREFUz89mq0ruAShN emI8Ho8yz5Ph/e2S7c+eq+vVK2ewiLIuYvX2BM3X8+0xrbfMJLy/PZZvUr/Yqqx52THpf8scefsd Mbi/Xq/pl7DV37a3KdLVdTUv+wDcbrdRd59PV0sK0fWOZ/FE6zGFnCpFpTGGvJ6n/5a9FdUDUJSq qgYGo8sr9mtG1NX3ps3ueoXDr+ZoVY/Cx9/W1/N8PqdtLmfkLV/ztcpezNZjTmV8/Ec5SllOa9FL /+TmArq6lbQ92TGrNLX5QvW/niF46i80mlXPBOWKrWq2oedUzNpZVLNPHe08lXd+Djxjy5zCZhWx y41fAgupz3lbb1PUh7E5CsRXLx3UQiPXeoV76h57grnFGtnstQocefu/HXWNFK3HzG1gG8qJZL5x oMx9j618J9vKiRU6vuwrymLPPvDdXGuQ7hmhW9/f5q9WP127Xrp1g4kPfgtNzc6qhHmqsWfy6oNF cxToOib9ocxkc/1fy0f2aUuyH1KrjLz3+z17fd7eZezxk+t56uzr6KmAj9JnDrdaToFiMuPtkWtd 4ZGd3K3rjRQSRXXNpzc/n2m+YbEXM3uXw9IuzWu5CnkxU0MWmVn3CqSeLvjth+vtGjtwWqNoJPgg REs/jM/nc7F14XoGi+v12rxxRc3qi673d/UlttJXdeD6ECV4Pp+tt6/yeqb5+NbfDgniNzRSCO7X lAZA2ezPW2ut81jyFFUWrA9/PUOgv/yfk01oltxrZNPoA49feIa9q22FBBOUr7/TeL1ei7WkaUiF Q6ufn5/VO7fT6VTUwtOntnez6/1N/5BVRop18yajpE3tesebK+/N26b/KvnVm5CynA3bUMiyTFPT 4P6bu69i1LMv3NTPkkMbOj+hZKHy4ZtHWD2/O7z9yzQ1vd5m7HhhpBhiVBpoSat/FpYhc1+6OJWZ KiRsGjiTtYxs0q3rA9zsx6uqWishl1WaFvV6RulUdbN5rePikudnrGs69b7phXxkYD6rfxh7lFPP UFXVz89P+Dl0aP3VVqHZ6TCxSnVW1tEVOFKc3pW+pL9KX8/lz41CPhSzEtyX7nK5NOe2VvyQZ1PD 5/O5hFnCt4tIxu6j2dTH4xF6meW7mMIvIwtiF9z64vTHEwucn0NKsAT3DJStTLUtq38Ys8akeZa1 6kibmh1aa3KnZ0OrVZJBWUdXYHzfX2La83ouM/KmH+0jDAfKcljCrB/dDX1Qp3odShgji/Ll8gte TyjE3DFrHC8ef3dfSn87drXEZfQvktNjlZ5t4JMu/3qW9nVoVoL706nsoT1u8xanApefE4xtaA2j WwuHljS8Aa1/yForYGxFfK2ar/Mj2ZtwxfMzNGPsd7wNfSekECWPFPHDmC4Cs/xJXnh3OnaVha4X cIEzoeSTrVX/W7/66xmfaN1VOBdzxE2sit2YoHVLnZ79Pk5LtXwTW2lkuvZzGbLHypJtqzs2qBpy zALePu/Ac2NWY5NtzdKLQnoAStDcUGmtLZa6dH3EsttX2QCxp0OIr966m1i9je+zJnX1yfO07j/6 h4bSRt7WAKbntyu+nj1tGPial+8omfssXC4wsh8im0NcZZ37rA2tr96j+D3ST22NXOv1fHt8+S9m sNb5OZbInh7ZebuVT18mm8ta5SRvFr18dsy06obst9nx6TUDwSo9W5wj7TlmxZF3+PM2X89Vcn8D I5nTZnuAowT3p479FIqNP6KeTMaS9TDN57per9nnoesVXj14ShvQta3GwmfC29ezrushr/liup63 ZyG5xc7Pga/VRnsAFpbutbTW9/+BsvZ0fRiXHCm6XqJsU5euq/PXfYXTFyptSfpN6X6/r9uznRqj alEjb88JEH/OXs8lmtX7XOnt6Wu+3UTw6ThlOdEqZRgDhbZ1nUCrzLGmBuY7S36FU+t+aJvVh2+L XrqOKYTzkz1pputK/vRl1u03hr90hUROPUVBq3drwZBea92ebWDhyuqvZ3PkbX2tNv3xDw4X3APA W4WEnsCEDpIGEtwDAMBOHKjmHgAA9k1wDwAAOyG4BwCAnRDcAwDATgjuAQBgJwT3AACwE4J7AADY CcE9AADshOAeAAB2QnAPAAA7IbgHAICdENwDAMBOCO4BAGAnBPcAALATgnsAANgJwT0AAOyE4B4A AHZCcA8AADshuAcAgJ0Q3AMAwE4I7gEAYCcE9wAAsBOCewAA2AnBPQAA7ITgHgAAdkJwDwAAOyG4 BwCAnRDcAwDATgjuAQBgJ/4/5HIsVpAuZ5oAAAAASUVORK5CYII= "
       id="image3040"
       x="-1308.2354"
       y="190.95021" />
    <path
       sodipodi:nodetypes="cccsscsccssssssssssssssssscsscssssscssscsssscssscsscsscsssscssscssc"
       inkscape:connector-curvature="0"
       id="path3064"
       d="m 87.111205,348.73134 c 0.0031,-1.7875 -0.476731,-3.25 -1.066331,-3.25 m 0,0 c -1.284097,0 -1.103792,43.21825 0.19504,46.75 0.559259,1.52072 1.645787,2.25 3.352208,2.25 3.408949,0 3.224648,1.78662 -0.225249,2.18358 l -2.74999,0.31642 -0.5,42 c -0.326509,27.42678 -0.153019,42.25492 0.5,42.73469 0.55,0.40408 2.0125,0.74158 3.25,0.75 1.2375,0.008 2.25,0.46531 2.25,1.01531 0,0.55 -1.364123,1 -3.031385,1 -3.776103,0 -4.345702,1.42371 -3.16611,7.91369 0.513013,2.82254 0.654818,5.30336 0.315123,5.51292 -0.339695,0.20956 -0.492916,14.8243 -0.34049,32.4772 l 0.277139,32.09619 2.972861,0 c 1.635074,0 2.972862,0.45 2.972862,1 0,0.55 -1.287902,1 -2.862003,1 l -2.862004,0 -0.510294,30.25 c -0.326296,19.34263 -0.151616,30.70072 0.484448,31.5 0.547108,0.6875 2.627142,1.31759 4.622298,1.40019 3.460835,0.14329 3.420738,0.17776 -0.872445,0.75 l -4.5,0.59981 0.20382,46.90846 c 0.1121,25.79966 0.435477,47.51216 0.718615,48.25 0.412671,1.07541 5.778071,1.34154 27.046182,1.34154 l 26.53138,0 0,-3.08333 c 0,-3.85021 2.35735,-3.47098 2.8206,0.45375 l 0.3206,2.71619 11.6794,-0.47979 c 6.42367,-0.26388 18.3169,-0.50837 26.4294,-0.5433 l 14.75,-0.0635 0,-2.5 c 0,-1.375 0.45,-2.5 1,-2.5 0.55,0 1,1.07773 1,2.39496 0,3.06804 1.53451,3.24311 30.67919,3.50031 l 22.17918,0.19573 0.32082,-2.71838 c 0.17644,-1.49511 0.87929,-2.90175 1.56188,-3.12586 0.8927,-0.2931 1.06647,0.46553 0.61906,2.7026 l -0.62202,3.11008 23.38095,-0.0778 c 27.12668,-0.0903 30.88094,-0.46116 30.88094,-3.05043 0,-0.99725 0.45,-2.09129 1,-2.43121 0.56716,-0.35052 1,0.48962 1,1.94098 l 0,2.55902 15.75,0.005 c 8.6625,0.002 20.8005,0.29557 26.97334,0.65126 9.16366,0.52803 11.30239,0.38956 11.65407,-0.75455 1.53491,-4.99346 2.02155,-5.43202 2.38714,-2.15126 l 0.36217,3.25 26.93664,0 26.93664,0 0,-3.2 c 0,-2.27818 0.30905,-2.89095 1.07284,-2.12716 0.59007,0.59007 0.92757,2.47918 0.75,4.19803 l -0.32284,3.12474 -64.5,0.25197 c -35.475,0.13858 -111.4125,0.1374 -168.75,-0.003 l 0,3.4e-4 -104.249997,-0.2546 -0.01622,-22.7454 c -0.0089,-12.50996 -0.0017,-102.51629 0.01601,-200.01405 l 0.03223,-177.26867"
       style="fill:#000000" />
    <text
       sodipodi:linespacing="125%"
       id="text3002"
       y="227.90266"
       x="-686.58191"
       style="font-size:21.84000015px;font-style:italic;font-variant:normal;font-weight:bold;font-stretch:normal;line-height:125%;letter-spacing:0px;word-spacing:0px;fill:#000000;fill-opacity:1;stroke:none;font-family:Army;-inkscape-font-specification:Sans Italic"
       xml:space="preserve"><tspan
         y="227.90266"
         x="-686.58191"
         id="tspan3004"
         sodipodi:role="line">vaiselv-morozov, page  279</tspan></text>
    <path
       transform="translate(0.175144,-508.21429)"
       d="m 90.913726,830.63373 c 0,2.78946 -2.317836,5.05076 -5.177032,5.05076 -2.859195,0 -5.177032,-2.2613 -5.177032,-5.05076 0,-2.78946 2.317837,-5.05076 5.177032,-5.05076 2.859196,0 5.177032,2.2613 5.177032,5.05076 z"
       sodipodi:ry="5.0507627"
       sodipodi:rx="5.177032"
       sodipodi:cy="830.63373"
       sodipodi:cx="85.736694"
       id="path3070"
       style="fill:none;stroke:#000000;stroke-width:1px;stroke-linecap:butt;stroke-linejoin:miter;stroke-opacity:1"
       sodipodi:type="arc" />
    <path
       transform="translate(16.842661,-430.43255)"
       sodipodi:type="arc"
       style="fill:none;stroke:#000000;stroke-width:1px;stroke-linecap:butt;stroke-linejoin:miter;stroke-opacity:1"
       id="path3074"
       sodipodi:cx="85.736694"
       sodipodi:cy="830.63373"
       sodipodi:rx="5.177032"
       sodipodi:ry="5.0507627"
       d="m 90.913726,830.63373 c 0,2.78946 -2.317836,5.05076 -5.177032,5.05076 -2.859195,0 -5.177032,-2.2613 -5.177032,-5.05076 0,-2.78946 2.317837,-5.05076 5.177032,-5.05076 2.859196,0 5.177032,2.2613 5.177032,5.05076 z" />
    <path
       d="m 90.913726,830.63373 c 0,2.78946 -2.317836,5.05076 -5.177032,5.05076 -2.859195,0 -5.177032,-2.2613 -5.177032,-5.05076 0,-2.78946 2.317837,-5.05076 5.177032,-5.05076 2.859196,0 5.177032,2.2613 5.177032,5.05076 z"
       sodipodi:ry="5.0507627"
       sodipodi:rx="5.177032"
       sodipodi:cy="830.63373"
       sodipodi:cx="85.736694"
       id="path3076"
       style="fill:none;stroke:#000000;stroke-width:1px;stroke-linecap:butt;stroke-linejoin:miter;stroke-opacity:1"
       sodipodi:type="arc"
       transform="translate(33.56563,-351.64065)" />
    <path
       transform="translate(48.212843,-307.69901)"
       sodipodi:type="arc"
       style="fill:none;stroke:#000000;stroke-width:1px;stroke-linecap:butt;stroke-linejoin:miter;stroke-opacity:1"
       id="path3078"
       sodipodi:cx="85.736694"
       sodipodi:cy="830.63373"
       sodipodi:rx="5.177032"
       sodipodi:ry="5.0507627"
       d="m 90.913726,830.63373 c 0,2.78946 -2.317836,5.05076 -5.177032,5.05076 -2.859195,0 -5.177032,-2.2613 -5.177032,-5.05076 0,-2.78946 2.317837,-5.05076 5.177032,-5.05076 2.859196,0 5.177032,2.2613 5.177032,5.05076 z" />
    <path
       d="m 90.913726,830.63373 c 0,2.78946 -2.317836,5.05076 -5.177032,5.05076 -2.859195,0 -5.177032,-2.2613 -5.177032,-5.05076 0,-2.78946 2.317837,-5.05076 5.177032,-5.05076 2.859196,0 5.177032,2.2613 5.177032,5.05076 z"
       sodipodi:ry="5.0507627"
       sodipodi:rx="5.177032"
       sodipodi:cy="830.63373"
       sodipodi:cx="85.736694"
       id="path3080"
       style="fill:none;stroke:#000000;stroke-width:1px;stroke-linecap:butt;stroke-linejoin:miter;stroke-opacity:1"
       sodipodi:type="arc"
       transform="translate(73.466656,-274.36398)" />
    <path
       transform="translate(113.36768,-234.96803)"
       sodipodi:type="arc"
       style="fill:none;stroke:#000000;stroke-width:1px;stroke-linecap:butt;stroke-linejoin:miter;stroke-opacity:1"
       id="path3082"
       sodipodi:cx="85.736694"
       sodipodi:cy="830.63373"
       sodipodi:rx="5.177032"
       sodipodi:ry="5.0507627"
       d="m 90.913726,830.63373 c 0,2.78946 -2.317836,5.05076 -5.177032,5.05076 -2.859195,0 -5.177032,-2.2613 -5.177032,-5.05076 0,-2.78946 2.317837,-5.05076 5.177032,-5.05076 2.859196,0 5.177032,2.2613 5.177032,5.05076 z" />
    <path
       d="m 90.913726,830.63373 c 0,2.78946 -2.317836,5.05076 -5.177032,5.05076 -2.859195,0 -5.177032,-2.2613 -5.177032,-5.05076 0,-2.78946 2.317837,-5.05076 5.177032,-5.05076 2.859196,0 5.177032,2.2613 5.177032,5.05076 z"
       sodipodi:ry="5.0507627"
       sodipodi:rx="5.177032"
       sodipodi:cy="830.63373"
       sodipodi:cx="85.736694"
       id="path3084"
       style="fill:none;stroke:#000000;stroke-width:1px;stroke-linecap:butt;stroke-linejoin:miter;stroke-opacity:1"
       sodipodi:type="arc"
       transform="translate(169.93622,-185.47055)" />
    <path
       transform="translate(224.48446,-157.18628)"
       sodipodi:type="arc"
       style="fill:none;stroke:#000000;stroke-width:1px;stroke-linecap:butt;stroke-linejoin:miter;stroke-opacity:1"
       id="path3086"
       sodipodi:cx="85.736694"
       sodipodi:cy="830.63373"
       sodipodi:rx="5.177032"
       sodipodi:ry="5.0507627"
       d="m 90.913726,830.63373 c 0,2.78946 -2.317836,5.05076 -5.177032,5.05076 -2.859195,0 -5.177032,-2.2613 -5.177032,-5.05076 0,-2.78946 2.317837,-5.05076 5.177032,-5.05076 2.859196,0 5.177032,2.2613 5.177032,5.05076 z" />
    <path
       d="m 90.913726,830.63373 c 0,2.78946 -2.317836,5.05076 -5.177032,5.05076 -2.859195,0 -5.177032,-2.2613 -5.177032,-5.05076 0,-2.78946 2.317837,-5.05076 5.177032,-5.05076 2.859196,0 5.177032,2.2613 5.177032,5.05076 z"
       sodipodi:ry="5.0507627"
       sodipodi:rx="5.177032"
       sodipodi:cy="830.63373"
       sodipodi:cx="85.736694"
       id="path3088"
       style="fill:none;stroke:#000000;stroke-width:1px;stroke-linecap:butt;stroke-linejoin:miter;stroke-opacity:1"
       sodipodi:type="arc"
       transform="translate(288.12407,-136.98323)" />
    <path
       transform="translate(337.62154,-132.43754)"
       sodipodi:type="arc"
       style="fill:none;stroke:#000000;stroke-width:1px;stroke-linecap:butt;stroke-linejoin:miter;stroke-opacity:1"
       id="path3090"
       sodipodi:cx="85.736694"
       sodipodi:cy="830.63373"
       sodipodi:rx="5.177032"
       sodipodi:ry="5.0507627"
       d="m 90.913726,830.63373 c 0,2.78946 -2.317836,5.05076 -5.177032,5.05076 -2.859195,0 -5.177032,-2.2613 -5.177032,-5.05076 0,-2.78946 2.317837,-5.05076 5.177032,-5.05076 2.859196,0 5.177032,2.2613 5.177032,5.05076 z" />
    <g
       transform="translate(-527.29963,-509.11688)"
       id="g3139">
      <path
         transform="translate(527.3328,0.71133)"
         sodipodi:type="arc"
         style="fill:#ff0000;stroke:#000000;stroke-width:1px;stroke-linecap:butt;stroke-linejoin:miter;stroke-opacity:1"
         id="path3108"
         sodipodi:cx="85.736694"
         sodipodi:cy="830.63373"
         sodipodi:rx="5.177032"
         sodipodi:ry="5.0507627"
         d="m 90.913726,830.63373 c 0,2.78946 -2.317836,5.05076 -5.177032,5.05076 -2.859195,0 -5.177032,-2.2613 -5.177032,-5.05076 0,-2.78946 2.317837,-5.05076 5.177032,-5.05076 2.859196,0 5.177032,2.2613 5.177032,5.05076 z" />
      <path
         d="m 90.913726,830.63373 c 0,2.78946 -2.317836,5.05076 -5.177032,5.05076 -2.859195,0 -5.177032,-2.2613 -5.177032,-5.05076 0,-2.78946 2.317837,-5.05076 5.177032,-5.05076 2.859196,0 5.177032,2.2613 5.177032,5.05076 z"
         sodipodi:ry="5.0507627"
         sodipodi:rx="5.177032"
         sodipodi:cy="830.63373"
         sodipodi:cx="85.736694"
         id="path3110"
         style="fill:#ff0000;stroke:#000000;stroke-width:1px;stroke-linecap:butt;stroke-linejoin:miter;stroke-opacity:1"
         sodipodi:type="arc"
         transform="translate(580.18994,179.99704)" />
      <path
         transform="translate(638.77879,206.26101)"
         sodipodi:type="arc"
         style="fill:#ff0000;stroke:#000000;stroke-width:1px;stroke-linecap:butt;stroke-linejoin:miter;stroke-opacity:1"
         id="path3112"
         sodipodi:cx="85.736694"
         sodipodi:cy="830.63373"
         sodipodi:rx="5.177032"
         sodipodi:ry="5.0507627"
         d="m 90.913726,830.63373 c 0,2.78946 -2.317836,5.05076 -5.177032,5.05076 -2.859195,0 -5.177032,-2.2613 -5.177032,-5.05076 0,-2.78946 2.317837,-5.05076 5.177032,-5.05076 2.859196,0 5.177032,2.2613 5.177032,5.05076 z" />
      <path
         d="m 90.913726,830.63373 c 0,2.78946 -2.317836,5.05076 -5.177032,5.05076 -2.859195,0 -5.177032,-2.2613 -5.177032,-5.05076 0,-2.78946 2.317837,-5.05076 5.177032,-5.05076 2.859196,0 5.177032,2.2613 5.177032,5.05076 z"
         sodipodi:ry="5.0507627"
         sodipodi:rx="5.177032"
         sodipodi:cy="830.63373"
         sodipodi:cx="85.736694"
         id="path3114"
         style="fill:#ff0000;stroke:#000000;stroke-width:1px;stroke-linecap:butt;stroke-linejoin:miter;stroke-opacity:1"
         sodipodi:type="arc"
         transform="translate(694.33718,218.88792)" />
      <path
         transform="translate(751.4108,221.91838)"
         sodipodi:type="arc"
         style="fill:#ff0000;stroke:#000000;stroke-width:1px;stroke-linecap:butt;stroke-linejoin:miter;stroke-opacity:1"
         id="path3116"
         sodipodi:cx="85.736694"
         sodipodi:cy="830.63373"
         sodipodi:rx="5.177032"
         sodipodi:ry="5.0507627"
         d="m 90.913726,830.63373 c 0,2.78946 -2.317836,5.05076 -5.177032,5.05076 -2.859195,0 -5.177032,-2.2613 -5.177032,-5.05076 0,-2.78946 2.317837,-5.05076 5.177032,-5.05076 2.859196,0 5.177032,2.2613 5.177032,5.05076 z" />
      <path
         d="m 90.913726,830.63373 c 0,2.78946 -2.317836,5.05076 -5.177032,5.05076 -2.859195,0 -5.177032,-2.2613 -5.177032,-5.05076 0,-2.78946 2.317837,-5.05076 5.177032,-5.05076 2.859196,0 5.177032,2.2613 5.177032,5.05076 z"
         sodipodi:ry="5.0507627"
         sodipodi:rx="5.177032"
         sodipodi:cy="830.63373"
         sodipodi:cx="85.736694"
         id="path3118"
         style="fill:#ff0000;stroke:#000000;stroke-width:1px;stroke-linecap:butt;stroke-linejoin:miter;stroke-opacity:1"
         sodipodi:type="arc"
         transform="translate(804.44381,205.75594)" />
      <path
         transform="translate(862.02251,194.13919)"
         sodipodi:type="arc"
         style="fill:#ff0000;stroke:#000000;stroke-width:1px;stroke-linecap:butt;stroke-linejoin:miter;stroke-opacity:1"
         id="path3120"
         sodipodi:cx="85.736694"
         sodipodi:cy="830.63373"
         sodipodi:rx="5.177032"
         sodipodi:ry="5.0507627"
         d="m 90.913726,830.63373 c 0,2.78946 -2.317836,5.05076 -5.177032,5.05076 -2.859195,0 -5.177032,-2.2613 -5.177032,-5.05076 0,-2.78946 2.317837,-5.05076 5.177032,-5.05076 2.859196,0 5.177032,2.2613 5.177032,5.05076 z" />
    </g>
    <text
       sodipodi:linespacing="125%"
       id="text3148"
       y="733.15399"
       x="431.33514"
       style="font-size:21.84000015px;font-style:italic;font-variant:normal;font-weight:bold;font-stretch:normal;line-height:125%;letter-spacing:0px;word-spacing:0px;fill:#000000;fill-opacity:1;stroke:none;font-family:CMU Serif;-inkscape-font-specification:CMU Serif Bold Italic"
       xml:space="preserve"><tspan
         y="733.15399"
         x="431.33514"
         id="tspan3150"
         sodipodi:role="line">$\theta$ [deg]</tspan></text>
    <text
       sodipodi:linespacing="125%"
       id="text3148-6"
       y="304.24841"
       x="78.342758"
       style="font-size:21.84000015px;font-style:italic;font-variant:normal;font-weight:bold;font-stretch:normal;line-height:125%;letter-spacing:0px;word-spacing:0px;fill:#000000;fill-opacity:1;stroke:none;font-family:CMU Serif;-inkscape-font-specification:CMU Serif Bold Italic"
       xml:space="preserve"><tspan
         y="304.24841"
         x="78.342758"
         id="tspan3150-1"
         sodipodi:role="line">$\sigma_x$ [MPa]</tspan></text>
    <text
       sodipodi:linespacing="125%"
       id="text3032"
       y="327.70627"
       x="-0.106987"
       style="font-size:32px;font-style:normal;font-variant:normal;font-weight:bold;font-stretch:normal;line-height:125%;letter-spacing:0px;word-spacing:0px;fill:#000000;fill-opacity:1;stroke:none;font-family:CMU Serif;-inkscape-font-specification:CMU Serif Bold"
       xml:space="preserve"><tspan
         y="327.70627"
         x="-0.106987"
         id="tspan3034"
         sodipodi:role="line">1000</tspan></text>
    <text
       xml:space="preserve"
       style="font-size:32px;font-style:normal;font-variant:normal;font-weight:bold;font-stretch:normal;line-height:125%;letter-spacing:0px;word-spacing:0px;fill:#000000;fill-opacity:1;stroke:none;font-family:CMU Serif;-inkscape-font-specification:CMU Serif Bold"
       x="18.268013"
       y="405.34912"
       id="text3036"
       sodipodi:linespacing="125%"><tspan
         sodipodi:role="line"
         id="tspan3038"
         x="18.268013"
         y="405.34912">500</tspan></text>
    <text
       xml:space="preserve"
       style="font-size:32px;font-style:normal;font-variant:normal;font-weight:bold;font-stretch:normal;line-height:125%;letter-spacing:0px;word-spacing:0px;fill:#000000;fill-opacity:1;stroke:none;font-family:CMU Serif;-inkscape-font-specification:CMU Serif Bold"
       x="36.643013"
       y="640.63483"
       id="text3040"
       sodipodi:linespacing="125%"><tspan
         sodipodi:role="line"
         id="tspan3042"
         x="36.643013"
         y="640.63483">50</tspan></text>
    <text
       sodipodi:linespacing="125%"
       id="text3044"
       y="574.92059"
       x="18.268013"
       style="font-size:32px;font-style:normal;font-variant:normal;font-weight:bold;font-stretch:normal;line-height:125%;letter-spacing:0px;word-spacing:0px;fill:#000000;fill-opacity:1;stroke:none;font-family:CMU Serif;-inkscape-font-specification:CMU Serif Bold"
       xml:space="preserve"><tspan
         y="574.92059"
         x="18.268013"
         id="tspan3046"
         sodipodi:role="line">100</tspan></text>
    <text
       xml:space="preserve"
       style="font-size:32px;font-style:normal;font-variant:normal;font-weight:bold;font-stretch:normal;line-height:125%;letter-spacing:0px;word-spacing:0px;fill:#000000;fill-opacity:1;stroke:none;font-family:CMU Serif;-inkscape-font-specification:CMU Serif Bold"
       x="18.268013"
       y="499.24036"
       id="text3048"
       sodipodi:linespacing="125%"><tspan
         sodipodi:role="line"
         id="tspan3050"
         x="18.268013"
         y="499.24036">200</tspan></text>
    <text
       xml:space="preserve"
       style="font-size:32px;font-style:normal;font-variant:normal;font-weight:bold;font-stretch:normal;line-height:125%;letter-spacing:0px;word-spacing:0px;fill:#000000;fill-opacity:1;stroke:none;font-family:CMU Serif;-inkscape-font-specification:CMU Serif Bold"
       x="55.018013"
       y="738.99091"
       id="text3107-9"
       sodipodi:linespacing="125%"><tspan
         sodipodi:role="line"
         id="tspan3109-3"
         x="55.018013"
         y="738.99091">0</tspan><tspan
         id="tspan3111-2"
         sodipodi:role="line"
         x="55.018013"
         y="778.99091" /></text>
    <text
       sodipodi:linespacing="125%"
       id="text3032-3"
       y="769.73792"
       x="403.02997"
       style="font-size:32px;font-style:normal;font-variant:normal;font-weight:bold;font-stretch:normal;line-height:125%;letter-spacing:0px;word-spacing:0px;fill:#000000;fill-opacity:1;stroke:none;font-family:CMU Serif;-inkscape-font-specification:CMU Serif Bold"
       xml:space="preserve"><tspan
         y="769.73792"
         x="403.02997"
         id="tspan3034-3"
         sodipodi:role="line">90</tspan></text>
    <text
       xml:space="preserve"
       style="font-size:32px;font-style:normal;font-variant:normal;font-weight:bold;font-stretch:normal;line-height:125%;letter-spacing:0px;word-spacing:0px;fill:#000000;fill-opacity:1;stroke:none;font-family:CMU Serif;-inkscape-font-specification:CMU Serif Bold"
       x="347.45126"
       y="769.72192"
       id="text3083"
       sodipodi:linespacing="125%"><tspan
         sodipodi:role="line"
         id="tspan3085"
         x="347.45126"
         y="769.72192">75</tspan></text>
    <text
       sodipodi:linespacing="125%"
       id="text3087"
       y="769.72192"
       x="289.79132"
       style="font-size:32px;font-style:normal;font-variant:normal;font-weight:bold;font-stretch:normal;line-height:125%;letter-spacing:0px;word-spacing:0px;fill:#000000;fill-opacity:1;stroke:none;font-family:CMU Serif;-inkscape-font-specification:CMU Serif Bold"
       xml:space="preserve"><tspan
         y="769.72192"
         x="289.79132"
         id="tspan3089"
         sodipodi:role="line">60</tspan></text>
    <text
       xml:space="preserve"
       style="font-size:32px;font-style:normal;font-variant:normal;font-weight:bold;font-stretch:normal;line-height:125%;letter-spacing:0px;word-spacing:0px;fill:#000000;fill-opacity:1;stroke:none;font-family:CMU Serif;-inkscape-font-specification:CMU Serif Bold"
       x="233.14157"
       y="769.72192"
       id="text3091"
       sodipodi:linespacing="125%"><tspan
         sodipodi:role="line"
         id="tspan3093"
         x="233.14157"
         y="769.72192">45</tspan></text>
    <text
       sodipodi:linespacing="125%"
       id="text3095"
       y="769.72192"
       x="178.4715"
       style="font-size:32px;font-style:normal;font-variant:normal;font-weight:bold;font-stretch:normal;line-height:125%;letter-spacing:0px;word-spacing:0px;fill:#000000;fill-opacity:1;stroke:none;font-family:CMU Serif;-inkscape-font-specification:CMU Serif Bold"
       xml:space="preserve"><tspan
         y="769.72192"
         x="178.4715"
         id="tspan3097"
         sodipodi:role="line">30</tspan></text>
    <text
       xml:space="preserve"
       style="font-size:32px;font-style:normal;font-variant:normal;font-weight:bold;font-stretch:normal;line-height:125%;letter-spacing:0px;word-spacing:0px;fill:#000000;fill-opacity:1;stroke:none;font-family:CMU Serif;-inkscape-font-specification:CMU Serif Bold"
       x="121.88265"
       y="769.73792"
       id="text3103"
       sodipodi:linespacing="125%"><tspan
         sodipodi:role="line"
         id="tspan3105"
         x="121.88265"
         y="769.73792">15</tspan></text>
    <text
       xml:space="preserve"
       style="font-size:32px;font-style:normal;font-variant:normal;font-weight:bold;font-stretch:normal;line-height:125%;letter-spacing:0px;word-spacing:0px;fill:#000000;fill-opacity:1;stroke:none;font-family:CMU Serif;-inkscape-font-specification:CMU Serif Bold"
       x="72.446098"
       y="769.72192"
       id="text3107"
       sodipodi:linespacing="125%"><tspan
         sodipodi:role="line"
         id="tspan3109"
         x="72.446098"
         y="769.72192">0</tspan><tspan
         id="tspan3111"
         sodipodi:role="line"
         x="72.446098"
         y="809.72192" /></text>
    <path
       sodipodi:nodetypes="caaaaaaaac"
       inkscape:connector-curvature="0"
       id="path3382"
       d="m 85.714286,322.36218 c 0,0 10.223309,52.4328 15.714284,78.57143 5.4632,26.0064 9.27053,52.47594 17.14286,77.85714 4.61046,14.8646 10.39536,29.44171 17.52538,43.27557 6.39002,12.39809 13.9839,24.23002 22.47462,35.29586 11.79717,15.3751 25.36302,29.37658 39.28571,42.85714 17.58853,17.02998 35.43113,34.14693 55.71429,47.85715 17.11611,11.56948 35.79864,20.94767 55,28.57143 20.24418,8.0378 41.53422,13.41121 62.85714,17.85714 17.40489,3.629 52.85714,7.14286 52.85714,7.14286"
       style="fill:none;stroke:#000000;stroke-width:3;stroke-linecap:butt;stroke-linejoin:miter;stroke-miterlimit:4;stroke-opacity:1;stroke-dasharray:none" />
    <text
       xml:space="preserve"
       style="font-size:21.84000015px;font-style:italic;font-variant:normal;font-weight:bold;font-stretch:normal;line-height:125%;letter-spacing:0px;word-spacing:0px;fill:#000000;fill-opacity:1;stroke:none;font-family:Army;-inkscape-font-specification:Sans Italic"
       x="293.95438"
       y="649.31134"
       id="text4695"
       sodipodi:linespacing="125%"><tspan
         sodipodi:role="line"
         id="tspan4697"
         x="293.95438"
         y="649.31134">Tension</tspan></text>
    <text
       xml:space="preserve"
       style="font-size:21.84000015px;font-style:italic;font-variant:normal;font-weight:bold;font-stretch:normal;line-height:125%;letter-spacing:0px;word-spacing:0px;fill:#000000;fill-opacity:1;stroke:none;font-family:Army;-inkscape-font-specification:Sans Italic"
       x="372.74628"
       y="565.46869"
       id="text4699"
       sodipodi:linespacing="125%"><tspan
         sodipodi:role="line"
         id="tspan4701"
         x="372.74628"
         y="565.46869"
         style="fill:#ff0000;stroke:#ff0000">Compression</tspan></text>
    <rect
       style="color:#000000;fill:url(#pattern5334);fill-opacity:1;stroke:#000000;stroke-width:2.98522449;stroke-linecap:round;stroke-linejoin:round;stroke-miterlimit:4;stroke-opacity:1;stroke-dasharray:none;stroke-dashoffset:0;marker:none;visibility:visible;display:inline;overflow:visible;enable-background:accumulate"
       id="rect2993-5"
       width="49.532497"
       height="197.01477"
       x="600.51819"
       y="378.06787" />
    <path
       style="fill:none;stroke:#000000;stroke-width:1px;stroke-linecap:butt;stroke-linejoin:miter;stroke-opacity:1;marker-end:url(#Arrow1Lend)"
       d="m 625.15455,579.7783 c 4e-5,89.99991 4e-5,89.99991 4e-5,89.99991"
       id="path5535-0-9-2"
       inkscape:connector-curvature="0" />
    <text
       xml:space="preserve"
       style="font-size:18px;font-style:italic;font-variant:normal;font-weight:normal;font-stretch:normal;text-align:start;line-height:125%;writing-mode:lr-tb;text-anchor:start;fill:#000000;fill-opacity:1;stroke:none;font-family:TeX Gyre Termes;-inkscape-font-specification:TeX Gyre Termes Italic"
       x="616.71454"
       y="267.01996"
       id="text5504-8-3-7"
       sodipodi:linespacing="125%"><tspan
         sodipodi:role="line"
         id="tspan5506-6-7-0"
         x="616.71454"
         y="267.01996"
         style="font-size:18px;font-style:italic;font-variant:normal;font-weight:normal;font-stretch:normal;text-align:start;line-height:125%;writing-mode:lr-tb;text-anchor:start;fill:#000000;font-family:Times New Roman;-inkscape-font-specification:Times New Roman">$\sigma_x$ </tspan></text>
    <path
       inkscape:connector-curvature="0"
       id="path4587"
       d="M 601.58403,541.60102 650.68409,425.54774"
       style="fill:none;stroke:#0000ff;stroke-width:1;stroke-linecap:butt;stroke-linejoin:miter;stroke-opacity:1;stroke-miterlimit:4;stroke-dasharray:none" />
    <path
       style="fill:none;stroke:#000000;stroke-width:0.99999994px;stroke-linecap:butt;stroke-linejoin:miter;stroke-opacity:1"
       d="M 601.58403,541.60102 711.79832,281.601"
       id="path4723"
       inkscape:connector-curvature="0" />
    <path
       inkscape:connector-curvature="0"
       id="path5508"
       d="m 623.13424,370.77305 c 4e-5,-89.99991 4e-5,-89.99991 4e-5,-89.99991"
       style="fill:none;stroke:#000000;stroke-width:1px;stroke-linecap:butt;stroke-linejoin:miter;stroke-opacity:1;marker-end:url(#Arrow1Lend)" />
    <text
       sodipodi:linespacing="125%"
       id="text5518"
       y="694.19196"
       x="615.07062"
       style="font-size:18px;font-style:italic;font-variant:normal;font-weight:normal;font-stretch:normal;text-align:start;line-height:125%;writing-mode:lr-tb;text-anchor:start;fill:#000000;fill-opacity:1;stroke:none;font-family:TeX Gyre Termes;-inkscape-font-specification:TeX Gyre Termes Italic"
       xml:space="preserve"><tspan
         style="font-size:18px;font-style:italic;font-variant:normal;font-weight:normal;font-stretch:normal;text-align:start;line-height:125%;writing-mode:lr-tb;text-anchor:start;fill:#000000;font-family:Times New Roman;-inkscape-font-specification:Times New Roman"
         y="694.19196"
         x="615.07062"
         id="tspan5520"
         sodipodi:role="line">$\sigma_x$ </tspan></text>
    <text
       sodipodi:linespacing="125%"
       id="text3148-4"
       y="351.30438"
       x="657.33728"
       style="font-size:21.84000015px;font-style:italic;font-variant:normal;font-weight:bold;font-stretch:normal;line-height:125%;letter-spacing:0px;word-spacing:0px;fill:#000000;fill-opacity:1;stroke:none;font-family:CMU Serif;-inkscape-font-specification:CMU Serif Bold Italic"
       xml:space="preserve"><tspan
         y="351.30438"
         x="657.33728"
         id="tspan3150-5"
         sodipodi:role="line">$\theta$ </tspan></text>
    <path
       style="fill:none;stroke:#000000;stroke-width:1px;stroke-linecap:butt;stroke-linejoin:miter;stroke-opacity:1"
       d="M 652.14286,423.07647 651.42857,280.21932"
       id="path5546"
       inkscape:connector-curvature="0" />
    <path
       sodipodi:type="arc"
       style="fill:none;stroke:#000000;stroke-width:1px;stroke-linecap:butt;stroke-linejoin:miter;stroke-opacity:1"
       id="path5560"
       sodipodi:cx="649.64288"
       sodipodi:cy="424.86218"
       sodipodi:rx="36.785713"
       sodipodi:ry="60"
       d="m 651.95666,364.98099 c 7.16866,0.73691 14.04821,4.88087 19.7898,11.92057 l -22.10358,47.96062 z"
       sodipodi:start="4.7753293"
       sodipodi:end="5.356983" />
    <path
       style="fill:none;stroke:#ff0000;stroke-width:3;stroke-linecap:butt;stroke-linejoin:miter;stroke-miterlimit:4;stroke-opacity:1;stroke-dasharray:none"
       d="m 84.852814,71.206342 c 0,0 9.926516,61.443938 16.162436,91.923878 3.20855,15.68273 6.98916,32.46445 10.92785,46.76289 3.91847,14.22499 14.37476,26.26755 24.93257,36.5747 7.31794,7.1442 16.6609,11.99651 25.75889,16.66752 9.01128,4.6265 18.6365,8.02488 28.28427,11.11167 11.90062,3.80758 24.08922,6.76425 36.36549,9.09138 7.67345,1.45461 15.47076,2.17166 23.23351,3.03045 7.39323,0.81791 14.79267,1.68325 22.22336,2.02031 8.40929,0.38145 16.83768,-0.17442 25.25381,0 8.10521,0.16798 14.60422,0.58257 21.2132,-2.02031 6.03819,-2.37808 10.7963,-3.30036 16.16244,-5.05076 8.45285,-2.75727 16.90138,-5.53833 25.25382,-8.58629 6.96071,-2.5401 13.54175,-6.19795 20.70812,-8.08122 5.75692,-1.51288 11.75632,-1.91836 17.67767,-2.52539 5.36985,-0.55049 16.16245,-1.01015 16.16245,-1.01015 l 0,0"
       id="path3099"
       inkscape:connector-curvature="0"
       transform="translate(2.613013,254.41644)"
       sodipodi:nodetypes="casaaaaaassaaaacc" />
  </g>
</svg>
